SMc02371,-0.497764,no,1.03223,yes
SMc02279,-0.091926,no,0.160467,no
SMb21643,-0.531377,no,0.40064,no
SMb21644,-0.17784,no,0.593902,yes
SMc03902,-1.79507,yes,1.70188,yes
SMc01576,-0.901994,no,0.316987,no
SMa0840,-0.631955,no,0.00661699,no
SMa1172,-0.0790947,no,0.338896,no
SMa1594,-0.0221213,no,1.74183,yes
SMc00558,-0.0783546,no,0.0199402,no
SMa0626,-0.202352,no,0.380402,no
SMa1869,-0.103487,no,0.559513,no
SMb20812,-0.212514,no,0.267964,no
SMb20811,-0.223833,no,0.112886,no
SMa1060,-0.199841,no,0.434297,no
SMc03272,-0.0703227,no,0.00548751,no
SMa0783,-0.0436814,no,1.79769e+308,no
SMc02208,-1.9886,yes,2.90091,yes
SMc02207,-1.17774,no,1.2494,yes
SMa0144,-0.333163,no,0.147998,no
SMa0142,-0.386119,no,0.43529,yes
SMb20130,-0.0316088,no,0.0482362,no
SMb20525,-0.269574,no,0.199825,no
SMc03014,-1.77654,yes,0.189648,no
SMa0763,-0.00594069,no,0.663103,no
SMa0762,-0.243104,no,0.6347,no
SMa0810,-0.0059316,no,0.930969,yes
SMc03872,-0.143358,no,0.0174066,no
SMa0402,-0.0709869,no,0.265152,no
SMb20529,-0.536518,no,0.137818,no
SMb21031,-0.291989,no,1.86383,yes
SMc01377,-1.09348,no,1.58444,yes
SMa0790,-0.103926,no,0.0670449,no
SMc01378,-0.127773,no,2.53629,yes
SMc01379,-0.523278,no,0.574075,no
SMa1141,-0.127647,no,0.657307,no
SMa2217,-0.327353,no,0.292087,no
SMa1146,-0.219987,no,0.397134,no
SMa1147,-0.736832,no,0.214572,no
SMa1149,-0.371641,no,0.341857,no
SMc03086,-0.850803,no,0.405034,no
SMc03087,-0.122624,no,0.261336,no
SMc01551,-0.124561,no,0.24502,no
SMa0713,-0.0153671,no,0.243104,no
SMb21085,-0.169431,no,0.0783292,no
SMc01381,-0.319876,no,1.19041,yes
SMc01380,-0.719214,no,2.63521,yes
SMa0719,-0.501772,no,0.289286,no
SMa0495,-0.222377,no,0.159995,no
SMa2193,-0.0327328,no,0.403065,no
SMa1667,-0.0851261,no,0.140375,no
SMa0496,-0.391392,no,0.0564397,no
SMa1368,-0.330786,no,0.478952,no
SMa1043,-1.26925,no,0.172706,no
SMa1045,-0.971893,no,0.0242271,no
SMc04031,-0.0724293,no,0.118233,no
SMa1362,-0.17679,no,0.375142,no
SMa1364,-0.032635,no,1.43404,yes
SMc04439,-0.447011,no,0.497106,yes
SMa1367,-0.553198,no,0.428376,no
SMa1194,-0.0917236,no,0.409183,no
SMc00067,-0.0443207,no,0.430173,no
SMc00986,-1.78306,yes,0.316265,no
SMc00981,-0.9056,no,1.99404,yes
SMc00982,-1.22076,no,3.61256,yes
SMb21226,-0.147004,no,1.27005,yes
SMa0501,-0.062701,no,0.107227,no
SMa0567,-0.10209,no,0.223469,no
SMa1562,-0.0546398,no,0.386366,no
SMa1561,-0.0380551,no,0.625904,yes
SMa2008,-0.100108,no,0.0297503,no
SMa1211,-0.0273157,no,0.438206,no
SMa1213,-0.159321,no,0.248747,no
SMb21421,-0.0241908,no,0.578363,no
SMc01857,-1.07726,no,0.253665,no
SMc00179,-0.36004,no,1.12996,yes
SMc00178,-0.00769017,no,0.215016,no
SMa1289,-0.0924344,no,1.08464,no
SMc00170,-0.262937,no,0.260113,no
SMa1283,-0.285242,no,0.336233,no
SMa0198,-0.850686,no,0.378684,no
SMc02724,-0.789386,no,0.0483708,no
SMb21215,-0.604715,no,0.946984,yes
SMc02723,-0.672213,no,0.235703,no
SMb21210,-0.122578,no,0.180466,no
SMc00453,-0.139901,no,0.250156,no
SMc00759,-0.776285,no,2.04415,yes
SMc00758,-1.79051,yes,1.66689,yes
SMa2147,-0.0603067,no,0.779676,yes
SMb20412,-0.0061119,no,0.0244472,no
SMb20852,-0.084729,no,0.320891,no
SMb20851,-0.169222,no,0.0896676,no
SMa0662,-0.426679,no,0.158068,no
SMa0663,-1.24365,no,0.0499238,no
SMc01585,-0.632925,no,0.0782524,no
SMa0664,-0.187717,no,1.05557,yes
SMa0665,-0.448166,no,0.554644,yes
SMc02123,-0.401752,no,0.0778307,no
SMc02125,-1.05923,no,1.58235,yes
SMb21104,-0.117648,no,0.430597,no
SMb21458,-0.230435,no,0.106226,no
SMb21459,-0.120984,no,0.319823,no
SMc00350,-0.915569,no,0.411403,no
SMa0352,-0.15813,no,0.361692,no
SMc02423,-0.0638851,no,0.0740415,no
SMa0687,-0.245644,no,0.542552,no
SMc03831,-0.0595951,no,0.206319,no
SMc01409,-0.0184153,no,0.0600427,no
SMa0722,-0.18439,no,0.0979723,no
SMc01404,-0.0737438,no,0.23777,no
SMa0689,-0.244291,no,0.0883072,no
SMa0815,-0.13403,no,0.544807,yes
SMa0814,-0.321528,no,0.603183,yes
SMa0817,-0.0214779,no,1.20303,yes
SMa0816,-0.439616,no,0.277313,no
SMa0811,-0.218926,no,1.04446,yes
SMc03060,-0.251935,no,0.216266,no
SMc00529,-0.11205,no,0.778626,yes
SMa0819,-0.159362,no,1.07693,yes
SMc02206,-1.32177,yes,1.61976,yes
SMa1629,-0.0451662,no,0.0185683,no
SMc02200,-0.0410827,no,0.0136663,no
SMa2091,-0.00608289,no,0.203656,no
SMa0203,-0.230862,no,0.212004,no
SMa0677,-0.227235,no,0.466419,no
SMc03208,-0.0753672,no,0.0374336,no
SMb20779,-0.62057,no,3.11467,no
SMb20527,-0.0212541,no,0.429912,no
SMb20414,-0.0807224,no,1.36597,yes
SMc04364,-0.433413,no,2.08123,yes
SMc03846,-0.393007,no,0.261748,no
SMb20411,-0.176097,no,0.150681,no
SMa0535,-0.364463,no,0.580607,no
SMb20552,-0.0563402,no,0.275277,no
SMa0765,-0.20692,no,0.387546,no
SMc03749,-0.295474,no,0.943092,no
SMc01244,-0.771787,no,1.38064,no
SMc01245,-1.05836,no,2.15747,yes
SMc01242,-0.934146,no,0.334479,no
SMc01243,-0.633814,no,3.03172,yes
SMa0961,-0.333401,no,0.00402698,no
SMa0964,-0.25855,no,0.272993,no
SMa0967,-0.322206,no,0.112248,no
SMa1483,-0.0464056,no,0.0770644,no
SMa1529,-0.090248,no,1.05551,yes
SMa1487,-0.0469953,no,0.842815,no
SMa1139,-0.536803,no,0.0990734,no
SMa1138,-0.341679,no,0.150713,no
SMc04311,-0.335762,no,0.270911,no
SMc04310,-1.0704,no,1.87025,yes
SMa0445,-0.409621,no,0.189781,no
SMa1131,-0.289955,no,0.106563,no
SMb21070,-0.473861,no,0.101682,no
SMa1132,-0.195388,no,0.0782819,no
SMa1259,-0.0443228,no,0.340008,no
SMa0079,-0.0908508,no,0.00759905,no
SMa1250,-0.196385,no,1.12582,yes
SMa0078,-0.00126644,no,0.225612,no
SMa1966,-0.03081,no,0.221458,no
SMa0769,-0.245538,no,0.183504,no
SMa2377,-0.21528,no,0.789319,yes
SMb20528,-0.166448,no,0.467746,no
SMc01815,-0.385088,no,0.908364,yes
SMc01814,-0.157607,no,1.07514,yes
SMc00819,-0.0824677,no,0.752171,yes
SMa1264,-0.0854808,no,0.796109,yes
SMb20040,-0.213067,no,0.24363,no
SMc00810,-0.159428,no,0.189408,no
SMb20391,-0.0992703,no,0.354882,no
SMb21011,-0.153245,no,0.699367,yes
SMa1554,-0.324119,no,0.440697,no
SMb20394,-0.390643,no,1.81108,yes
SMa1552,-0.0670182,no,0.431314,no
SMc04164,-0.880267,no,0.69066,yes
SMa1002,-0.238382,no,0.289898,no
SMa1417,-0.11113,no,0.0623823,no
SMc04169,-0.935876,no,2.57479,yes
SMc00031,-0.460341,no,0.859598,yes
SMa1558,-0.0925813,no,0.533597,no
SMb21487,-0.34251,no,0.796891,yes
SMa0697,-0.360912,no,0.236183,no
SMc00248,-0.495224,no,0.0805075,no
SMb20354,-0.14585,no,0.0985474,no
SMb21045,-0.374284,no,0.590464,no
SMb21489,-0.238858,no,0.775753,no
SMb21488,-0.255515,no,0.944011,yes
SMc04180,-0.194248,no,0.635091,yes
SMc04182,-0.0828456,no,0.131005,no
SMb20898,-0.341953,no,0.143964,no
SMa2027,-0.0129526,no,0.0532916,no
SMb21555,-0.188913,no,0.145092,no
SMa1011,-0.234172,no,0.357558,no
SMb21556,-0.222611,no,0.472701,no
SMc02281,-0.441256,no,0.0722434,no
SMc02280,-0.081992,no,0.322168,no
SMa0335,-0.420445,no,0.329042,no
SMc01989,-0.121383,no,0.477013,no
SMb20492,-0.0080451,no,0.348114,no
SMb21559,-0.0631204,no,0.476652,yes
SMb21558,-1.01363,no,0.125771,no
SMc01713,-0.107811,no,0.18972,no
SMc00707,-0.0338301,no,0.269523,no
SMc00781,-0.599214,no,0.989519,yes
SMc01269,-0.0456407,no,0.229898,no
SMc02434,-0.125007,no,0.00610459,no
SMc01230,-0.120346,no,0.0211743,no
SMb20070,-0.218081,no,0.354957,no
SMa1142,-0.586932,no,0.048092,no
SMa2117,-0.512957,no,0.22633,no
SMa2115,-0.802555,no,0.243463,no
SMa2113,-0.356363,no,0.247204,no
SMc00406,-0.0826573,no,0.0233454,no
SMa2291,-0.179738,no,0.0748464,no
SMa0448,-0.170595,no,0.382621,no
SMa2119,-0.354563,no,0.313824,no
SMa1709,-0.207534,no,0.329855,no
SMa0657,-0.154153,no,0.0128363,no
SMa1875,-0.148203,no,0.648742,yes
SMa0659,-0.143897,no,0.189697,no
SMc03249,-0.00541841,no,0.261104,no
SMb20820,-0.123885,no,0.25111,no
SMc01962,-0.142536,no,0.0159209,no
SMa0095,-1.02192,no,0.21575,no
SMa0097,-0.137249,no,0.018785,no
SMc00518,-0.242085,no,0.000292857,no
SMb21525,-0.178454,no,0.0526666,no
SMa0093,-1.67434,yes,0.132301,no
SMc03085,-0.350319,no,1.52163,yes
SMb21151,-0.0329925,no,0.0421415,no
SMa0151,-0.16766,no,0.184026,no
SMa0775,-0.583905,no,0.198809,no
SMb21023,-0.0247481,no,0.263134,no
SMa0478,-0.00720083,no,0.737762,yes
SMb20125,-0.233827,no,0.520889,no
SMc03146,-0.25128,no,0.131995,no
SMb21029,-0.235384,no,0.340509,no
SMb21028,-0.293247,no,0.740177,no
SMc02940,-0.392426,no,0.255588,no
SMc02941,-0.29206,no,0.0397339,no
SMa1686,-0.5556,no,0.015519,no
SMc01367,-0.108769,no,0.208206,no
SMc01365,-0.0417074,no,0.110549,no
SMc03964,-0.141703,no,0.0136687,no
SMc01042,-0.113516,no,0.269385,no
SMc01043,-0.0953881,no,0.24741,no
SMc01369,-0.329413,no,0.221026,no
SMa0486,-0.21434,no,0.363495,no
SMa1677,-0.307696,no,0.411104,no
SMa1674,-0.691228,no,0.339392,no
SMa0485,-0.252502,no,0.0292254,no
SMa1672,-0.474085,no,0.126038,no
SMa0483,-0.367407,no,0.128119,no
SMa1670,-0.0181435,no,0.695595,yes
SMa0793,-0.118991,no,0.399679,no
SMa1174,-0.020749,no,0.307064,no
SMc03095,-0.355536,no,0.187592,no
SMa1678,-0.296593,no,0.470867,no
SMa0489,-0.0966315,no,0.248366,no
SMb20604,-0.253183,no,0.667884,no
SMa1266,-0.403631,no,0.271383,no
SMb20603,-0.176325,no,0.523551,no
SMc01442,-0.133477,no,0.418851,no
SMc01443,-0.203632,no,0.547215,yes
SMc00974,-0.132791,no,0.108199,no
SMa0506,-0.535685,no,0.0304762,no
SMc_R0065,-0.756015,no,4.83683,yes
SMc_R0064,-0.533266,no,0.0907224,no
SMa0503,-0.409352,no,0.423618,no
SMa1192,-0.12162,no,1.51629,yes
SMa1058,-0.585062,no,1.58169,yes
SMc00064,-0.0579567,no,0.573182,yes
SMc01011,-0.15164,no,0.124919,no
SMa1262,-0.243753,no,0.22716,no
SMb20463,-0.0704571,no,0.412875,no
SMa0508,-0.319911,no,0.435468,no
SMc01213,-0.198776,no,0.10174,no
SMa2195,-0.208724,no,0.547631,yes
SMa2277,-0.268163,no,0.451202,no
SMc03028,-1.94258,no,0.353566,no
SMc03029,-1.53731,no,0.536336,no
SMc04329,-0.161286,no,0.529772,no
SMc03022,-1.98143,yes,0.500532,no
SMc03023,-2.03974,yes,0.250185,no
SMc03020,-1.7394,yes,0.160436,no
SMc03021,-1.88408,yes,0.194759,no
SMc03026,-1.93,no,0.516253,no
SMc03027,-2.01676,yes,0.119792,no
SMa2279,-0.104968,no,0.0424695,no
SMb20515,-0.134275,no,0.444662,yes
SMc00610,-0.680658,no,0.140737,no
SMa1041,-1.16575,no,0.348609,no
SMa1223,-0.0978789,no,0.0405278,no
SMa1227,-0.355111,no,0.0109235,no
SMa1229,-0.316035,no,0.304794,no
SMb21255,-0.0982606,no,0.24951,no
SMc00072,-0.000244592,no,0.0403001,no
SMb20997,-0.676646,no,0.151397,no
SMc04139,-0.0269406,no,0.119587,no
SMc01825,-0.0177534,no,0.570139,no
SMc01826,-0.0220103,no,0.665508,yes
SMc00926,-0.0262482,no,0.0394964,no
SMc00291,-1.18383,no,0.248637,no
SMc00841,-1.49106,yes,2.19771,yes
SMc00842,-1.43594,yes,2.51366,yes
SMa1298,-0.360094,no,0.119334,no
SMa1294,-0.202891,no,0.492113,no
SMa1297,-0.252912,no,0.356625,no
SMa1358,-0.202218,no,0.299166,no
SMa1292,-0.445673,no,0.435104,no
SMc04136,-0.286021,no,0.340503,no
SMc02637,-0.884733,no,0.100736,no
SMc02183,-1.28379,no,2.66935,yes
SMa1831,-0.205754,no,0.420868,no
SMb20868,-0.199777,no,0.0911523,no
SMa1835,-0.266076,no,0.0887107,no
SMc00722,-0.239311,no,0.302279,no
SMb20863,-0.192364,no,0.171726,no
SMa2151,-0.244577,no,0.0631023,no
SMb20864,-0.189514,no,0.291733,no
SMb20901,-0.181698,no,0.158407,no
SMb21684,-0.157895,no,0.322556,no
SMb21681,-0.102348,no,1.72359,no
SMb21569,-0.00729416,no,1.7109,yes
SMb20909,-0.120673,no,0.245046,no
SMc01205,-0.0632155,no,0.412168,no
SMa0583,-0.237209,no,0.20874,no
SMc02524,-0.46786,no,0.615618,no
SMc02525,-0.55243,no,1.65973,yes
SMa0853,-0.211169,no,0.3196,no
SMb21702,-0.897438,no,0.124014,no
SMc01550,-0.250314,no,0.144817,no
SMb21662,-0.32046,no,0.256271,no
SMc01552,-0.0320608,no,0.513151,yes
SMb21667,-0.262142,no,0.567316,no
SMb21665,-0.0832095,no,0.504007,no
SMa0802,-0.0631665,no,1.12739,yes
SMa0803,-0.109267,no,0.778434,yes
SMa0800,-0.119552,no,0.60318,yes
SMa0805,-0.23146,no,0.463583,no
SMc00434,-1.68152,yes,2.29912,yes
SMc00435,-1.37247,no,1.89651,yes
SMc03751,-0.204161,no,0.332681,no
SMa0235,-0.553245,no,0.365624,no
SMa1731,-0.189784,no,0.0979359,no
SMa1734,-0.0693761,no,0.315998,no
SMa2121,-0.707834,no,0.127178,no
SMa1635,-0.476323,no,0.464051,no
SMa0581,-0.15168,no,1.04258,yes
SMa0609,-0.369908,no,0.0567685,no
SMc04166,-0.629922,no,0.102738,no
SMb21178,-0.0991866,no,1.38107,yes
SMc01488,-1.34031,yes,0.156591,no
SMc01489,-0.15301,no,2.96972,yes
SMb20547,-0.594582,no,0.416181,no
SMc03076,-0.887374,no,1.28017,yes
SMb21010,-0.132964,no,0.338609,no
SMb20548,-0.163687,no,0.244211,no
SMc04165,-0.106235,no,0.0901928,no
SMb21015,-0.172015,no,0.272748,no
SMb21017,-0.255907,no,0.496999,no
SMa0643,-0.0321433,no,0.755434,no
SMc02915,-1.36147,yes,2.84997,yes
SMc01251,-1.06496,no,2.13167,yes
SMa0645,-0.0649274,no,0.381662,no
SMa0875,-0.398128,no,0.0260593,no
SMa0874,-0.0696897,no,0.00275496,no
SMa0873,-0.217656,no,0.126486,no
SMa1120,-0.278557,no,0.752515,yes
SMa0870,-0.210631,no,0.116058,no
SMa1086,-0.397508,no,0.318859,no
SMa1832,-0.0686142,no,0.156113,no
SMa1082,-0.292248,no,0.0699949,no
SMb21069,-0.0788816,no,0.5491,yes
SMa1649,-0.0818717,no,0.313692,no
SMa1840,-0.0585974,no,0.382608,no
SMa1647,-0.263195,no,0.303468,no
SMc03104,-0.411329,no,0.874968,yes
SMb21067,-0.0843655,no,0.302677,no
SMc03106,-0.142104,no,0.0408059,no
SMa2237,-0.524891,no,0.0386725,no
SMb21063,-0.00384776,no,1.14527,yes
SMa0285,-0.0626027,no,1.59324,no
SMa1065,-0.223318,no,1.0694,yes
SMa1062,-0.135718,no,0.202237,no
SMa0447,-0.0574329,no,1.02031,yes
SMc04347,-0.404726,no,0.427956,yes
SMb20334,-0.151854,no,0.0311578,no
SMb20332,-0.258754,no,0.280701,no
SMc04451,-0.176359,no,0.836797,yes
SMa0412,-0.149739,no,0.340995,no
SMb20530,-0.446559,no,0.266531,no
SMc00801,-0.0258676,no,0.504223,no
SMa1010,-0.390649,no,0.277843,no
SMc03779,-1.4338,yes,2.27246,yes
SMb20420,-0.000908429,no,0.252847,no
SMb20388,-0.418403,no,0.299857,no
SMb21154,-0.123635,no,0.465617,no
SMc02571,-0.126684,no,0.0778464,no
SMc01773,-0.188639,no,0.00327212,no
SMc00276,-0.153524,no,0.130995,no
SMc00277,-0.0904272,no,0.497908,no
SMa1536,-0.113587,no,0.375324,no
SMa1531,-0.199657,no,0.4905,no
SMc00499,-0.0331123,no,0.0902035,no
SMb21539,-0.0508423,no,0.40104,no
SMa0017,-0.206573,no,0.39301,no
SMb21402,-0.144798,no,0.616246,yes
SMc04290,-1.05833,no,0.0903861,no
SMc00794,-0.453875,no,0.120209,no
SMc04292,-0.541975,no,0.0419565,no
SMc04293,-0.965505,no,0.098284,no
SMc04294,-0.751985,no,0.320114,no
SMc04295,-0.156402,no,0.695153,yes
SMc04297,-0.833981,no,0.394462,no
SMc04299,-0.13474,no,0.303554,no
SMc01879,-0.290922,no,0.298045,no
SMa1269,-0.0493589,no,0.174289,no
SMc02706,-0.283497,no,0.163544,no
SMa0469,-0.0372149,no,0.468976,no
SMa2165,-0.0766256,no,0.998711,yes
SMc00479,-0.164157,no,0.0973145,no
SMb20831,-0.103795,no,0.296137,no
SMa1848,-0.0664983,no,0.0102365,no
SMb20832,-0.153644,no,0.229599,no
SMa2049,-0.160119,no,0.367156,no
SMb20836,-0.334621,no,0.137022,no
SMb20931,-0.330729,no,0.0787278,no
SMb20932,-0.228711,no,0.919661,yes
SMb21053,-0.0684983,no,0.538985,yes
SMb20060,-0.103768,no,0.682936,yes
SMc01170,-1.53219,yes,0.0624567,no
SMb21536,-0.201218,no,0.162297,no
SMc02676,-0.514728,no,0.944672,no
SMc02779,-1.55004,no,1.79769e+308,no
SMb21054,-0.448342,no,0.017515,no
SMa1917,-0.176487,no,0.544092,no
SMc02409,-1.34404,no,2.21195,yes
SMc03814,-0.00896726,no,0.580993,yes
SMb20110,-0.0364213,no,0.334048,no
SMb21554,-0.132338,no,0.036004,no
SMc03813,-0.0460372,no,0.620876,yes
SMa0320,-0.0767898,no,1.44688,yes
SMb21058,-0.401356,no,0.486098,no
SMa0467,-0.230978,no,0.540437,no
SMa0937,-0.746431,no,0.181313,no
SMa1595,-0.746417,no,1.70076,yes
SMc02813,-0.339788,no,0.239818,no
SMb21646,-0.0250113,no,0.314198,no
SMa0939,-0.417108,no,0.424866,no
SMc02797,-0.186103,no,0.271617,no
SMb20804,-0.066802,no,0.380173,no
SMc01196,-0.0327787,no,0.44884,no
SMc00507,-0.418956,no,0.0449813,no
SMa1602,-0.0787607,no,0.294323,no
SMa1168,-0.605178,no,0.494471,no
SMa0346,-0.257891,no,0.284945,no
SMa0341,-0.320172,no,0.0970642,no
SMa0340,-0.221787,no,0.0640345,no
SMa0343,-0.105762,no,0.198202,no
SMa0833,-0.794571,no,1.19828,no
SMa1163,-0.208345,no,0.0965584,no
SMa0831,-0.833291,no,0.00458908,no
SMa1166,-0.539068,no,0.0091924,no
SMa0834,-0.288407,no,0.211475,no
SMb21338,-0.143722,no,0.212504,no
SMb20752,-0.0617336,no,0.475848,yes
SMb20753,-0.111543,no,0.553027,yes
SMc01459,-0.00765438,no,0.28872,no
SMb20759,-0.101408,no,0.0649699,no
SMa1159,-0.110861,no,0.32573,no
SMb20578,-0.308085,no,1.11906,yes
SMb20579,-0.590701,no,0.836387,yes
SMc04021,-0.248126,no,0.0536325,no
SMa0510,-0.116898,no,0.798731,yes
SMa0934,-0.0850683,no,0.256751,no
SMa1182,-0.140002,no,0.304808,no
SMb20571,-0.334989,no,0.242344,no
SMc03042,-1.81559,no,0.163975,no
SMc03043,-1.73939,no,0.2459,no
SMc04386,-0.959654,no,0.238287,no
SMc03045,-1.70842,no,0.377631,no
SMc04384,-0.396385,no,1.01722,yes
SMb20577,-0.417964,no,0.941975,yes
SMa1021,-0.0454558,no,1.55201,yes
SMa0947,-0.325105,no,0.436736,no
SMa0945,-0.277825,no,0.0336199,no
SMa0940,-0.21565,no,0.367446,no
SMa0822,-0.0545838,no,0.660208,yes
SMb20059,-0.269886,no,0.790848,yes
SMb20058,-0.40539,no,0.736426,no
SMc04337,-1.03443,no,1.799,yes
SMb20056,-0.341837,no,1.02822,yes
SMb20507,-0.187884,no,0.129157,no
SMb20054,-0.500487,no,0.522597,no
SMa2307,-0.478331,no,0.158697,no
SMc03030,-1.92557,yes,0.0448545,no
SMc04331,-0.819699,no,1.07746,yes
SMc04330,-0.709163,no,0.482934,yes
SMa1337,-0.0213299,no,0.487776,yes
SMa1236,-0.00854054,no,2.01345,yes
SMc00609,-0.719583,no,0.110166,no
SMa1232,-0.0727436,no,2.96313,yes
SMa1233,-0.0267563,no,3.06506,yes
SMa1339,-0.0432798,no,0.310422,no
SMa1231,-0.165344,no,0.420439,no
SMa0838,-0.262409,no,0.951488,no
SMa2225,-0.0328425,no,0.361973,no
SMa1435,-0.0797304,no,0.0338902,no
SMa1341,-0.0242764,no,0.881705,yes
SMa1347,-0.258926,no,0.239896,no
SMa1345,-0.417307,no,0.0825418,no
SMc_R0070,-0.437437,no,0.441764,yes
SMc04145,-0.11001,no,0.122148,no
SMb20371,-0.0925201,no,0.220556,no
SMc_R0076,-1.42604,no,1.08594,no
SMc01641,-1.08237,no,3.18376,yes
SMc01642,-0.667628,no,0.332281,no
SMc01643,-0.374545,no,0.358935,no
SMc01644,-0.355692,no,0.553674,no
SMc01645,-0.635755,no,0.339888,no
SMc00308,-0.438638,no,1.38167,no
SMc00305,-0.103122,no,1.79769e+308,yes
SMc00303,-1.03905,no,0.149209,no
SMc00737,-0.304232,no,0.0681188,no
SMc00736,-0.325469,no,0.04788,no
SMb20878,-0.09789,no,0.220639,no
SMb20875,-0.448656,no,0.173961,no
SMb20874,-0.369373,no,0.192011,no
SMb20877,-0.0132371,no,0.200397,no
SMb20870,-0.22355,no,0.220024,no
SMa0046,-0.153754,no,1.03496,yes
SMb20976,-0.231097,no,0.281737,no
SMb20977,-0.103086,no,0.0697132,no
SMb20973,-0.0622545,no,0.0282816,no
SMa0121,-0.354135,no,0.254084,no
SMb21570,-0.101302,no,0.769019,yes
SMc01635,-0.0228785,no,0.00282425,no
SMb21475,-0.0236295,no,0.405059,no
SMc00233,-0.545196,no,0.249205,no
SMc01884,-0.569107,no,0.448203,no
SMc01733,-1.08938,no,1.76334,yes
SMb20787,-0.797874,no,0.221014,no
SMb20786,-0.253001,no,0.307952,no
SMb20785,-0.498652,no,0.167296,no
SMc01460,-0.2193,no,0.717588,yes
SMb21712,-1.211,no,1.80723,yes
SMc03254,-0.0617668,no,0.239016,no
SMc02364,-0.614504,no,0.122764,no
SMc02362,-0.278701,no,0.41741,no
SMc02363,-0.202501,no,0.285326,no
SMc02361,-0.310367,no,0.0211799,no
SMa0443,-0.175223,no,0.0623808,no
SMa1188,-0.354168,no,0.0697826,no
SMb20447,-0.0463739,no,0.178642,no
SMc00549,-0.176304,no,0.125606,no
SMa0389,-0.00840449,no,0.692646,yes
SMc03187,-0.184294,no,0.0902162,no
SMa1726,-0.0697502,no,0.903236,yes
SMb20803,-0.26885,no,0.125988,no
SMb20659,-0.165226,no,0.424257,no
SMb20658,-0.047935,no,0.68336,yes
SMa0633,-0.0270101,no,0.271596,no
SMb21270,-0.211791,no,0.263821,no
SMb21272,-0.296634,no,0.0305516,no
SMa0636,-0.278513,no,0.905216,yes
SMa0514,-0.340379,no,0.863817,no
SMc04345,-0.386275,no,0.261573,no
SMc04342,-0.467496,no,0.407785,yes
SMc04343,-0.233713,no,0.116315,no
SMc04340,-1.26348,no,2.32466,yes
SMb20538,-0.142521,no,0.189561,no
SMc04388,-1.8673,yes,0.243196,no
SMb21399,-0.0768481,no,0.552612,yes
SMb21398,-0.118652,no,0.696809,no
SMa1153,-0.328823,no,0.0189457,no
SMa1547,-0.237354,no,0.39614,yes
SMa1151,-0.106699,no,0.702425,yes
SMa0512,-0.0511975,no,0.452543,no
SMa1155,-0.357954,no,0.493253,yes
SMa1092,-0.67811,no,0.960861,no
SMa1093,-0.433061,no,0.276513,no
SMa0516,-0.120652,no,0.412987,no
SMa1091,-0.0278595,no,0.819929,no
SMa0907,-0.0735067,no,0.090657,no
SMc00765,-0.165468,no,0.297962,no
SMb20150,-0.230031,no,0.445254,no
SMb21093,-0.1909,no,0.0961617,no
SMc04383,-0.544484,no,0.119916,no
SMa0316,-0.279244,no,0.264534,no
SMa2221,-0.0176791,no,0.0759683,no
SMa1650,-0.229461,no,0.222185,no
SMa1798,-0.305515,no,0.466649,yes
SMa2227,-0.067898,no,0.331088,no
SMc00167,-0.192827,no,0.0379842,no
SMa1379,-0.0629113,no,0.443229,yes
SMa1070,-0.189147,no,0.127997,no
SMc04444,-0.608941,no,1.84006,yes
SMc03044,-1.67034,no,0.159365,no
SMa1371,-0.09826,no,0.644219,no
SMa1370,-0.569828,no,0.261406,no
SMa1377,-0.406026,no,0.268874,no
SMa1375,-0.492747,no,0.158344,no
SMa1374,-0.453199,no,0.22339,no
SMa0799,-0.135197,no,0.470152,no
SMb20576,-0.576516,no,1.08241,yes
SMb21200,-0.104525,no,0.0860197,no
SMc04385,-0.598385,no,0.589232,yes
SMa1386,-0.303883,no,0.792837,yes
SMa1478,-0.152199,no,0.245865,no
SMb20657,-0.0775478,no,0.828499,yes
SMa1573,-0.156185,no,0.408714,no
SMa1572,-0.134823,no,0.346679,no
SMa1576,-0.338898,no,0.716676,yes
SMa1471,-0.0485322,no,0.499828,no
SMb20430,-0.158497,no,0.282671,no
SMc04060,-1.79634,yes,2.18711,yes
SMc01765,-0.26987,no,0.660343,yes
SMc01764,-0.254691,no,0.497257,yes
SMc00269,-0.10814,no,0.0232388,no
SMc04235,-0.035103,no,0.161827,no
SMa1209,-0.200407,no,0.359214,no
SMa1208,-0.631337,no,1.34446,no
SMa2051,-0.00109751,no,0.23487,no
SMb21520,-0.0348711,no,0.0917908,no
SMa1933,-0.192547,no,0.577932,yes
SMb21434,-0.0826285,no,0.6131,yes
SMc02061,-2.11131,yes,0.0177468,no
SMb20546,-0.202252,no,0.62176,yes
SMa1272,-0.185586,no,0.195316,no
SMb20698,-0.0445829,no,0.461249,no
SMc04287,-0.34785,no,0.216281,no
SMc04285,-0.529481,no,0.505903,yes
SMc04284,-0.654268,no,0.108382,no
SMc04033,-0.0484877,no,0.289411,no
SMb21593,-0.0630551,no,0.459452,no
SMb21594,-0.328825,no,0.677296,no
SMc02715,-0.169233,no,0.198478,no
SMb21599,-0.0182647,no,0.323024,no
SMb21527,-0.240973,no,0.0983819,no
SMc04333,-0.594929,no,1.22354,yes
SMa1857,-0.601286,no,0.0602511,no
SMa1855,-0.0190331,no,0.757444,yes
SMa1578,-0.0467281,no,1.72143,yes
SMb20846,-0.214451,no,0.844244,yes
SMc01987,-1.15291,no,1.07424,yes
SMb20922,-0.297347,no,0.92915,no
SMc01596,-0.710007,no,1.11143,no
SMc01988,-0.902457,no,0.0883469,no
SMc03300,-0.172671,no,0.264063,no
SMc01587,-0.0588644,no,0.395402,no
SMb21139,-0.223633,no,0.0509236,no
SMc02668,-0.762714,no,0.864248,no
SMc01169,-3.26722,yes,0.481209,yes
SMc03127,-0.400048,no,0.0576329,no
SMa0695,-0.516582,no,0.391901,no
SMa0693,-0.194863,no,0.132602,no
SMa0758,-0.0120702,no,0.132675,no
SMa0759,-0.545978,no,0.30252,no
SMc03284,-0.223278,no,0.415006,no
SMc01341,-0.0170168,no,0.339599,no
SMa0753,-0.0138766,no,0.761241,no
SMc02431,-0.0579541,no,0.140787,no
SMc01024,-0.00146972,no,6.07E-06,no
SMc00519,-0.0764961,no,0.0886235,no
SMa1583,-0.371632,no,0.0306999,no
SMc01021,-0.700481,no,0.375302,no
SMa1195,-0.0783726,no,0.429311,no
SMa1589,-0.0437525,no,0.962982,yes
SMb20585,-0.337552,no,0.127284,no
SMa0829,-0.535637,no,0.428238,no
SMa1613,-0.704375,no,0.118584,no
SMa0357,-0.857571,no,0.152851,no
SMb20664,-0.149158,no,0.790922,yes
SMb20666,-0.0857104,no,0.139394,no
SMa0359,-0.46517,no,0.18493,no
SMb21564,-0.0189445,no,0.684528,no
SMa0827,-0.674053,no,0.19645,no
SMa1683,-0.144967,no,0.227445,no
SMb20210,-0.147645,no,0.389828,no
SMc01938,-1.43051,yes,2.19541,yes
SMc03148,-0.0487839,no,0.00899893,no
SMb21347,-0.014666,no,0.263059,no
SMa0217,-0.112801,no,0.501792,no
SMb21342,-0.0352882,no,1.21476,yes
SMa0214,-0.375909,no,0.561324,no
SMa1038,-1.09372,no,0.587484,yes
SMb20569,-0.495647,no,0.106414,no
SMb20568,-0.791509,no,0.294524,no
SMa0525,-0.282349,no,0.481423,no
SMc04339,-1.00358,no,1.68543,yes
SMb20562,-0.221601,no,0.541424,yes
SMa1032,-0.0859494,no,0.491893,no
SMb20409,-0.0216845,no,0.351618,no
SMa1036,-1.36662,no,0.810948,no
SMa1037,-0.920672,no,0.835315,yes
SMb20057,-0.180082,no,0.67079,no
SMa1115,-0.175742,no,0.407025,no
SMc01337,-0.105947,no,0.0438556,no
SMa1535,-0.357726,no,0.444506,no
SMa0955,-0.356616,no,0.125646,no
SMb20506,-0.122579,no,0.53757,yes
SMa0950,-0.402707,no,0.446097,no
SMa0952,-0.459075,no,0.0251168,no
SMa0953,-0.0748303,no,0.109988,no
SMc03031,-1.8711,no,0.150496,no
SMa2335,-0.144087,no,2.17507,no
SMa1538,-0.13303,no,0.553916,yes
SMa0325,-0.227528,no,0.476837,no
SMc04301,-0.736609,no,0.146403,no
SMa0323,-0.13063,no,0.71593,yes
SMa0322,-0.416872,no,0.760708,yes
SMc04305,-0.16356,no,0.177568,no
SMa1104,-0.0083046,no,0.466505,no
SMa0596,-0.157249,no,0.0403557,no
SMb20104,-0.326647,no,0.146907,no
SMa0329,-0.0321301,no,0.962497,yes
SMa2317,-0.106843,no,0.30116,no
SMa1243,-1.72535,yes,0.0837892,no
SMa1329,-0.0525443,no,0.672567,yes
SMa0137,-0.0244173,no,0.00219284,no
SMb21030,-0.0518385,no,0.618373,yes
SMa0714,-0.0210263,no,0.167677,no
SMc02029,-0.410674,no,0.00651362,no
SMc00824,-0.0540764,no,0.346343,no
SMc00126,-0.798643,no,0.212961,no
SMc00821,-2.04221,yes,0.14424,no
SMc00125,-1.58643,no,1.89061,yes
SMc00047,-0.173266,no,0.281472,no
SMb21146,-0.0208368,no,0.372409,no
SMb21490,-0.273848,no,0.848448,yes
SMc01797,-0.171891,no,0.378472,no
SMa1864,-0.175753,no,0.154438,no
SMa1646,-0.180751,no,0.17908,no
SMa2034,-0.234727,no,1.50423,yes
SMb21542,-0.157744,no,0.515868,yes
SMb21540,-0.275765,no,0.366889,no
SMb21066,-0.0950807,no,0.758173,yes
SMa1406,-0.0457943,no,0.618009,no
SMb21545,-0.547654,no,0.321762,no
SMc00957,-1.19594,no,1.60915,yes
SMc02112,-0.433132,no,0.0695757,no
SMc02115,-0.371764,no,0.180415,no
SMb21464,-0.304853,no,0.0418832,no
SMc02503,-1.1209,no,0.540112,yes
SMc04279,-0.433846,no,0.0423134,no
SMc01723,-0.673476,no,0.190162,no
SMc00954,-0.237031,no,0.129269,no
SMc02278,0.742548,no,-0.121327,no
SMb21311,0.156577,no,-0.0954621,no
SMb21310,0.190902,no,-0.0259073,no
SMc03853,0.196444,no,-0.127917,no
SMc02374,1.69655,yes,-1.23832,yes
SMc02270,0.191258,no,-0.50588,yes
SMc02373,2.09595,yes,-1.21644,yes
SMa0396,0.00737691,no,-0.0193428,no
SMa0392,0.196656,no,-0.0390733,no
SMc00552,0.0292329,no,-0.42259,yes
SMc00418,0.277837,no,-0.421157,no
SMc00419,0.175909,no,-0.294053,no
SMc00415,0.0423432,no,-0.814511,yes
SMa0627,0.176623,no,-0.265508,no
SMa1718,0.304101,no,-0.201459,no
SMa1717,0.219624,no,-0.102292,no
SMa2105,0.635958,no,-0.315228,no
SMa2107,1.16846,no,-0.229202,no
SMc01975,0.0478559,no,-0.0120601,no
SMc01095,0.77769,no,-0.471817,yes
SMc00092,0.122901,no,-0.176089,no
SMc02307,0.367716,no,-0.389087,no
SMc01091,0.0567933,no,-0.208461,no
SMc01093,1.09923,no,-0.33634,no
SMb21266,0.235417,no,-0.349252,no
SMb21265,0.127312,no,-0.583747,yes
SMb21264,0.123828,no,-0.400454,yes
SMb21263,0.33108,no,-0.175388,no
SMb21262,0.424949,no,-0.0918754,no
SMb21261,0.333451,no,-0.143821,no
SMc01153,0.391096,no,-0.24543,no
SMc03879,0.599598,no,-0.163925,no
SMc03878,0.316908,no,-0.0893959,no
SMc01278,0.495934,no,-0.0570205,no
SMc03871,0.139296,no,-0.572555,no
SMc03870,0.561331,no,-0.546488,no
SMb20684,2.63728,yes,-0.189798,no
SMc03877,0.0879843,no,-0.43639,yes
SMc03976,0.045664,no,-0.642743,yes
SMc00862,0.226784,no,-0.639356,yes
SMc00095,0.0069576,no,-0.42539,no
SMc02979,0.472488,no,-0.0963345,no
SMc02978,0.558405,no,-0.0356154,no
SMa2211,0.136657,no,-0.0738908,no
SMb20631,0.462585,no,-0.412435,no
SMb20630,0.295183,no,-0.695396,yes
SMb20634,0.287196,no,-0.0447662,no
SMc00553,0.310232,no,-0.490982,yes
SMb21089,0.109483,no,-0.687095,yes
SMb20149,0.228739,no,-0.891214,yes
SMb20148,0.122141,no,-0.225207,no
SMc02475,0.0229971,no,-0.255947,no
SMc04126,0.24557,no,-0.215552,no
SMc04127,0.351851,no,-0.138802,no
SMc04436,0.0733844,no,-0.243893,no
SMc04125,0.256591,no,-0.34682,no
SMc00551,0.125373,no,-0.604922,yes
SMc00062,0.731005,no,-0.0491941,no
SMc00550,0.374983,no,-0.10409,no
SMc02243,0.430794,no,-0.357882,no
SMc03233,0.762982,no,-0.154607,no
SMc02710,0.0160141,no,-0.345385,no
SMc03856,0.427814,no,-0.137879,no
SMc03886,0.191858,no,-0.47981,no
SMc03880,0.267187,no,-0.17096,no
SMa1440,0.195642,no,-0.513383,yes
SMc03883,0.479677,no,-0.0100132,no
SMc03888,0.527183,no,-0.0918597,no
SMc03790,1.80876,no,-0.51997,no
SMc04038,2.76297,no,-1.25695,no
SMc03792,0.0436722,no,-0.182285,no
SMc02517,0.328225,no,-0.813599,yes
SMa2367,0.0728864,no,-0.141321,no
SMc03797,0.0292688,no,-0.0870113,no
SMc03799,1.46639,yes,-0.127636,no
SMc04352,0.480356,no,-0.201541,no
SMc04221,0.0206342,no,-0.510406,no
SMc02086,0.102536,no,-0.132084,no
SMa1216,0.202015,no,-0.242481,no
SMc04222,0.210498,no,-0.538921,no
SMc02306,0.395712,no,-0.280644,no
SMc02089,0.293562,no,-0.649459,no
SMc02887,0.0207654,no,-0.653837,yes
SMc00186,0.141502,no,-0.298052,no
SMc00183,0.536621,no,-0.15526,no
SMc03012,0.0869628,no,-0.0460326,no
SMc02884,0.10437,no,-0.17855,no
SMc02150,0.143925,no,-0.913678,yes
SMc03184,0.756119,no,-0.206115,no
SMa1924,0.84648,no,-0.109401,no
SMc02511,0.837409,no,-0.230927,no
SMc00670,0.883808,no,-0.134483,no
SMc00671,0.82235,no,-0.117229,no
SMc00913,3.2139,yes,-0.914296,yes
SMc00912,3.13007,yes,-0.962686,yes
SMc00856,0.0984158,no,-0.667449,yes
SMc00857,1.22132,no,-0.332625,no
SMc02332,0.0959662,no,-0.229226,no
SMc00329,0.587667,no,-0.209062,no
SMc00591,2.90668,yes,-0.138791,no
SMc00459,0.0777581,no,-0.456657,no
SMc01107,0.030222,no,-1.52795,yes
SMc01105,0.532938,no,-0.197458,no
SMc01104,0.352106,no,-0.190718,no
SMb21195,0.123388,no,-0.118904,no
SMc01109,0.178766,no,-0.475282,yes
SMc02238,0.713138,no,-0.202543,no
SMc02732,0.396934,no,-0.395443,no
SMc00454,0.120628,no,-0.412549,no
SMb21192,0.686156,no,-0.504622,yes
SMc02421,0.0895505,no,-0.210241,no
SMb20701,0.262787,no,-0.00537127,no
SMb20620,0.213873,no,-0.108005,no
SMc00693,0.249057,no,-0.132285,no
SMc00694,0.0834379,no,-0.00142078,no
SMb21518,0.730095,no,-0.542701,no
SMa0101,0.212204,no,-0.876896,yes
SMa0104,0.236201,no,-0.608087,yes
SMc02735,0.826065,no,-0.345115,no
SMb20913,0.521645,no,-0.689211,no
SMb21102,0.638952,no,-0.0300598,no
SMb21100,0.359461,no,-0.98288,yes
SMc02654,0.574877,no,-0.149163,no
SMc02655,0.97205,no,-0.227148,no
SMa0064,0.0864327,no,-0.372302,no
SMc01158,0.0154895,no,-0.197066,no
SMa0067,0.788669,no,-0.0844638,no
SMa0060,0.551551,no,-0.905911,yes
SMb20273,0.0630721,no,-0.246717,no
SMc02349,0.0755293,no,-0.858676,yes
SMb20271,0.457813,no,-0.107012,no
SMb20270,0.726868,no,-0.0723018,no
SMc02426,0.0541996,no,-0.0621834,no
SMc02734,0.667017,no,-0.341812,no
SMc02347,0.194634,no,-1.14104,yes
SMb21281,1.96414,yes,-0.0313441,no
SMb21280,0.355662,no,-0.949905,yes
SMa2393,0.982914,no,-0.251037,no
SMb21285,2.48985,yes,-0.0485777,no
SMa2395,1.09266,no,-0.509746,no
SMc01039,0.0330146,no,-0.203094,no
SMc01157,0.0323327,no,-0.30369,no
SMa1742,0.0829368,no,-1.05264,no
SMc02522,0.144053,no,-0.920876,yes
SMa1740,0.0474975,no,-1.22641,yes
SMa1625,0.74853,no,-0.159329,no
SMb20426,0.315719,no,-0.0138568,no
SMa1626,0.0498214,no,-0.597971,no
SMc01151,0.159033,no,-0.196217,no
SMc00734,0.37376,no,-0.0241127,no
SMc04443,0.463401,no,-0.399745,no
SMb21605,0.00318397,no,-0.377216,no
SMc02336,0.00462772,no,-0.337466,no
SMa2097,0.425364,no,-0.18008,no
SMb21350,0.199176,no,-0.0252598,no
SMb20002,0.0784024,no,-0.197085,no
SMb20004,0.0914847,no,-0.40676,no
SMc03069,0.095028,no,-0.468045,no
SMc03848,0.236908,no,-0.117082,no
SMc03869,0.0140899,no,-0.83666,yes
SMa2077,0.0629307,no,-0.161672,no
SMc03847,0.0430176,no,-0.192826,no
SMc02906,0.0803442,no,-0.15047,no
SMc03849,0.22808,no,-0.179396,no
SMc02905,0.229823,no,-0.372157,no
SMc02902,0.770546,no,-0.18472,no
SMc02903,0.0803017,no,-0.270894,no
SMc02901,0.707811,no,-0.333478,no
SMa1485,0.467542,no,-0.19007,no
SMc02219,0.553552,no,-0.545711,yes
SMa2249,0.0959629,no,-0.800825,yes
SMc00143,0.0753259,no,-0.0929716,no
SMb20303,1.20741,no,-0.381318,no
SMc04460,0.100037,no,-0.309301,no
SMb20307,0.600113,no,-0.0286582,no
SMc04882,0.184968,no,-0.0562887,no
SMc04324,0.0585324,no,-0.104875,no
SMa1961,0.932029,no,-0.0633297,no
SMc00379,0.466121,no,-0.299161,no
SMc04325,0.275892,no,-0.0574145,no
SMc00271,0.190381,no,-0.616372,no
SMb21135,0.321552,no,-0.185926,no
SMc00816,0.411722,no,-0.969226,yes
SMc00815,0.517981,no,-0.985147,yes
SMc01602,0.130517,no,-0.574081,yes
SMa1418,0.12257,no,-0.110293,no
SMc00032,0.0585016,no,-0.0410029,no
SMc02560,0.931762,no,-0.300511,no
SMc04219,0.537706,no,-0.0251865,no
SMc02563,0.0926593,no,-0.168784,no
SMc00493,0.128388,no,-0.403398,yes
SMc01786,0.0286405,no,-0.0220703,no
SMa2020,0.522424,no,-0.928274,yes
SMa2025,0.159674,no,-0.222515,no
SMc02285,0.305287,no,-0.140685,no
SMc02106,0.207853,no,-0.056211,no
SMc02287,0.433716,no,-0.246519,no
SMc02286,0.0996077,no,-0.178814,no
SMc03824,1.05019,no,-0.220501,no
SMc02107,0.19588,no,-0.231511,no
SMc00391,0.945083,no,-0.14654,no
SMc00390,0.878653,no,-0.731702,yes
SMc00392,1.11105,no,-0.0952917,no
SMc02161,0.132629,no,-1.32902,yes
SMc02043,0.107675,no,-0.753858,no
SMc02514,0.355251,no,-1.03152,yes
SMc02041,0.127434,no,-0.235543,no
SMc02040,0.373064,no,-0.340437,no
SMc00786,0.247975,no,-0.451898,yes
SMc00787,0.000944443,no,-0.95307,yes
SMc00968,0.0472518,no,-0.165541,no
SMc00969,0.706659,no,-0.0943127,no
SMc00966,0.0163508,no,-0.90919,no
SMc02049,0.108312,no,-0.882384,yes
SMc02048,0.224054,no,-0.625873,no
SMc02518,0.040228,no,-0.865289,yes
SMb21326,0.127464,no,-0.0611421,no
SMc01563,0.157635,no,-0.0241296,no
SMc02268,0.0302947,no,-0.54953,yes
SMb21630,0.239055,no,-0.246527,no
SMc02301,0.00524572,no,-1.39802,yes
SMa0998,0.11545,no,-0.338782,no
SMc01568,0.232286,no,-0.0337796,no
SMc02260,0.647112,no,-0.661099,yes
SMc02267,0.169507,no,-0.783101,yes
SMc02309,0.513389,no,-0.174843,no
SMb21329,0.342929,no,-0.0148661,no
SMc00768,0.20716,no,-0.772037,yes
SMc00769,0.520996,no,-0.732355,yes
SMc00404,0.195421,no,-0.624649,yes
SMc00408,0.0202136,no,-0.641248,yes
SMc03793,0.0369567,no,-0.382036,no
SMc00766,0.749071,no,-0.00521093,no
SMc00767,0.455675,no,-0.295533,no
SMc03241,0.635824,no,-0.021222,no
SMc03246,1.00747,no,-0.0902325,no
SMc04150,0.0226122,no,-0.109526,no
SMc01967,0.0134972,no,-0.575562,yes
SMa2053,0.0346984,no,-0.0207263,no
SMb21252,0.00783965,no,-0.641529,no
SMc02763,0.253891,no,-0.247979,no
SMc02764,0.163543,no,-0.362279,no
SMc02601,0.347196,no,-1.28731,yes
SMb21152,0.290494,no,-0.0295566,no
SMc02605,0.538801,no,-0.0103586,no
SMc01142,0.468648,no,-0.229088,no
SMc02607,0.208135,no,-1.14929,no
SMc03141,0.209357,no,-0.248023,no
SMc03968,0.555885,no,-0.136407,no
SMc04134,0.351067,no,-0.532674,no
SMc03805,0.149374,no,-0.577811,yes
SMb20286,0.15227,no,-0.0254748,no
SMc01394,0.0677151,no,-0.0624101,no
SMc02416,0.244248,no,-0.0361702,no
SMc02861,0.886381,no,-0.843324,yes
SMc02863,0.313174,no,-0.37813,no
SMc02862,0.60431,no,-0.951713,yes
SMc02865,0.383838,no,-0.695114,no
SMc02864,0.235358,no,-0.628629,yes
SMc02867,0.699631,no,-0.719346,yes
SMc01049,0.148619,no,-0.124193,no
SMc01046,0.489892,no,-0.256316,no
SMc01047,0.392098,no,-0.122017,no
SMc01045,0.396102,no,-0.280973,no
SMc02784,0.61595,no,-0.323188,no
SMc02785,0.810097,no,-0.199067,no
SMc02787,0.280504,no,-0.401093,no
SMc02076,0.00336401,no,-0.472291,yes
SMa2209,0.206268,no,-0.124417,no
SMc03093,0.14964,no,-0.977571,yes
SMc04269,0.207056,no,-0.115497,no
SMc04463,0.293132,no,-0.988546,yes
SMc01449,0.0493412,no,-0.175386,no
SMc01910,0.603324,no,-1.02795,yes
SMc01911,0.54143,no,-0.11541,no
SMc01441,0.00116207,no,-0.649622,yes
SMa0374,0.192242,no,-0.0573358,no
SMb20609,0.284883,no,-0.047001,no
SMc02987,0.666666,no,-0.0689567,no
SMb20346,1.91404,yes,-0.195191,no
SMb20345,1.6442,yes,-0.115245,no
SMb20344,1.21882,no,-0.337445,no
SMc01094,0.870135,no,-0.525799,yes
SMa1056,0.219241,no,-0.0841573,no
SMa1053,0.32515,no,-0.0777869,no
SMc03825,0.457431,no,-0.792076,yes
SMc00994,0.101397,no,-0.000636121,no
SMc02470,0.781059,no,-0.299991,no
SMc02497,0.187011,no,-0.637622,yes
SMc03895,0.0285341,no,-0.717579,yes
SMc03891,0.391254,no,-0.126551,no
SMc03787,1.02991,no,-0.0532408,no
SMc04043,0.697683,no,-0.0648174,no
SMb20044,0.143447,no,-1.40707,yes
SMb20045,0.568063,no,-0.574338,yes
SMb20046,0.739008,no,-0.622022,yes
SMc03788,0.103007,no,-0.654672,yes
SMa2371,0.116848,no,-0.243808,no
SMc02317,0.310677,no,-0.0209811,no
SMa1220,0.365964,no,-0.147161,no
SMc04435,0.311641,no,-0.123961,no
SMc02315,0.00499138,no,-0.0456315,no
SMc00194,0.19104,no,-0.0897935,no
SMc_R0067,0.625336,no,-0.641757,no
SMb20998,0.917549,no,-0.354419,no
SMc00075,0.0397826,no,-0.0609346,no
SMc02483,0.339191,no,-0.638149,yes
SMc00299,0.455211,no,-0.147966,no
SMc00922,0.0441172,no,-0.52344,yes
SMc00923,0.0759333,no,-0.637973,yes
SMc01513,0.865631,no,-1.70243,yes
SMc02481,0.522781,no,-0.6123,yes
SMc00292,0.244126,no,-0.787985,yes
SMc02257,0.149386,no,-0.546244,no
SMc_R0066,0.695008,no,-1.01857,yes
SMc00669,0.632917,no,-0.210115,no
SMc00668,1.0718,no,-0.0649147,no
SMc01499,0.476157,no,-0.369085,no
SMb21162,0.0848491,no,-0.129406,no
SMc02485,0.134177,no,-0.564786,no
SMc02220,0.860209,no,-0.0818485,no
SMc02240,0.505405,no,-0.837869,yes
SMc00330,0.00270884,no,-0.717059,yes
SMc02181,0.194426,no,-0.619877,yes
SMb20862,0.554917,no,-0.074768,no
SMc00682,0.437334,no,-0.385599,yes
SMc00681,0.107518,no,-0.118324,no
SMc00687,0.398433,no,-0.0257494,no
SMc04123,0.324548,no,-0.598391,yes
SMc01932,0.0747262,no,-0.155935,no
SMb21566,2.8053,yes,-0.693354,yes
SMb21567,2.79537,no,-0.358339,no
SMa1291,0.236742,no,-0.15796,no
SMa0059,0.333885,no,-1.14708,yes
SMc02644,0.259827,no,-0.928874,yes
SMc02612,0.237733,no,-0.0499499,no
SMc02136,0.584843,no,-0.12576,no
SMc02139,0.353265,no,-1.07319,yes
SMc02520,0.0572751,no,-1.9893,yes
SMc02521,0.148946,no,-3.45706,yes
SMc01747,1.83187,no,-1.8145,yes
SMc02523,0.184926,no,-0.238218,no
SMc02986,0.0762082,no,-0.367081,no
SMc01559,0.240452,no,-0.271593,no
SMb21706,0.154894,no,-0.820186,yes
SMc02982,0.521865,no,-1.37695,yes
SMc02226,0.193906,no,-0.565078,yes
SMc02353,0.0955515,no,-0.721825,yes
SMc03925,0.0143659,no,-0.499206,yes
SMc03923,0.375484,no,-0.265448,no
SMc01555,0.100062,no,-0.0253444,no
SMc01004,0.237195,no,-0.091903,no
SMc00430,0.205255,no,-0.128222,no
SMc00432,0.347883,no,-0.000548037,no
SMc00433,0.327515,no,-0.0508404,no
SMa1884,0.0825694,no,-0.0560301,no
SMa1887,0.0151917,no,-0.604545,no
SMc03195,0.460829,no,-0.191696,no
SMc00478,0.0781981,no,-0.114964,no
SMc02218,0.614041,no,-0.914521,yes
SMb20767,0.0684582,no,-0.0949333,no
SMc01955,0.544647,no,-0.141471,no
SMc01956,0.665903,no,-0.0233576,no
SMc01944,0.077756,no,-1.33697,yes
SMc02505,0.568048,no,-0.064669,no
SMc02733,0.608805,no,-0.382763,yes
SMa2083,0.52989,no,-0.152841,no
SMb21205,0.505144,no,-0.105323,no
SMb21204,0.16692,no,-0.198503,no
SMc01523,0.0644144,no,-0.993394,yes
SMc01522,0.865042,no,-0.831379,yes
SMc03179,0.228371,no,-0.453107,no
SMa0548,0.403808,no,-0.342997,no
SMc03170,0.744198,no,-0.0762296,no
SMc03171,1.09807,no,-0.184593,no
SMc04296,0.264033,no,-0.611702,yes
SMa0545,0.541308,no,-0.0438669,no
SMc02858,0.81062,no,-0.256003,no
SMc03852,0.282998,no,-0.410025,no
SMc02913,0.170154,no,-0.342039,no
SMa1495,0.373571,no,-0.0845449,no
SMc00897,0.718471,no,-0.0200115,no
SMc03855,0.335979,no,-0.277299,no
SMc03854,0.0911355,no,-0.326982,no
SMc02850,0.0314165,no,-0.581628,yes
SMc02853,0.633956,no,-0.147317,no
SMc02855,0.265916,no,-1.10535,yes
SMc02856,0.504534,no,-0.8133,yes
SMc02857,1.0568,no,-0.154481,no
SMb20493,0.282662,no,-0.043243,no
SMc02090,0.11377,no,-0.625682,no
SMc01728,0.0447523,no,-0.546304,yes
SMa2233,0.389881,no,-0.522189,yes
SMc04218,0.420309,no,-0.33247,no
SMa1308,0.357643,no,-0.25026,no
SMb20336,0.042434,no,-0.131064,no
SMb20337,0.562768,no,-0.330183,no
SMc03169,1.33358,no,-0.0803837,no
SMa1301,0.010085,no,-0.279036,no
SMa2019,0.546616,no,-0.911061,yes
SMc04052,0.104869,no,-0.952925,yes
SMc03778,0.145846,no,-0.312021,no
SMc02776,0.395138,no,-0.179591,no
SMb20387,0.331437,no,-0.136013,no
SMb20385,0.354525,no,-0.056377,no
SMb20384,0.193506,no,-0.0426718,no
SMc00024,0.0395986,no,-1.10792,yes
SMa1467,0.146923,no,-0.193032,no
SMc02770,0.379012,no,-0.516284,yes
SMc00374,0.278835,no,-0.271182,no
SMc04203,0.827642,no,-2.00075,yes
SMc04201,0.270109,no,-0.285637,no
SMc00270,0.242514,no,-0.0311981,no
SMc00378,0.302944,no,-0.495519,yes
SMc04199,0.0931825,no,-0.362291,no
SMc04350,2.07603,yes,-0.0970882,no
SMc04197,0.0260061,no,-0.910918,yes
SMc01178,0.0507969,no,-0.193381,no
SMb20942,0.288703,no,-0.0966998,no
SMc02677,0.175511,no,-0.343899,no
SMc02176,0.607532,no,-0.454977,no
SMc00484,0.31444,no,-0.894237,yes
SMc00971,0.186728,no,-0.198669,no
SMc00970,0.474111,no,-0.319376,no
SMc02075,0.874105,no,-0.28936,no
SMc00975,0.666253,no,-0.310903,no
SMc03185,1.48328,no,-0.382024,no
SMc01703,0.370078,no,-0.0667055,no
SMc01709,0.171784,no,-0.202382,no
SMc00877,0.159967,no,-0.197923,no
SMc01514,0.657566,no,-2.03359,yes
SMc01515,0.152541,no,-2.18313,yes
SMc01516,1.78738,yes,-1.83663,yes
SMc01517,1.41775,no,-2.28054,yes
SMc01510,0.826301,no,-2.01321,yes
SMc01512,0.185518,no,-1.92548,yes
SMb21589,0.420065,no,-0.107357,no
SMb21587,0.175765,no,-0.0946288,no
SMc01518,0.235992,no,-1.48755,yes
SMa0607,0.0702686,no,-0.0198463,no
SMc01150,0.18978,no,-0.20374,no
SMc00779,0.560125,no,-0.498595,yes
SMc00778,0.731646,no,-0.427629,no
SMc04141,0.204188,no,-0.0700928,no
SMa0745,2.42678,yes,-0.472124,yes
SMc00777,4.44719,yes,-1.8915,yes
SMa2287,0.154409,no,-0.211848,no
SMb20830,0.485794,no,-0.0530011,no
SMb20721,0.27065,no,-0.138143,no
SMb20720,0.100002,no,-0.0272401,no
SMb20722,0.334045,no,-0.367498,no
SMc02386,0.135547,no,-0.718816,yes
SMb20728,0.905849,no,-0.869878,yes
SMc02775,0.415092,no,-0.16285,no
SMa0081,0.034493,no,-0.18305,no
SMb21129,0.344432,no,-0.05236,no
SMa0085,0.1722,no,-0.434258,no
SMa0160,0.274566,no,-0.398929,no
SMa0163,0.247431,no,-0.519586,yes
SMa0089,1.15773,no,-0.000248629,no
SMb21120,0.260479,no,-0.588803,no
SMa0164,0.506158,no,-0.876603,no
SMa0166,0.205892,no,-1.02488,yes
SMa0742,0.240599,no,-0.14297,no
SMb20299,0.00181588,no,-0.161982,no
SMa0744,2.44017,yes,-0.445485,yes
SMa0461,0.284397,no,-0.91422,no
SMc01354,0.0048725,no,-0.140578,no
SMc03810,0.12851,no,-0.130366,no
SMa0933,0.46839,no,-1.09122,no
SMc02793,0.132145,no,-0.460852,yes
SMc02790,0.0760557,no,-0.563139,no
SMc02796,0.0411501,no,-0.236514,no
SMc02795,0.0146554,no,-0.150323,no
SMb20591,1.27554,no,-0.136786,no
SMc02649,0.134119,no,-0.730857,no
SMb20598,1.27071,no,-0.00062602,no
SMc02047,0.00420018,no,-1.11079,yes
SMb21339,0.0777827,no,-0.132915,no
SMc01909,0.258128,no,-1.1225,yes
SMc01908,0.161498,no,-0.0132674,no
SMc02494,0.128248,no,-0.157048,no
SMb20755,0.965452,no,-0.501674,yes
SMb20756,0.871658,no,-0.542532,yes
SMb20757,0.960714,no,-0.046158,no
SMb20758,0.172329,no,-0.35335,no
SMa1691,0.215399,no,-0.147835,no
SMa1760,0.574641,no,-0.813695,yes
SMa1761,0.314373,no,-0.800926,yes
SMc00057,0.212994,no,-0.0642232,no
SMc00054,0.0103502,no,-0.654251,yes
SMa1183,0.00805867,no,-0.16224,no
SMc04028,0.0205935,no,-0.576331,yes
SMc01228,0.136729,no,-1.12657,yes
SMc01226,1.07729,no,-0.23509,no
SMc01227,0.512238,no,-0.787184,yes
SMc01224,0.659396,no,-0.300784,no
SMc01225,0.312169,no,-0.212633,no
SMc01223,0.0751903,no,-0.686894,yes
SMb21090,0.489217,no,-0.200849,no
SMc02648,0.401034,no,-0.0874246,no
SMb20622,0.0383316,no,-0.243158,no
SMa2309,0.248801,no,-0.116581,no
SMc02516,0.207068,no,-0.753642,yes
SMb20624,0.841259,no,-0.0693043,no
SMc03037,0.33464,no,-2.04985,yes
SMb20501,0.00125789,no,-0.0597202,no
SMa1111,0.914251,no,-0.874681,no
SMc02045,0.195246,no,-0.727296,no
SMc00604,0.256774,no,-0.601844,yes
SMc01715,0.302437,no,-0.185098,no
SMb20985,0.185277,no,-0.181642,no
SMc03922,0.277556,no,-0.145519,no
SMc02988,0.485176,no,-0.0442099,no
SMc04093,0.311977,no,-0.255242,no
SMc04090,0.550609,no,-0.216986,no
SMc02033,0.527499,no,-0.242345,no
SMc02036,0.795094,no,-0.133938,no
SMc02037,0.561268,no,-0.345408,no
SMc01837,0.170431,no,-0.600978,yes
SMc02038,0.370208,no,-0.568424,yes
SMc01102,0.292891,no,-0.2304,no
SMa1945,0.282619,no,-0.0262095,no
SMc00932,0.155312,no,-0.61454,yes
SMa1437,0.144482,no,-0.392376,no
SMc04204,0.203657,no,-0.850227,yes
SMc00832,0.190234,no,-0.211296,no
SMc00833,0.0322393,no,-0.405514,no
SMb20370,0.0238032,no,-1.45163,yes
SMc_R0074,0.34158,no,-0.665693,yes
SMc00112,0.165346,no,-0.584813,no
SMc04142,0.438265,no,-0.374998,no
SMc02304,0.136936,no,-0.373096,no
SMa0888,1.10007,no,-0.0650955,no
SMc02890,0.254968,no,-0.895946,yes
SMc02583,0.452933,no,-0.0553462,no
SMb21179,0.269861,no,-0.0626752,no
SMc02581,0.202796,no,-0.448721,yes
SMc02269,0.186217,no,-0.374623,no
SMb21040,0.025683,no,-0.681577,yes
SMa0255,0.119727,no,-0.0903697,no
SMb20259,0.392391,no,-0.0141777,no
SMc02300,0.639816,no,-0.538247,no
SMc00739,0.113814,no,-0.176435,no
SMb20970,0.0529195,no,-0.028507,no
SMc02891,0.471037,no,-0.807959,yes
SMc04205,0.341436,no,-1.27815,yes
SMc00915,0.0835588,no,-0.364051,no
SMa0123,0.425974,no,-0.0591355,no
SMc00948,0.0301088,no,-1.14458,yes
SMc00562,3.47366,no,-0.00142965,no
SMc00230,0.120429,no,-0.365808,no
SMc01730,0.0130555,no,-0.438253,yes
SMc02108,0.337894,no,-0.174172,no
SMc00947,0.145665,no,-0.857796,yes
SMb21300,0.122317,no,-0.110767,no
SMb21302,0.476181,no,-0.311577,no
SMb21303,0.436459,no,-0.336203,no
SMb21304,0.382984,no,-0.382169,no
SMc01461,0.201084,no,-0.775124,yes
SMc02368,0.343602,no,-0.442121,yes
SMc02308,0.260522,no,-0.528137,no
SMb21655,0.286311,no,-0.437883,no
SMb21653,0.128364,no,-0.445515,no
SMc01545,0.051541,no,-0.0195699,no
SMc00429,0.381598,no,-0.0896095,no
SMc00421,0.368501,no,-0.323989,no
SMc00425,0.384574,no,-0.989083,yes
SMc00424,0.594114,no,-0.0249783,no
SMa0222,0.101681,no,-0.32527,no
SMc01498,0.321791,no,-0.722273,yes
SMc03181,0.469205,no,-0.407225,no
SMc03180,0.244298,no,-0.527271,no
SMc03183,0.487465,no,-0.432443,no
SMc03264,0.0865814,no,-0.125249,no
SMc01497,1.02846,no,-0.447219,no
SMc01496,1.20199,no,-0.332501,no
SMb21375,2.30125,no,-0.290693,no
SMb21374,1.52053,yes,-0.153603,no
SMb21377,2.63597,yes,-0.477202,yes
SMb21376,2.18617,yes,-0.332671,no
SMc01943,0.110126,no,-0.0601282,no
SMc01942,0.574145,no,-0.10221,no
SMb21372,0.0419684,no,-0.164638,no
SMc01120,0.013305,no,-0.254279,no
SMc01125,0.559842,no,-1.23513,yes
SMc04346,1.3933,no,-1.66112,yes
SMb20536,0.119394,no,-0.119698,no
SMb20537,0.314183,no,-0.0555392,no
SMc03000,0.189105,no,-0.298487,no
SMc03001,0.102774,no,-0.036595,no
SMc03002,0.00350163,no,-0.530213,no
SMc00592,0.689405,no,-2.29416,yes
SMb21003,0.081572,no,-0.264624,no
SMc03162,0.948601,no,-0.127133,no
SMc04348,1.88111,yes,-1.29346,yes
SMc02849,0.178479,no,-0.100806,no
SMc03981,0.0160818,no,-0.284334,no
SMc02845,1.18542,no,-0.122642,no
SMc02844,0.810308,no,-0.294511,no
SMc03789,0.610889,no,-0.653342,no
SMa0513,0.0439171,no,-0.431016,no
SMa1095,0.116619,no,-0.174462,no
SMa0705,0.200899,no,-0.105816,no
SMc00452,0.185752,no,-0.434663,yes
SMa0707,0.0220584,no,-0.027024,no
SMb20623,0.119812,no,-0.147985,no
SMb20156,0.310367,no,-0.205367,no
SMb21095,0.621439,no,-2.30673,yes
SMb21096,0.0213144,no,-2.18266,yes
SMb20155,0.923363,no,-0.146318,no
SMb21098,0.536655,no,-1.64417,yes
SMb21099,0.116022,no,-2.06193,yes
SMb20159,0.432044,no,-0.112243,no
SMa0708,0.0119021,no,-0.0173616,no
SMa1652,0.278059,no,-0.13286,no
SMc04441,0.3205,no,-0.094269,no
SMc03250,0.123763,no,-0.577081,no
SMb20323,0.128883,no,-0.324752,no
SMc04119,0.12493,no,-0.308807,no
SMb20445,0.103498,no,-0.0134637,no
SMc02728,0.347065,no,-0.139,no
SMb21202,0.218498,no,-0.035313,no
SMc04402,0.870013,no,-0.532658,yes
SMc01521,0.20237,no,-0.351019,no
SMa2085,0.581864,no,-0.490572,no
SMc04403,0.944994,no,-0.560686,yes
SMc03764,0.911901,no,-0.136275,no
SMc02736,0.117334,no,-1.18699,yes
SMc03763,0.192293,no,-0.601377,yes
SMc00260,0.25605,no,-0.00426575,no
SMc00263,0.111191,no,-0.521751,no
SMc01760,0.0175631,no,-0.232256,no
SMc00265,0.000835406,no,-0.668421,yes
SMc00264,0.22013,no,-0.729211,yes
SMc02617,0.328329,no,-0.0495924,no
SMc01651,0.0998747,no,-0.381911,no
SMc04231,0.452484,no,-0.152727,no
SMc02599,0.0942775,no,-1.4232,yes
SMc02598,0.195648,no,-1.16075,yes
SMc02609,0.170765,no,-0.194236,no
SMc02148,0.13784,no,-0.411801,yes
SMc02595,0.168868,no,-0.260102,no
SMc03263,0.089913,no,-0.210784,no
SMc00646,1.45983,no,-0.0825484,no
SMc02259,0.0660878,no,-0.809717,yes
SMc00641,0.482604,no,-1.63774,yes
SMc00640,0.358926,no,-1.47726,yes
SMb21590,0.498384,no,-0.0708326,no
SMa0189,0.125593,no,-0.122377,no
SMc02596,0.227679,no,-0.656458,yes
SMc01501,0.510498,no,-0.506004,no
SMc01500,0.457782,no,-0.425767,no
SMa0185,0.0538394,no,-0.153759,no
SMc00467,0.946619,no,-0.0460682,no
SMa2171,0.258634,no,-0.310718,no
SMc03235,0.688214,no,-0.223064,no
SMc00461,0.426217,no,-1.09686,yes
SMc00740,0.127101,no,-0.183859,no
SMc02911,0.450669,no,-0.290266,no
SMb21259,0.626614,no,-0.483073,no
SMa2073,0.328937,no,-0.435355,no
SMa2075,0.422032,no,-0.780145,yes
SMc03998,1.29556,no,-0.327249,no
SMa0673,0.776821,no,-1.00882,no
SMc01164,0.488704,no,-0.415274,no
SMc01167,0.248957,no,-0.544985,yes
SMc02912,0.417048,no,-0.099523,no
SMc01161,0.00529714,no,-0.243302,no
SMc01163,0.525433,no,-0.425434,no
SMa0077,0.33963,no,-0.246226,no
SMa0748,0.446587,no,-0.362225,no
SMc00341,1.1596,no,-0.222921,no
SMc01600,0.0120137,no,-0.319449,no
SMc00344,0.0627635,no,-0.196533,no
SMc00345,0.254338,no,-0.226689,no
SMc03949,0.15784,no,-0.289032,no
SMc03823,0.182742,no,-0.0650105,no
SMb20263,0.558421,no,-1.53602,yes
SMb20264,0.775248,no,-1.23305,yes
SMb20265,0.714178,no,-1.14806,yes
SMb20266,0.629064,no,-0.974823,yes
SMb20267,0.606675,no,-0.938261,yes
SMb20268,0.511647,no,-0.61636,yes
SMb20269,0.765169,no,-0.547523,no
SMc01761,0.314633,no,-0.576405,yes
SMb21049,0.124065,no,-0.107025,no
SMc02800,0.297785,no,-0.276329,no
SMc01767,0.5538,no,-0.426401,no
SMa2389,0.436295,no,-0.0709911,no
SMc00515,0.0281627,no,-0.169329,no
SMc03991,0.0237665,no,-0.225648,no
SMb20668,0.217947,no,-0.866095,yes
SMb20669,0.190943,no,-0.533569,no
SMb20665,0.0537251,no,-0.375188,no
SMb20667,0.105449,no,-0.0671218,no
SMc02650,0.124167,no,-0.561264,no
SMa1759,0.337461,no,-0.179647,no
SMc02482,0.487066,no,-0.327992,no
SMb20217,0.050431,no,-0.0155977,no
SMc02480,0.483541,no,-0.625508,yes
SMc02486,0.260994,no,-0.640389,no
SMb20745,1.39346,no,-0.295338,no
SMc02484,0.218759,no,-0.782279,yes
SMa1751,0.608254,no,-0.15921,no
SMa1753,0.0388866,no,-0.060589,no
SMa1755,0.330598,no,-0.45766,yes
SMa1754,0.285061,no,-0.403679,no
SMa1757,0.33612,no,-0.509706,yes
SMc02645,1.0165,no,-0.082695,no
SMc03756,0.0762357,no,-0.161122,no
SMc02479,0.521275,no,-0.826801,yes
SMc04398,0.19475,no,-0.384084,no
SMa0527,0.514422,no,-0.0626525,no
SMc04391,0.249914,no,-0.467901,no
SMc04393,0.087385,no,-0.720991,yes
SMc03801,0.721946,no,-0.347799,no
SMc01233,0.556209,no,-0.438661,yes
SMc01232,0.268171,no,-0.837892,yes
SMc01235,0.0488453,no,-0.0179422,no
SMc01237,0.499954,no,-1.41281,yes
SMc01616,0.061302,no,-0.420905,no
SMc01330,0.162489,no,-0.748808,yes
SMc01238,0.129354,no,-0.344628,no
SMa2251,0.915973,no,-0.49467,no
SMa0594,0.0289018,no,-0.288905,no
SMa2313,0.170565,no,-0.107331,no
SMb20105,0.36649,no,-0.162481,no
SMb20319,0.161707,no,-0.426655,no
SMc03965,0.126688,no,-0.340043,no
SMc02420,0.222433,no,-0.0385537,no
SMc02866,0.760207,no,-0.66361,yes
SMc02780,0.279096,no,-0.203672,no
SMc03836,0.00743712,no,-0.815145,yes
SMc04085,0.0905679,no,-0.0587479,no
SMc02868,0.6115,no,-0.870095,yes
SMc04089,0.279049,no,-1.012,yes
SMc02783,0.410935,no,-0.397946,no
SMc02051,1.18357,no,-0.276918,no
SMc01808,0.179228,no,-0.477808,yes
SMb20368,0.375469,no,-1.59455,yes
SMc04404,0.557618,no,-0.269798,no
SMc04407,0.383659,no,-1.53653,yes
SMc04406,0.956333,no,-0.798352,yes
SMc04153,0.436909,no,-0.337993,no
SMc04152,0.120544,no,-0.306351,no
SMc00829,0.219859,no,-0.164853,no
SMc02507,1.42452,no,-1.16137,yes
SMc00259,0.29124,no,-0.135672,no
SMb21144,0.262781,no,-0.0216413,no
SMc01657,0.797026,no,-3.07737,yes
SMc01656,0.0452256,no,-0.316208,no
SMb21493,0.137551,no,-1.25255,yes
SMc00702,0.260035,no,-0.34116,no
SMc01658,0.27353,no,-2.93989,yes
SMc02593,0.232246,no,-0.084295,no
SMc02592,0.236398,no,-0.0256882,no
SMc01111,0.188525,no,-0.461059,yes
SMc03850,0.481128,no,-0.337984,no
SMa2031,1.10379,no,-0.00972407,no
SMc02515,0.209905,no,-0.573454,no
SMb20964,0.239243,no,-0.386144,no
SMa0036,0.0212748,no,-0.100224,no
SMa2391,0.518872,no,-1.4181,yes
SMc00387,0.00314615,no,-0.133688,no
SMc00384,0.0168376,no,-0.508609,yes
SMc02506,1.21791,no,-1.12767,no
SMc00228,0.283489,no,-0.445358,yes
SMc00380,0.543301,no,-0.689696,yes
SMc00381,0.0532018,no,-0.862333,yes
SMc00952,0.124324,no,-0.348044,no
SMc02508,1.72593,no,-1.08389,yes
SMc02509,1.75907,no,-1.48782,yes
SMc00389,1.19646,no,-0.641962,yes
