1,TGAAGCGAAATTGTGGCAAG
2,TGTGGCGAAAAAAAGGCACG
3,TCCGGCGACATGGCGGCAAT
4,GGAGGAGGAAATGCGGCGAC
5,TGAGGCGAAGGTCGGGCAAC
6,GGCAGCGACAAGCCGGCACC
7,TGCCGAGAAGATAGGGCCAT
8,TGAGGAGAAAATGACGAAAT
9,TGCGGAAACATGCGGGCAAC
10,TGCGGAGGAAATCGGGCGTC
11,GGCCGCGAAATAGCGGAAAT
12,GGACGCGAAATTCCGGCATG
13,TGCGGCGAAGCGCCGGAAAT
14,TGTGGCGACAATGCGGACAG
15,GGCGGCGAAGTTGCGGCCCG
16,TGCCGCGACAATGTGGCGTG
17,TGCAGCGCAAAGGCGGCATC
18,TGAAGCGACATTCCGGAACG
19,TGCGCCGACATTGCGGCCCT
20,TGCCGAGGAATTGCTGCAAT
21,GGCGGAGAAAAGGTGGCGAA
22,TTCGGCGACAATACGGCCAG
23,TGCCGAGAAGAAGCGGCGAT
24,TGGGGCGACATTCTGGAGAC
25,GGCGAGGAAATGGCGGCACT
26,GGCGGAGGCAAAGGGGCAAG
27,GGCAGAAAAATTGAGGAAAT
28,TTGGGAAAAAATGAGGAAAT
29,GGAGACGGAATGCCGGCATT
30,GCCGGCGAAATAGCGGCACC
31,TGCGGCAAAAATGTGGTCTG
32,TGCGGCAGCAAGGAGGAACT
33,TGCGGCGAAAAGGCCGACCT
34,TGAGGACAAAATCCCGCAAC
35,TGTCGCGGAAAGCGGGCGCC
36,GGCTGCGAAATGCTGGCCAT
37,GGCGCCGGAATGGTGGCAAG
38,TGGGGCGGAGCTCGGGAAAT
39,TGAGACAAAAAAGGGGTACC
40,TGCGGCCGAAAAGGGGCACA
41,TGGAGCGGAATGAGGGAACG
42,TGCGGCGGAAAAGATGAAAT
43,GGTGGAGAAATTCCGGCGCG
44,GGCGGCGACGATGTGGTCAC
45,GGAAGCCAAAAAACGGCAAG
46,TCCGGCGGAAATACGGCCTT
47,TGAGGCCACGATCGGGAACC
48,GGCGGCGCAAAGCGGGAAAT
49,GGCGACGAAGAGGCGGTATT
50,TGAAGCCGAATTGCGGCGTC
51,TTGCGCGAAGAGGCGGAAAC
52,TTCGAAGAAATTCTGGCGAC
53,GGTGGCGAAGAAATGGCGCT
54,TGTGAATAAAATGTGGCATT
55,TGCAGCGGCGATGCGGCCCG
56,GGCGACGGCAAGGCGGCGAT
57,GTCCGCGAAACGCCGGCAAT
58,TGAGGCAGCGATATGGCCAT
59,GGCAGCGACGATGCGGACAT
60,GGCCGCCAAACGACGGCAAT
61,TGAAGCCGCATTCCGGCAAG
62,GGCGACGAAATGAGGGTATC
63,TCAAGAAAAAAAGCGGCAAT
64,TGACGAGACATGATGGAATC
65,TGAAGAGGAAGTCGGGCAAG
66,GGCGGCGACGATGCGGACTT
67,TGCGGCCGAAATCGGGAAAA
68,TGCCGCGAAGAACTGGAACG
69,TTCCGGGAAAATGTGGAACC
70,TCGGGCGAAACGGCGGAACT
71,GTCGGCGAAACGGCGGCAAA
72,TGAGGCGGAATACCGGCGTG
73,GGGAGCGGAGAGCCGGCAAG
74,GGCGGCGAAGTTGCGGTCCG
75,TGACGCCGAAAGCCGGCATG
76,TGCGACCGAGATCCGGCATT
77,TTCGGCGAAGATCTCGCATT
78,GGTCGCCGAAATCTGGCACC
79,GGCAGCGGCGATGGGGCGCT
80,GGCGGAGAAAAGCGCGCCAT
81,GTCGGCGAACTGGCGGCACT
82,GGTGGCGCCATGGGGGCAAC
83,GGCGACGACATTCCGGCCTT
84,TGCCGCGAACTTCCGGCGAT
85,GGCGGCAAAAAGATGGAAAA
86,TGCGGCGAAACTGTCGACCT
87,TGCGACGCCATGCTGGCAAT
88,GGCGGAAACGATGCGGCGAT
89,GGCGGCGGAGATCGGGCCTG
90,TGGGGCAAACTGGGGGAAAT
91,TGCCGCGAACTTGCGGAACG
92,GGAGCCGACATTCCGGCACG
93,GGCGGAGGATTTCCGGCACC
94,TGCAGCGCAATAGCGGCCCT
95,TGTGACGAAAATAAGGCGCA
96,GGCGGCGGCATGGAGGTATC
97,GGCGACGACGTGGCGGCGAT
98,TGCAGCGAAACGGTCGCGAC
99,GGAGCCGAAATTCAGGAATT
100,GGAGGCGGCAAAGTGGTACG
101,GCCGGCGAAGATGCGGTATT
102,GGCGACGAAAAGCCGGCCAA
103,GCCGGCGAAGAACCGGCAAC
104,GGACGCGGAAAGGCGGAGCC
105,TGCGAACGAATGCCGGCATT
106,GTCGGCGACGATGCGGCCAG
107,GTCGGCGACGATCTGGCCCT
108,TGCGGCGAAATAGCGGTGCA
109,TGCGGCGGCAATCCTGCGAC
110,GGCGGCGAAATGCTCGAATT
111,GGCGGCGGATCGGCGGCACC
112,GCCGGCGACATGGTGGCGAC
113,TGAGGAGACGCTCGGGCGCC
114,TGAGACGGAAGTCGGGCGAT
115,GGCGGCGAAGAGCAGGAGCC
116,TGCCGCGACGCGCAGGCATT
117,TTCGCCGGCAAGGCGGCACC
118,TGCGGCCGCGAGGAGGAAAC
119,TTGGACGAAAATCCGGTCAT
120,GGGTGCGGAACTCCGGCAAT
121,GGCCGCGGCAATCTGGTATT
122,TGCCGGGAAAATGCGGCGCA
123,GGGGGCGGCACGGCGGAACT
124,TGCCGCAACAAGCCGGCACA
125,TGCCGCGACGTGGCGGAGCT
126,GGCGGCGACAAGGTCGTACC
127,TTCGGCGGCAAGGAGGCGCG
128,TTCAACGACGAGCTGGCACT
129,TGCGGCCGAAATGACGCCCT
130,TGCCGCGCAATGAAGGCACG
131,GGCCGCGGCATGCGGGCGAT
132,TGTCGAGGAATTGCTGCATC
133,TTCCGAGAAATGGTCGCACC
134,GGCCGCCGCGAGGTGGCAAT
135,GGAAGCGGCAAGCCGGCCAG
136,GGCCGGGAAGAGGTGGAACT
137,TCCGGCGGAATGCCGGTACC
138,TGCGGACGAAAAGCGGCGCG
139,GGCAGCGGCAATACGGAGAT
140,GGCGGAAAAAAGCGGGTGAT
141,TTGAGCGAAAGGACGGCACC
142,GGCAGCGCAAATACGGCGAC
143,TTCGGCGAAATGGAGGTCTG
144,TGGGGCAACGAGCAGGCGAT
145,GGTGACGAAGATGCGGACCC
146,TTCGGAGGCAAGAAGGCGAT
147,GCCGGAGAAATGGCGGTATT
148,GGAGAACACATGGCGGCATT
149,GGACGCGGAGCGCCGGCAAC
150,TGCGAGGACAATCCGGAATT
151,TTCGGCGAAACGGCCGCACG
152,GCCGGCGACATGACGGCACG
153,TTCGAAGACGATGCGGCCCT
154,TTCGGCGGAAATGATGCCTT
155,GGAGACGGAAAGCCGGCGCG
156,TGCCGAAGAACTGGGGAACC
157,TGAAGCGGAAGAGCGGCGCT
158,GTCGGCGACGTTCTGGCCCT
159,GGCGAAGAAATGCTCGCAAC
160,TCCGGCGAAAATGTCGACAT
161,TGACGGGGAGAAGGGGCAAG
162,GGTGGCGGACATGCGGCGCT
163,TTGCGCGACGATCCGGAAAT
164,TGACGAGGCATTGGGGAGCC
165,TGTCGAGGAATTGCTGCCAT
166,TGCGGCGGAAGTGCGGAGTC
167,GGGGGCGAAATACCGGTGCT
168,TGGAGCGAACCGGAGGCAAG
169,TGCCGAGGAAATCAGGCGAA
170,TGAGCACGAGATGCGGCACC
171,GGCAACGACGATCTGGTAAT
172,GGCGGCGACAAGGCTGCCCG
173,GGACGGGAAATGGCGGTATT
174,TGCCGTGAAATACCGGCAAG
175,GGTGACGAAAATCTGGTGTT
176,GTCGCCGACAAGCTGGCACT
177,GGAGGCGAAAATGGCGAGCG
178,GGAAGCGGCGATGCGGCCCG
179,TGGGGCGACAATGGCGAGCC
180,GGTGGAAACACGCCGGCAAT
181,GTGAGCGAAAAGGAGGCGCG
182,TGGGGCGACGATCCGGAGCG
183,GGGCACGACGAAGCGGCAAT
184,TGCGGCAAAACAAAGGAATC
185,TGCGGCGCCATGAAGGCCAC
186,TGTCGAAAAAAGCAGGCGCC
187,TGCGGCGGATCTCCGGCGAC
188,GTCGACGACAAGGCGGCCTT
189,GTCGGCGAAGCGGAGGCGAT
190,TGGGAGGAAACGGTGGCATG
191,TGGCGACAAGATCGGGCGCT
192,TCCGGCGGAACGGCGGCGCC
193,TGCAGAAAAACTATGGCGCG
194,TCAAGCGAACCTGCGGCAAT
195,TGACGCGAAACGGCCGCCCC
196,GGTCGCAGAATTCCGGCACG
197,GGCGGCGGAACGCTGGCCTG
198,TCGAGCAAAAATGAGGCAAA
199,TCCGACGAAAAGGTCGCAAG
200,TGGAAAAGAAATGAGGAACT
201,TTCGGCGGCAATCGCGCATT
202,TTCGGCGGACAGCCGGCAAG
203,GGCGGCGAAACGGGGGAGAA
204,TGCGGCCGAAAGCGTGAAAC
205,TTCAGCGGAGTTCCGGCCTT
206,TGAGGAGGAATTCATGAAAG
207,TGCACAGAAATGGTGGCGTG
208,GGCGCCGAATTGCTGGCAAC
209,GGAGGCGGCGCGAGGGCAAG
210,GGCGGCAAAGCGCTGGCGAT
211,TGCAACGAAATTGCCGCGTC
212,TTCGACGGCAAGACGGCGAT
213,TGCCGCCACAAGGGGGCGAA
214,GGAAGAGAAGCACCGGCACC
215,TGGCGCCGAAATACGGCGTC
216,GGAAACGGAGAGCCGGAAAT
217,TGCGGCGCATAGGCGGCGAC
218,GCGAGCGGAAATGGGGAATT
219,GGCGGCCAATATCTGGAATT
220,GGCAGCGAAAGGACGGCGCC
221,GGCGGCGACAAGCTGGTCTG
222,TCGAGCGGCAATCCGGCATC
223,GTAAGCGGAATTCGGGCACA
224,TGCGCCGACGATCTGGACAT
225,GGAGGGAGAGATCGGGCAAC
226,GGAGGCGGCGAAACGGTAAT
227,GGCGGCAGCAAGGTCGCAAC
228,GGAGGCGGAAGAGCGGCGAC
229,GTGCGCGACATGGCGGAACT
230,GGCGGAGAAAAGCCTGCGAG
231,TTCGAGGAAATGCTGGAAAT
232,GGAGGCGGAAATCCTGCCCG
233,GTCGACGACATGGAGGAACT
234,TTGGGCGAACTGGGGGAATT
235,GGCAGCAGAATGGCGGAGAT
236,GGGGGTGAAAAGCCGGCGCT
237,TGGAACGGAGAACGGGCATC
238,TCCGGCAGAAATGGTGCACC
239,GGCGCAGAAAAACAGGCCAT
240,TGTGGCGGCTATCCGGCCCC
241,TGCGGCGCAGATGAGGAGCC
242,TGGTGCCGAGAAGCGGCAAT
243,GGCGGAGGAAAAGCGGCGCA
244,TGGGACGAACTGGCGGAAAG
245,TGGGGCGAAGTGCTCGCCTT
246,TCCGGCGACGAGGCGGAGAT
247,TCGAGCGAAATGCCGGCGAG
248,TGCGGACAAACACTGGCCAG
249,TGCGGCAGAAGTCGGGCGCC
250,TTTGCCGAAATGCCGGCCCT
251,GGCGGCAGATTGGCGGCATC
252,TGCGGCGACCAGCCGGTATC
253,TGGAGCGAAAAGGGCGTCTT
254,GGCAGCCACAATGCGGTGCT
255,TGCGCCGGAGATGCTGCAAG
256,GGCGACGACGAGCGGGCGCC
257,TGAGGAAGAGATCGTGCACC
258,GTCTGAGAAATGGCGGCGAT
259,TGCGGCGGATCAGCGGCATG
260,GCCGGCGGCGTTCCGGCAAT
261,GGGAGCGGAACTCCGGCCAG
262,TTCGGCGGAACTGCCGAAAT
263,TCAGGAAAAACTGCGGCGAC
264,GGCGGCGGCGTTGGGGTGAC
265,TGCAGCCGAATGAAGGCGTC
266,TGCAGCGACGAGATGGTGAG
267,GCCGGCCGAAATCGGGCATC
268,TGGGGAAAAACGAAGGCCAG
269,GTCAGCGGCAATGCGGACAT
270,GGAAGCGGCGTGCTGGCGAT
271,TTCCGCGGCAATGCGGTCCT
272,GGAAGAGGAGAGATTGCAAT
273,TGCAAAGACAATGCCGTAAT
274,GGCGGCGGATTTCTGGAACG
275,GCCGGAGGAGATGCGGCCCT
276,GGCCGCGACGAACAGGAAAT
277,GGCGGCAACAAGCCGGTCAC
278,GCTGGCGAAGATGTGGACAC
279,GGCGGCGGCATTGCCGCGAC
280,TGAGGCAGAGCGGCGGAACG
281,TTCGGCGACGATCGGGCGAA
282,GGCGGCGACGTGACGGTCCT
283,GGAAGCGGCAAAGAGGCCCG
284,TGCGGGGGATTGGCGGTAAT
285,TGACGCGGACATCGGGAATC
286,TGGCGAAAAGAAGCGGCGCT
287,TGGGAAAACGTGGGGGCATC
288,TGCGGCAGAATGCCGGTCTC
289,GGCGGAGGAAAGCTTGCGCT
290,TGAGGCCGCACGGCGGCACA
291,GGTCGAGAAGATGTTGCACG
292,TGCCGCGAAAGGCCGGAGAC
293,GGCGGCGAAACGATCGCGAC
294,TTCGAAGGAGATCCGGAAAC
295,GTCGGCCGAGATACGGCAAG
296,GGCGGAAAAATGCCGGACTT
297,TGCAGCGACGCGATGGCGTC
298,GGCGACGAAACTGCCGAACT
299,GTCGGCGAATCGGTGGAAAT
300,GGCCGAGACGAGGTGGCGCG
301,TGCCGACAAGATGGGGCCCA
302,TGGCGCAGCATAGCGGCACG
303,TGCACCAACAAGCCGGAAAT
304,GCAGGCGGATAAGGGGCAAT
305,TGCTGCGGCATTATGGACCT
306,GGCGGATAAAATAAGGCCTT
307,GGCGGCCACGAGCCGGAATT
308,TGAGGCCGCCTTCCGGCAAC
309,TGCGACGACGATGCTGCGCC
310,TGAGGCGGAGCACGCGCAAT
311,GTGGACGAAATTGCTGCATT
312,GGAGACGAAAATGGCGTATG
313,TCCGGCGGAGAGGCGGAGAC
314,TTGAGAGAAGCGGCGGCGAT
315,TGCAGCGCCGCGGCGGCACT
316,TTGTGCGACATGCGGGAAAT
317,GGCAGCGGCAAGCCGGTGAT
318,GTGCGCGAAGAGGTGGCCTC
319,GGTAGCGGCAATCGGGAGAC
320,GCGGGCGACGATGCGGCGCT
321,GGAAGAGAAGCGGTGGACCT
322,TTCGACCGAACTGCGGCATC
323,TGAAGGAGCATGCGGGCAAC
324,TCGGGCGGCGAGGTGGCCAC
325,GTCAGCGAATTGGAGGAAAT
326,GGTGACGAAATTGCCGCGCC
327,TTCGCCGACATAGCGGCGAT
328,GGCAGCGAAATAGACGCGCT
329,GCGGACGGCATGGTGGCAAT
330,TGGACCAACAAGGCGGAAAC
331,TTCGGACGAGTTATGGCCAT
332,GCCGGCGGAATGGCGGACAC
333,GGGCACGACATTCAGGCGAT
334,TGCACCCACATGCCGGCATT
335,GGTGGCGGCAAGCGGGTGAC
336,GGCGGCGACGAGCCGGACCG
337,TGCGGCGGCGCTCCGGCGCG
338,GGCTGCGAAATTGCGGTCTG
339,TTCGGCAACGAACTGGAAAT
340,GGCGGCGACGATATCGCGCT
341,TTCGGATGAATGCGGGCACT
342,TTCGCCGACAATCCGGCCTC
343,GTCGGCGACGAGGCGGCCTG
344,GGTGGCGACATTGCTGCGCG
345,TGCAGACGCGTTCCGGCAAG
346,TGGCGCGAAGATCGCGCGCC
347,TCTGGCGAAATACCGGCGCG
348,GTGAGAGAAATGGCGGTCAT
349,GGGCGCCACGATCCGGCAAG
350,TGAGGGGCAGAAGGGGCAAG
351,GTCGGCGACAAGAAGGTGAT
352,TGCGGCGCAACGGCCGCATT
353,GGGGCCGAAGTGACGGAACT
354,GGCTGCAACATGGTGGCGCT
355,TGCGGAAGAATGCCGGACTC
356,TTGGCCGACGAGGTGGCACG
357,GGAGGCGACATGCGCGAAAG
358,TGAGGCCGAGATAATGCATC
359,TGGCACGGCACGAGGGCACC
360,TGACGAAGAAAGCAGGCCCG
361,GGCGGAGAAATGGTTGAACA
362,GGCAGACAAACGCCGGTAAT
363,GGTGACGGCATGATGGCGCT
364,TGACGGAGAGATACGGCATT
365,GGAAGCGGCGTAATGGAAAT
366,GTCGGCAACAAGGGCGCAAC
367,GGAGAAGACGTGAAGGAAAT
368,TTGGGCGACATGGTCGTAAC
369,TGAAGGGGCAATCGGGCGCG
370,TGACGCCGAGATAGGGAATG
371,GGCCGAGACGATCCCGCAAT
372,GGCAGCGAAGCGGCCGCAAG
373,GGCAGAGAAGCTCCGGCCCG
374,GTTGGCGGAAATGCCGAAAC
375,GGAAGAAGAAAGCCGGAATC
376,GCCGGCAAAATGAAGGCGAT
377,GGCAGCGCCGTTGCGGCATC
378,GGCAAAAAAAAAGGGGCCTT
379,TGCCGCGAAGCGGGTGCCCC
380,GGCGACGACGAGGCGGCCAA
381,TGCCGAGGAAGGACGGAACC
382,TGTAGAGAAAGGGCCGCATT
383,TGTCGAGAAGATAGGGTGCG
384,TCGGGCAGAAAGGCGGCGAG
385,GCAAGAGAAAATCCGGAGAT
386,GGGCGCGACATTCCGGACAG
387,TGCCGCCGAGGTCTGGCACT
388,GGAGCAGAAGTGCAGGAAAT
389,GGACGGGACGAGCAGGCACT
390,GGTCGCGAAATACTGGTGCT
391,TGCAGGCGCAATGCGGCGAC
392,TTCGGAGGCGTACGGGCATT
393,GTCAGCGACGAGCCGGCATG
394,GTGGGCGAAGAGCAGGACAT
395,TTCGGCGAAAAAGGCGACCC
396,GTGCGCGACATGGCGGCCAG
397,TGACGCGGCACGCCGGCCCG
398,GGCAACCACAAGCGGGAAAC
399,TGCAGCGCCGCGGCGGCACC
400,TTCGGCGGCGAACTGGCGAC
401,TGAGACGGAGCAGTGGCCTC
402,TGGCGAGAAGTTCCCGCACG
403,TCGGACGGCAAGGCGGAACT
404,GGCGGCAACGATCGGGTCCT
405,GGCGCAGAAATTCAGGACAC
406,GGCGGGGGAGCTACGGCAAG
407,TCGAGACGAAAGCGGGCAAC
408,GGCGGCGCAAAGGCGGAATA
409,GGAAGAGGAAGAGCGGCACG
410,GTCAGCGACAAGGATGCAAG
411,TGACGACGATATAGGGCATC
412,GGCGACGACAAGGCCGAATT
413,TGAAGCCGATCGGCGGCATT
414,TGCGGCGGATTGAAGGACCC
415,GGCGGCGAAATTCACGCCAA
416,GGCGGATACATTCGGGCGAT
417,TGAAGGCGAAATATGGCGAG
418,GGCAAGGAAATGGTGGCCCG
419,TGCGGCGGACAAGGTGCATC
420,GCCGGCAACGATCTGGCATT
421,GGTGGAGAAGGTGGGGCGTC
422,GCCGACAACATGGCGGCACT
423,TGGGGCGAAGAGCAGGTCCA
424,GGGGACGACAAGCTGGTGCT
425,GTGCGCGGCAAGGTGGCGCT
426,TGGCGCGAACATCAGGCGCG
427,GCCGACGAAGTGGTGGCGCT
428,TCCCACGAATTTCCGGCAAT
429,GGCGCCGAATATCCGGCGAC
430,GCGGGCGAAAAAGTGGCCAA
431,TGGTGACGAAATAGGGCGAC
432,TCCGGCGAAACGACGGTGCT
433,GGCTGCGGCGAGGCGGCCCT
434,TGGTGCGACTTTGCGGAACC
435,TGCGGACGAATTGCCGCGTT
436,TGCAGCGGAACTCTCGAAAG
437,TGGCGAAGAATGCCGGCGCC
438,TCTGAAGAAGAAGGGGCACG
439,GGACGAGACGAAGTGGACAT
440,GGCGGCAACATGCGGGCGAA
441,GGCGGCGGCAATGGCGCCTG
442,TTCGCCGAAATAGACGCAAT
443,GGCGGCGGCATGACTGCGAT
444,TGCAGAGAAGAGAGCGAACG
445,TGCAGCAGCTTAGCGGCAAC
446,GCCCGCGACAAGGTCGCAAT
447,GGCGGTCAAATTGTGGCGTC
448,TGCCGCAGATCTGGGGCACG
449,TGCCGCGGAATGAGCGCGAG
450,TCCGACGAAATGAAGGACCT
451,GGAGGCGAAGATCGCGTCCT
452,GGCAGCAGAAATCCGGACTC
453,TGCTGCGCCGAGGCGGCATT
454,TGCGCAGACGATGAGGCCTG
455,GGCGGCGGCAATGTCGAGCT
456,TCGCGCGACACGCCGGCACC
457,GGACGACAAGAGGGGGAGAT
458,GGCGAAGCAAAAGTGGCGAT
459,GGAGCCAGAAATAGGGAAAG
460,GGCTGAAGAATTCCGGCATC
461,GTTGGCGACATTGTCGAACT
462,GGAAGAGACATGACGGACTC
463,GCCCGCGGAGATGCGGCGCT
464,GGCGCCGAAAAAGCCGCCAT
465,TTCGGCGAACAAACGGCGCC
466,TTGCGCGGACAAGGGGCACT
467,TGACGAAGAAAAAGGGCGTC
468,TTCAGCGACGATGTTGCCCC
469,GCCGCCGAAGAGCCGGCACT
470,TTTAGCGAAAAGGTCGTCAT
471,TTGCGCGACGAGCTGGAAAG
472,GCACGGGAAATGGAGGCACC
473,GCCGGCGAAATGGTCGCGAC
474,TTTCGCGCAATTCCGGCACG
475,GCGAGCGAAGTGGCGGCGCT
476,TGCGGATGCAAGGTGGCGAG
477,TTCAGCAAAATTGCGGACAA
478,TTCGGCGGCATGCAGGAGCT
479,GTCGAAGAAATGCTCGCAAT
480,TGAAACAAAACGCAGGCCTT
481,GGCGGCGACTATCCGGCCAA
482,GGCGGCGACAAACGCGCCTT
483,TGGCGCGACAAAGGCGTACC
484,TCGGGCGAAGATCCCGCATC
485,GGTGAAGGAAAGCCGGCGCG
486,GGCGCCGGAGATCTGGAACG
487,TTTGGCGGCAATGGCGAATT
488,TGAGCCAGAATGCCGGCCAG
489,TGACGAAGATTTCCGGCAAG
490,TGCGCCAGAACGGCGGTAAC
491,GGACACGAAACTGGCGAAAT
492,GGAAGGCACATTCCGGCAAG
493,GCCCGCGACATGGGGGCGTT
494,TGAAGCGGAACAGCTGAACC
495,TGCGGCTGCACGATGGCAAG
496,GCCGACGACGATGCGGCCCT
497,GGCGACGCAGTTCTGGAAAT
498,TGGAGAGAAGTGGCCGTACC
499,TGATGATGAATGGCGGCATT
500,TGCCGCGAAACGACCGTATT
501,GTCCGCCGAAAGGAGGAAAC
502,TGGCGCAGCATGCTGGCCTT
503,TTCGGCAGAAATACGGTGAG
504,TTTCGCGGCGATCTGGCCCT
505,GGCGAAGACCATGTGGCGCT
506,TGTGAAGAAGTGAGGGCGAA
507,GCAGGCGGAAAACCGGCGCC
508,GGCGGCGACGAAGACGCCAT
509,GGTGGCGACGATATTGCCCC
510,TGCGGCAGAAAGGCCGAAAA
511,TTCAGGCGAAATACGGCAAG
512,TGAGGCGACCGTGCGGCGCC
513,TGCGGCAAACCGGCGGCGAG
514,TGAACCGGAACGCCGGTAAC
515,GTCCGCGAAACGGCGGAGCT
516,TGTTGCGGAAGGGCGGCGAC
517,GGTCAAGGAGTTGTGGCCCT
518,TGGCGCAACGAAGAGGCGAC
519,GGAAGCCGAACGACGGCATG
520,TGCAGGCGAGATAGGGAAAC
521,TCGCCCGACAATCCGGCACT
522,TGCGAGGAAGCGGCGGCGCC
523,GGCGGCAGATAGACGGCATG
524,GGCAGGAGAAATACGGCATG
525,GGCAACCGAAAGACGGCGAC
526,GTGCGCGAAATGCCGGTCAT
527,TCGGCCGAAATGCTGGCGAC
528,GGCGGCGGCAAGCAGGTCCG
529,GCCCGCGAAATGCCGGCCCG
530,GGAGGAGGAATTGCTGCCAA
531,TGGCGCTGAACGGCGGCAAG
532,GGCAGCGACATGCCGGTATA
533,GTGCGCGAAAAACTGGCGTC
534,GGCCAAGGCAAGGCGGAAAG
535,GGCAGAGGAACTGCGGCGCA
536,GGCTGCGAAGATAGCGAAAT
537,TGCGGAGACGATCCTGACCT
538,GTCAGCGAAGCGCCGGCCAC
539,GGTCGCGAAGCAGCGGCGCC
540,GGGGCCGAAGTGCTGGCGCC
541,TGTCGGAGAAATCGGGCGCT
542,TCAGGAGGAGAACGGGCATG
543,GGCAGCGAACCGGCGGCGCC
544,TGCACCGACGAGGGGGTCAC
545,TGGCGCTGAAAGAGGGCGAC
546,TGCAGCGGCGTGACCGCATT
547,GGAGGATAAATGGTGGAAAA
548,TGAACGCACATGGCGGCAAT
549,TGGCGCGACGGTCAGGAAAT
550,TTCGGCGACGTGAAGGTCAC
551,TTCGCTGGAAAGGCGGCAAC
552,GGCCGAGAAGCTCTGGTACG
553,TCCGGCGAAACGCCGGTCTT
554,TGCGGTCGAGAACCGGCAAT
555,TGTCGAAACGCGGCGGCAAG
556,GGAAGAGGCGATAAGGCGCC
557,TCCAGACGAATTCCGGAAAT
558,TGCGGCGGCTTTCAGGACCT
559,GGCGGCAAACTAGTGGAATT
560,GGCACCGGCAAGCTGGCGAT
561,GGCGACGGCAAGGAGGCGAA
562,GGCGAAAGCAATCCGGAACT
563,GGAGGGGCAGTGACGGCAAT
564,GGCGGCCACATGGTCGCGCT
565,TGTGGCGGCGGGGTGGCGCC
566,GGCGACGGCATTGGCGAACT
567,TGGCGAGAAGCTCGCGCACC
568,GCCGCCGAAGTTGGGGCGAT
569,TCCGGCGGAAAGCCCGTAAT
570,TCCGGCAACGTTATGGCGCT
571,GGGCGTGGAAATGGGGCGCC
572,GGCAACGGCATGACGGAAAG
573,TTCAGCGAAAGGGAGGTCAC
574,GGCGGAAAATTGCGGGCGCT
575,GGTGACGACATTCTCGAAAT
576,TTCAGGAAAATAACGGCACC
577,GTGCGCGACGTTGAGGCCCT
578,GTGAGAGGAATGCTGGCGAC
579,TGCGGCGACGAGCATGAGAT
580,TTGAACGAAGAGGCGGAGAC
581,GGCAGCAGAACGCCGGCCCC
582,GGCCGCAAATATGCGGTCAT
583,GTCGGCGGCGTACAGGCACT
584,TGCGACGAAGCGGCTGCCTT
585,GGGCGCAAAGCTATGGAAAC
586,GGCCACGGCAAGGCGGTCAT
587,GGTGCCGACATTCTGGCGCG
588,TCTGCGGAAAAGGCGGCATT
589,TGCGAAGACGGGGTGGCGCT
590,GGCCGCCAACTGACGGCACC
591,GCCGACGACATGCTGGAAAC
592,TTCGGCGAAGTTGACGAATG
593,TGCGACGGCAAGAGCGTACT
594,GGCGGCCGAGAGAGGGTGAT
595,TGTTGACGAAATAGGGCCAG
596,TTCAACGACACGGTGGAACG
597,TGCGGCGGCATGCTCGACAC
598,TGCGGCAGCAGGATGGCGAC
599,TTCGACGGCATGGAGGCGCG
600,GGCAGCGGCGAGCCGGCGCG
601,TGTAAAGGCATTCCGGCCTC
602,TGCCGCGAAGCGCGCGCGAT
603,GGAGACGGAGATCTCGAAAT
604,TCCGACGAAATGGTCGCGCT
605,GGACGCCGACATAGGGCACC
606,GGCCGCAGCAAGGCGGTCAT
607,TGGCGACGAGTTCCGGCATG
608,GTTGACGGAATTCAGGCGCT
609,TTGCGCGAAATGCCTGCATG
610,GGCGGCCGCGAGGCGGTATC
611,TTTGACGAAAAGGGCGACAT
612,TGGGAGGACTATGTGGCGAT
613,GGAGGCGAAGGTGGTGCCCC
614,TTTGGCGAAGATATCGACAT
615,TGATCAGGAAATGAGGAATC
616,TGCCGCGGAAGGCCTGCACC
617,GGAGGATAAGAGCGGGCGAC
618,TGTCGAGAAAGGCGCGCAAC
619,GCCGGCGAAAAGCCCGCCAC
620,TGCGCCGGACTTACGGCGAT
621,GTCGGCGGACAGCCGGAAAT
622,GGTTGAAGAGTTGGGGCACC
623,GGTGGCGAAATGACCGTCAC
624,GGCGAAGGAGAGCAGGCCAG
625,TGCAGGCGAATTCGGGCGAG
626,TGCCGCGGCATACAGGAGCT
627,GGGGGCCGAGAGCCGGCACA
628,TTGAAAGGAAATGGCGCACC
629,GGGGGAGAAGCGCGGGCCTG
630,GCCGAGGAAACGGCGGCAAT
631,GGCGACGGCATGAAGGCGTC
632,TGCGGGACAATGGCGGCCAC
633,TGAGGACGCGATCAGGCGAG
634,TCCAGCCGAACGGCGGCACG
635,TGATGAAGAAAGCGGGCGTC
636,GCCGACGGCAATGCGGCCTT
637,GGCGGAGAATGTGGGGAACG
638,TGACGCGCATCTACGGCACT
639,GGAGCCGGAAATGCTGCGCC
640,TTGTGCGGAAAGGCGGTCCT
641,GTTGGCGACGATGTCGAAAT
642,TGCGCCGAAACGCCGGCGCA
643,TTCGCCGAAGCGCCGGAAAT
644,TTCGGCGACATGGACGTATC
645,GGCACCAGAATTCAGGCAAG
646,GGACGAGACGAAGCGGACCT
647,GTCGGAGAAAATGATGAGCT
648,TCAGGAGGCGATGCGGCGCG
649,TGAGCCGCAGTACTGGCACT
650,TGCAGAGGCGGGATGGCAAG
651,GGCACCGACATGCAGGCGCT
652,GCCGGCGAAGTTCAGGAATG
653,GGTGGCGACGAGATTGCGCT
654,TGCGGCGAAATCCTGGAACT
655,GGCTCCGGAGAGGCGGCATT
656,TGCCGAGCAGAGGGCGCAAC
657,GTCGGCGACGATCCCGCAAG
658,TGGGAAGGAAAGAGCGCGCT
659,TCGGGCGGAACGAAGGAATT
660,TCCGGCGACCAGATGGCCAC
661,TCGTGCGACACGGCGGCATT
662,GGAAGAGGCGCGCCGGCATT
663,TCGGGCCACGATGAGGAACC
664,TGGGGCGACGTAACGGAGCG
665,GGCTGCAGAACGCCGGCACC
666,GTCGAAGAAAATCCCGCATC
667,TGCGGCAGCACTGCCGCGAT
668,GGCGGCAACAAGCCGGCGTA
669,TGAGGAAAAGTGCGCGCGCT
670,GTCAGCGCCATGGCGGCAAG
671,GGCCGCGACGATCAGGTCTT
672,GTGGCAGAAATGAAGGCAAG
673,TGCGGAGAATATCTCGACCT
674,GGCCGCGAACAGCAGGCGAG
675,TGGAGAGGAGAGGACGCCAC
676,TGCGCCGAAATGAAGGAGAA
677,GGCCGGGGAATGCGGGCGTT
678,GCCTGCGACAATCTGGCATG
679,TGAACCACAATGGCGGCATT
680,TGAGGGGCAATTCCGGTCAT
681,TCCGGCGAAGCGCAGGAACG
682,TGCCGCCGACATCTGGCGCT
683,GGACACCGCATGGCGGCATC
684,TTTGAAGAAATGGCCGAACT
685,TGGCGCGACGAAGCTGCCCT
686,GGGCGCCGAAAGCCGGACAT
687,TGAAGAGCAGTTCCGGCCCG
688,TGATGAAAAACGACGGCGCC
689,GGTGAAGAACTTATGGCCCT
690,GGCGGCGGCGAAGTCGCACG
691,GCCGCCGAAGTTGTGGCGCT
692,GGTGGCGGAAGTCGCGCACC
693,TGAGGCAGCGATGTCGAAAG
694,TTTGGAGGAACTCATGCAAC
695,TGCGGAGCCATTGCCGAACT
696,GGCGCCGAAACTCAGGAGCT
697,TGGGGAAGCGTTCCGGCGCC
698,GTCGGCGAAGCGACGGCGCG
699,TGCGGGGCAATGCGCGCAAT
700,TTCGAAGAACTGGCGGTACT
701,TGTCGTCGAAATCAGGCACC
702,GCCGGCGACGTGCAGGCGAT
703,TCTGGAAAAGCTCCGGCACC
704,TGTCGCGAATTGCGGGAACA
705,TGAAGGGCCAATCCGGAAAC
706,GGCCGGGAAGAGAAGGCCAG
707,TTCGGCGGAGTGATCGAAAC
708,TGTTGCCGCAAGGCGGCCAG
709,GGCGCAGGAATACCGGCATG
710,TGCAGCCGAACTCGGGTGCC
711,TTCGGCCAAAGTGTGGTAAA
712,TGAAGCACAATGGCTGCAAG
713,TCGAGCGGCATTATGGCGAG
714,TTCGGCGACGAGCACGCCAT
715,GGCGAAGAAGAAGCCGAAAT
716,TTCGGCGGCGAAGGCGCATT
717,GGCGGGGGAGAGGCGGACAG
718,TGCCGAGAAGAGCACGCGCC
719,GGCGGCGACGATCGCGCGCG
720,GGCCCCGAAAAGATGGTCTT
721,TGGGCCGCCATGGTGGAACT
722,GGCCAAGAAATGGCTGAACC
723,TGAAGAGGCGTACCGGAATC
724,TGAGGGGCAGAGGCGGCCCG
725,TGCCGAGGCATAGCCGAAAT
726,GGTAGAGGCGAAATGGCACG
727,TTCGGCGAACCGCGGGCGCC
728,GTCGGCCAAAAGCCGGTCAG
729,GTCTGCAACAAGGTGGCCAC
730,TGTCGAGAAGATCTTGCGCG
731,TGGCGCAGATTGGCGGCGCT
732,TGATACGCAATGCCGGCATC
733,TGCCGCAACGATCGCGCCAT
734,GGCGGAGAAGAGCTTGCCTG
735,TCCGACGAAGAGAAGGCGCG
736,TCGGGCGACGTTCGGGCCTG
737,GCCGGCGAAGTGACGGAGAC
738,TGGCGCGACCTTGGGGCCAA
739,GGAGGCGACGATACCGAGAT
740,TGGAGACGAAGGACGGCAAG
741,TCCGGCGGCGAGGGTGCAAG
742,GTAGCCGAAATGGTGGCGAA
743,GGCGGCAGCAAGCAGGACCC
744,GTTGGCGAAGAGACGGACCG
745,TTCGGCGCATAGCCGGCATC
746,TCGCGCGGAACGCTGGAACT
747,GGCAGCGGACTGAGGGCGCC
748,TGCGCTGAAAAACTGGCCCC
749,GGTCGCGAAGAGCACGAAAT
750,GGATGCGGATTGCGGGCATC
751,GTGGCCGACATGATGGAAAT
752,TTGAGCGGCAAGCAGGCGCG
753,TGCCGACGAACGCCGGCGCC
754,TGCTGCAGCATGGCGGAGAT
755,GGCGGCACCGATGTGGCGCT
756,TCGCACGAAGAGGCGGCGCC
757,TTGGCCGCAATGGCGGCAAG
758,GGCGGAAGCACTGCGGCGTC
759,TCCGGCGAACGTGCGGCCAT
760,TGCGGCCAAATGAGCGAGAG
761,TGTCAAGAAATTCGTGCGCC
762,GTGGGCAACAATCCGGACCT
763,TCTCGAGGAATTCCGGCGTT
764,TGCTCGAAAAATACGGCAAC
765,GGCGGCCGCACGCCGGCGCT
766,GTCCGCAACGAGGCGGCGAT
767,GGCGGAAGACCTGCGGCATT
768,TTCCAAGAAGTTGAGGCGCG
769,GTTGCCGGCAAAGAGGCAAT
770,GGAGGCAGAGTGGCGGCGCA
771,TCAAGGGAAAGGGCGGCAAG
772,TGTCGGAAAGCGCTGGCACT
773,GGCGCCGACATGCCGGTCCT
774,GTCAACGGAATGCTGGCGCC
775,GGCGACGACGTGCAGGCGCG
776,GGCAGCGACAATATCGCCAA
777,TGCCGGGAAGCTGTTGAAAT
778,TGGCGCAAATATGCGGTCAG
779,TCACGCGGAGAGACGGAACG
780,GGCCGCGAAGTGCGCGAATT
781,GGCGCCGGAAAACCGGACCT
782,TGCTGCCGAAGGCCGGCACC
783,GGCAGCGAAACACTCGCCCT
784,GTGAGAAGCATTGCGGCAAG
785,GCAGACGAAGCTGCGGCGCT
786,TGACGGCGCATGCGGGCAAG
787,GCAGGCGGATTTCCGGCACG
788,GGGAAACAAAATAGGGCGCG
789,GGCGACGGAACTGCCGCGAC
790,TGCCGCGGAGGTGTTGCCAT
791,TGCGACCGCGAGGCGGAGAT
792,TTTCGAAACAATCGGGAATC
793,TGCTGCGCCGATGAGGCCCT
794,TGATGCGCAACGGCGGCCAG
795,TGGCGGGACGGTACGGCAAT
796,GGCGGCCGCATTGAGGCGCA
797,GGAAACGGAAATGCTGTCAT
798,TGGACAGGAGAGCCGGCCAC
799,TTCGGCAAAAAGCCTGCGCG
800,TGCAGCGGCAGGCCGGCGCG
801,TGCCCGGAAACTGGGGCGTT
802,TGAAACGACTGGCCGGCAAT
803,GCCAGCGACCTGGCGGCACT
804,GGCGGTGAAGCTCAGGCGAT
805,TTCGGCGGCGTTCGGGACTC
806,GGCGGCGGCATGGCGGTGCA
807,TGCGGAGGCGCTGTTGCGCT
808,GGCGCCAACGAGGCGGCGCT
809,GCCCACGAAATTCCGGCCAG
810,GGAGACCGAGCGGAGGCAAG
811,TGCTGGCGAAAACCGGCACT
812,GGCCGCGAAGCAAGGGCGCG
813,GCCGGCGGAGAAGAGGAAAG
814,TGCTGAGAAAAGATCGAATG
815,TGGCGAAGAATGCCGGCCTG
816,TGGCGCCGCGTTCGGGCGAC
817,GGTGACGACAAGCTTGTAAC
818,GGAGACGAAAATGTGGGACT
819,TCTGCCCGAAATGCGGCACG
820,GGTGGCGGCCAGCCGGAACT
821,GCGGGCGAACTGGCGGCGAT
822,TCAGGCGGAAATCCTGCGCG
823,TTGAGCGGCATGGCGGTCTT
824,GCAAGCGGAGAGACGGAACC
825,TGAAACGGATTTGCCGCAAG
826,GCCGACGAAGTTCTGGCCTC
827,TTTAGCGGAGTACAGGCCCT
828,TGCGGCGGAGCGCCTGCGCC
829,TGGTGCGACGAACTGGCCCG
830,TTGGAAGAAGATCCGGCCAA
831,GTCAGCAGCGTGCGGGCAAT
832,TGCCGCCAAGCTGACGCATC
833,TGCCGCGCCGATACGGCGAG
834,TGTGGCAAAATTGGAGCAAT
835,GGCGAGCAATATGGGGCAAG
836,TGCCGCAGAGCGAGGGCCAG
837,TGAAGAGCATTGGCGGCGAC
838,TTCGGTGAAATGGGCGCGAT
839,GGGGGAGACGGGACGGAAAT
840,TGAACCGGATCGGCGGCAAG
841,TTGGACCACAAAAAGGCAAG
842,TGAAGGAAAACTGGGGTCAG
843,TGACCCCGAAAGCAGGCATG
844,GTCGGCGAAGCGGCGGACCG
845,TGGCGCGCCATGACGGCGCC
846,TCCGCCGAATTTCGGGCATC
847,GGCAAGGACGAGGCGGCGAT
848,TTCCGCGCCAAGGGGGCGAG
849,GGCGAAGAAGTGGCCGCGCT
850,GGCCGGAAAGCTGGGGAAAT
851,TGCCGCCGCACTCCTGCAAT
852,TCGGGCGAAAGGCTGGAGAT
853,GGCGGCGACCAGGGCGCGAT
854,TGCCGCGGCGCTGGCGAAAT
855,GCAGGCGAAACGCCGGCGTG
856,TGACGACGAGCGCCGGCACG
857,TCAAGGGCAATTGCGGCATT
858,GCCGGCGGCGATCAGGCCCT
859,GGGTGGGGCAAGGCGGCAAG
860,GGCCGCCGAAGGGCGGCCCT
861,GGCGACGAAGCGGGCGAACT
862,GCCAGCCGAACGGCGGCACC
863,GGCGGCAGCGAGCTGGCGCG
864,GGTGGCGCCGTTCCGGAACT
865,TGCGGCCGCTGTCCGGCAAT
866,GGCGGCAGAAATCGCGCGCG
867,TTGCGCGGATTGCGGGCCAT
868,TGCCCCGGCATGCTGGCGAG
869,GGACGAGGAATGGCTGTAAG
870,GGGGCCGGCGATCTGGCCCT
871,TGCGCCGGATAGGCGGTCAC
872,TCACCCGGCAATCCGGCACC
873,TGCAGCGCATTGGAGGTACC
874,TGCTGAAAAGATCCTGCAAG
875,GCCGGCGAAGTTCGCGCACG
876,GGCGAGGAAGTGCTGGCACA
877,TTCCGCCGCATGCCGGAAAC
878,TTCGGAGAAGGTCAGGAACG
879,TGCAGAGGCGATGTCGCCCG
880,TGGAGAAGCGAAGGGGCGCT
881,TGCAGCAGCGCGACGGCGAT
882,GGCAACGCAGAGGCGGCGCT
883,GGAGCCGACGCAGTGGCCAT
884,TTCGAGGACAAGAAGGCGCT
885,GGCGATGACGAACGGGCAAT
886,TTACGAGCCATTGTGGAATT
887,GGAGGCGAACAGGCCGACAT
888,TGACGAAAACTGGTGGCGCG
889,TGCTGAAAAAGGGCGGCGCC
890,TGCCGAGACGTTGTTGCCTG
891,GGCTGCGACCAGCTGGAAAT
892,TTTGCAGACATTGCGGTCAT
893,TTCCGCGAAAATAACGTCAC
894,TTCCGCGGCGAGGTGGAGCC
895,GGAAGAAAAGCTCGGGCGAG
896,GCACGAGAAAATCGTGCACG
897,GGCGGAGGCCTTCGGGCGCT
898,GGCGGCAGATCGCCGGCAAG
899,GGCTGGGAAGAGGCGGACAT
900,GGCGACGGAATGGGCGACCT
901,GGTCGAGACATAGGTGAAAT
902,TGAGGGGCCGTTCCGGCATC
903,TGAAGAAACTTGCCGGCATG
904,GGAGAGAAAAATGGCGCATC
905,TGATGCGGAGATCGTGCGCC
906,GGCGGCAGCGAACAGGCGAT
907,TGCTGCGGCAATGTCGACAC
908,TGGCGCAGCATGCCGGCGCG
909,TGAGGGCCAGAGGCGGCACG
910,GGCAGCGACGAGGTCGAGAT
911,GGCAGCGAAGATACTGCGAA
912,GGTTACGACATAGCGGCCCT
913,TGAGCGGACGATGAGGCGAG
914,TTCCGAAAAGGTGCGGCATC
915,GGCGGGGAAGCACGGGCGCT
916,GGAGGAGGCGCGGCGGCGCG
917,GGCGCAGAAGAAGAGGAGAT
918,GGCGACGGCATTCCGGTCTC
919,GGCGAAAGAAAACCGGCCTT
920,TGCCGCGGCCATAGGGAATG
921,GGGCGAGGAACAGCGGCGAG
922,GCCGGCGACATGCTGGCGAA
923,GGTGGCGAAACGATCGACCT
924,GGCGGAGAATTTCCGGTGCG
925,GTAGGCGCAACGGCGGCCTT
926,GGAGACGAACCGGCGGTATT
927,GCGGACGACAATGCGGAGAC
928,GGTAACAACAAGAAGGCGAC
929,TCACGCGACGAGGATGCACC
930,GTCGAGGAAGAGGCGGTAAC
931,TGTGGCCAAAATCGGGCAGC
932,GTTCGAGACATTATGGCGTC
933,TGGGACGACAATCCTGACAG
934,TGAGCACGAGCTCGGGCACC
935,TGAAGCGCCACGAAGGAACC
936,GTCAGCGACCTTCTGGCCAT
937,TGCGGGGACTTGACGGCCTC
938,GGCCGGGGAACTGCGGCGCG
939,TCTGCGGAAGAGGAGGCAAT
940,TGGAGCAAACATGTCGCGAT
941,TTCGGTGGAGCGGCGGCAAG
942,GGCGGTGCAATGGGGGCGCT
943,TCCAGCGAAAGGCCCGCAAT
944,TTCTACAACATGGTGGCCAT
945,TGCCGCCACATGAATGCGAT
946,TGATGCCGCCATGCGGCATT
947,GTCGGTGAAATGGGCGCACC
948,TCACGCCGAGAGGTGGAATT
949,TTCAGGGGAGATGCTGCACC
950,GGCCGTGACATGATGGCCCC
951,TTCGACGAAGATCGTGCCCG
952,TGAGAAAGAGATCCTGCAAG
953,TTAGGGGACGTTGTGGTCCC
954,GGACGTCAAATGCGGGCCAT
955,GTCGGCGAAGTGGCCGAACG
956,GGAGGCAGAACGCTTGAAAT
957,TGCGCCGACATTCTTGCGCG
958,GTTCGCGACAAGGGTGCGAT
959,TTTCGCGACAATGTCGTCAT
960,GGCGGCAAACAGACGGAGAC
961,TTCCGTGAATATGTGGCCAC
962,GCGGGCGAATTGACGGCGAT
963,TGTGGCAAAAATGCGGCTTT
964,TTCACCGGCAATCCGGCCTT
965,GGCCCCGAAAGGCCGGAAAT
966,TGTCGCAGATCGGCGGCATC
967,GGTGGCGACGATCGTGCGCG
968,TGCTGCGCCGTGCCGGCACC
969,GGAGGAGGATTGCCGGAATG
970,TGCAGACAATTTCTGGCGTG
971,TCTTGCGAAGAGATGGCGCC
972,GCAGGAGGACTGACGGCAAT
973,GTCAGCGGCAAACCGGCCAG
974,GGCGGCGGCATGATCGCCCG
975,TCCCGCGAAGCGCAGGCGAC
976,GGTAGCGAAGTACAGGAGCC
977,GCTGGCCGAATGCAGGCAAG
978,GGCTGCGGCAAAGCGGAGCT
979,TGAGGCCGATCGGTGGCATA
980,GGTGCCGACATTGCCGAAAC
981,TTGCGCGAAGGTCAGGCGAT
982,TTTTGAGAAATGCTTGCATT
983,TGACCCGGCACGAGGGCGAT
984,TTGTGCAAAAATGCCGCACG
985,TGGCGAAGCGTGCCGGCATC
986,GTCGGCCGCAAGGCGGAATG
987,GGCCGCACACATGGGGCACT
988,GGCTGCGGCGCTCCGGCAAG
989,GCAGGATAAACTGGGGCAAG
990,GGCGAGGAAAAACCGGAGCT
991,TGGGGCGGCGAGGCGGTGCA
992,TTCGGCGAATTGCTTGCGAC
993,GGTGGCCGAGATGAGGCGCA
994,GGCGACGGAGTGCTTGCCAT
995,TTCGAAGGCATTCTGGAGAC
996,GGCGGAAGCAAGCACGCAAC
997,TCGAGAGAAGATATGGCGAA
998,TCGGGCGGAATGCGCGAAAC
999,TTGTCCGAAAATACGGAAAG
1000,TGCAGCAACGGTCAGGCCCT
1001,TTGCGCGAAAGGGAGGCCTG
1002,TTGGGCGAAGCGGCCGCGAC
1003,TGAAGGGGCAGAAGGGCACT
1004,GGCGGCAAACCACCGGCATT
1005,GGAACCGAAACAGTCGCAAC
1006,GGTAACCACAATCAGGAAAG
1007,TGCGGGCGCATGGCGGCCTG
1008,TGAAGCGGACCTATGGCCTG
1009,GGACGCCAATTGGGGGCGCG
1010,GGAAGAGGACATAGGGCGCG
1011,TGCAGCGACGATCGTGTCAG
1012,TGTCGAGGAACTGCTGCGAG
1013,GTCAGCGACGATCCGGTGCT
1014,TGGCGAGGCAATGCTGAATG
1015,TGAAGAGGAGAGCGTGAGAT
1016,TGGAAGGAAGTGACGGCGCC
1017,TGCTGCGGAAGTCTCGCACC
1018,GGAGCGGACATTCCGGCGCT
1019,GCTGGCAGAATGGCGGCGTT
1020,TGCCGGGGCGATCGCGCAAT
1021,GGACGAGGCTCTGCGGCAAG
1022,GGACGAGCAGATCCGGCAAA
1023,TGCTGCCGAATGGCGGTGAG
1024,TGCAGCGGCGCTGTCGTAAC
1025,GGTGCCGGCGAGGCGGAATT
1026,TTTGGAGGAAAGCGCGTACC
1027,GCCAGCGACATGCAGGCGAG
1028,GGGAAGGACAATGAGGCCTC
1029,GGTCAAGGAATTCCGGCGCG
1030,GGACGAGACGCTGGCGCATT
1031,GTCGGCACCAAGGCGGAAAT
1032,TGACGCGGCTCGAAGGCATC
1033,GCAGGTGAAGATCCGGCACG
1034,GGCGAGGAAGAGCGCGCAAC
1035,GGATGAAAAATGCCGGCGCG
1036,GTCAGCGAATAAAGGGAAAG
1037,TGGCGCGAAGGGAAGGCGCG
1038,GTCGGCCGAAAGCCGGAAAA
1039,TTTTGGGGAAATCTGGAAAC
1040,TCCGAAGACATTCGGGTCCT
1041,TTGGGCGAAACGAGCGCGAG
1042,TGTCGCGCAGTTCCGGCGCG
1043,GGAGGCGGCATGAGGGTCCA
1044,GGCGCCGGCGAGCCGGCGCT
1045,TCCGGACGCGAGGTGGCGAT
1046,GGATCCGGAAAGACGGCGCT
1047,TGCCGACAAGCACGGGCGCT
1048,TGCCGCAGCGAGACGGTCAT
1049,GGCGGAAAAGCGCGCGCACT
1050,GCGGGCGGAATGGTGGTCTC
1051,GCGGGCGACGAAGAGGCGCT
1052,TCTGGCAGAATTCCGGTGAT
1053,TGGGGCGAACCGGTCGAACC
1054,GGCGAGGAAGAGGTGGACCG
1055,TCCAGCGACACACCGGAATT
1056,TCCCGGAAAAAGAGGGCGAT
1057,TGTGCCGGAAGACCGGCATC
1058,GGCGACGACGATGTCGAGAT
1059,GTCGGAGGCGTTCTGGTATT
1060,GGGGCCGAAATAGTCGCCCT
1061,GGGGAAAGAGCGCTGGCAAT
1062,GGGGGCCAAGTGCTTGAAAC
1063,TGACGGGGAGAAGGGGTATG
1064,GGCCGCGGCGAGCCGGTCAC
1065,GTAGGCGACATACCCGCATC
1066,GTAGGCGGCGATGGGGTCCG
1067,GGCGGCGACGATCGTGAGTT
1068,GGAGCCGGAATGGCCGAACC
1069,TCTGGCCAAGAACGGGCAAA
1070,TGCCGACGAGATGAGGCGCA
1071,GTAAGAGGCGAAACGGCACC
1072,GCAGCCGAAACGCCGGCATC
1073,GCCGGAGAACTTCTGGCATG
1074,TCGAGCGGCGAACGGGCAAG
1075,TGCGGCGGCCTGGTCGAACT
1076,TCGGAAGACATGCCGGCAAA
1077,GCTCGACGAAATGCGGCACG
1078,GTCGGCGACAAGGCCGAGAC
1079,TGCGCCGAAACGCTCGTACC
1080,TCACGCAACAATACGGCCTG
1081,TGAAAGCAAGAGCGGGCATG
1082,TTAAGGGAAATTACTGAACC
1083,GCCGGCGGCGTGACGGCGAT
1084,GGCGGCGAAAAACCCGCCTA
1085,TGGCGCGAATGGGTGGCGCG
1086,TCAGGAGACGTTCTCGCAAG
1087,TTCGGCCACATGAAGGTCTT
1088,TGACGCGCCATGCCGGAGAC
1089,GCCCGCGGAAAGGCTGCCAT
1090,GTTGGCGAAGCGCGGGTCAT
1091,TGGGGCCGCGTGCGCGCACT
1092,TGCCGCAGCAAAGTCGCGAT
1093,TGAGGAAAAAGGCCTGAAAC
1094,GGCGAGGACGTGGAGGCGCT
1095,GTCCGCGACAAGGCGGACAA
1096,TGAAGACGAGATGCTGCGTT
1097,TGGCCCAACATTACGGCCTT
1098,GGCCCCGGCAATCCGGCACA
1099,GGCCGCGGCGGTGCGGCGCT
1100,TCAAACGACGATGTCGCACC
1101,TGAAGATGATTTCGGGCATT
1102,TGCGCAGAATTGAAGGCCTC
1103,GGCGGCGGCGCGGCGGTCTT
1104,TTCGACGGCATGCTGGAGCC
1105,TCCGGCGGAATGGCCGAATG
1106,GGAGGCAACGCTCAGGCCCG
1107,GCAGGAGGAGATCTCGCAAC
1108,GGCGATGAAAAGCAGGCGCG
1109,TCGGACGAAAGGCAGGAAAT
1110,TGGCGCGGCCTGCCGGCGAT
1111,GTGGAAGAAAAGAAGGTGAT
1112,TGTGGAGGACAAAGGGCATA
1113,TCTGCGGAAAAGCCGGCAAG
1114,TGCGAGGAAGCTCAGGCCCG
1115,GGCAGGGACGAGATTGCACT
1116,GCCCGAGAAGAAGCGGCGCC
1117,GTCGGAGAAGAACTTGAAAT
1118,GGAGCCGACGATCTGGCGAA
1119,GGGCGCAGAAATGCCGCAAA
1120,GGCGACGAAGCTGCCGTACC
1121,TGGTGGGAAATGCCGGCGTG
1122,GGCAACAACATTCCGGAGAC
1123,TGCAGAGACGCGCAGGCGTG
1124,TGCGACCGCGAGCAGGCCTT
1125,GGTGACCAAATTCCGGAATA
1126,TGCGGGAACATGAGGGTCAG
1127,GGCGCAGGAACGCCGGAATT
1128,TGTCGAAGAACAGCGGCGTT
1129,GCCCGCGACTATCTGGCATC
1130,TGCGCAGCCAAGCCGGAACT
1131,GTCTGCGAAATGAAGGTGAT
1132,TGAGGCGAAGGGGGCGCGTG
1133,GGCGGATACGAGCCGGCGAT
1134,GTGCGCGACAAGCTGGTGAC
1135,TGTTGACGAGCTGCGGCATC
1136,TGCTGCGGAATGATCGCGTC
1137,TGACGAGGACTGACGGCGTC
1138,TGACGCGGAAAAGATGACCG
1139,TGACGCGAAAAGCATGAGAA
1140,GGCGCCGCCATGGTGGCATG
1141,GGTCGCGGCGATGCGGCGCA
1142,GTCGCCAGAAAGACGGAAAT
1143,GGCTGCGACCCTCCGGCAAC
1144,TGGGGCGACGAGAATGTCCT
1145,GGCGGCACCAATGCCGCATT
1146,GGCGACGGCGCAGTGGCATG
1147,TGGCGCGGATTACGGGAACG
1148,TTCACCGACACGCTGGAACT
1149,TCAGCCGAAACGACGGCGTT
1150,GGCCGACAAGGTCTGGCATC
1151,GGGAGCGGCATGCCGGAGTC
1152,GGAGCCGCCATGCCGGCATT
1153,TGTGACGACGAACGCGCACG
1154,GCCCGCCGCAATGCGGAAAC
1155,TTTGACGACATGGGCGAATT
1156,CGAAGCGACAATGCGGAAAT
1157,TGCCGAAGCGCTCCGGCACG
1158,TCCGGCGGATAGCCGGAGAT
1159,GGCCGAGGCCAGACGGCAAG
1160,GGCGAACGCATGCCGGCGAT
1161,GGCGGCGAATTGCAGGAGTG
1162,TGGCCCGGAGTGAGGGTACC
1163,TGCCGCGACGATCCTGACAG
1164,TTACGAGCAAAGCCTGCAAT
1165,TCCGGCGCAAGTGCGGCGAC
1166,GTCGCCGGCATGCGGGCCAT
1167,GCTGGACGAAAGCCGGCACG
1168,GGCAGGAACGATGAGGAATT
1169,TGGAGCCGAAATATTGCCTG
1170,TCTCACGAAACTCAGGCATG
1171,TGGCCGGAAGATCTGGCGCT
1172,TGCGCCGGATCGGCGGCCTT
1173,GGCGGCAGCGTGGCGGTGAC
1174,TGAGGCGGCCGGCCGGCATC
1175,GTCAGCGGCAAGGTGGACTG
1176,TTACGAGGAACTGCTGCATG
1177,TGGGCCGGATTTGATGCAAC
1178,TGAGGGCGCGTTGCGGCCCG
1179,GGGTGCGAAATGATCGCAAA
1180,TTGAACGACAGTCCGGCACG
1181,TGTCCCCAAAATCGTGCATC
1182,TGCGCCGACATGCCCGCCAG
1183,GGAGAAGGACAAGCGGCATG
1184,TGAGCAGGAATTCGCGCCAG
1185,TGCGGCAACAAAGTCGACCG
1186,GGAGCGGGAGCTGCGGCACC
1187,GTCGGCGCAATTGTCGCGAT
1188,TTCGCAGAAGCGGAGGCGCT
1189,GGTTACGAAGGTCTGGCACT
1190,GGAGGCCGCGTTCAGGCCCG
1191,GTTGGCGAAGAGCAGGAGCG
1192,TGTAGAAGAACTCCGGTATG
1193,GGCTGCGAAGTGATGGCCTA
1194,TGCAACGGAGAAGGTGCCAG
1195,TGGCACTGAAAGGCGGCGCC
1196,GTCCGCCAAGAGGAGGCGTC
1197,GGTGGAGGAATGCGCGCCCG
1198,GCCGACCACATGGCGGCGAT
1199,TCCGGCGCAGGTGCGGCATT
1200,GGCGACAGAATGGACGCCAT
1201,GTGGCCGGCGAAGGGGCAAT
1202,TGCAGGGAAGAAGAGGTGCG
1203,GGACGAGACCATGCTGCATT
1204,GGCGGTCGCAATCTGGCGAT
1205,TGGCGCGCAAATACCGCCCC
1206,GGTGCCGGCAAGGTGGTCCC
1207,GCCCGCGAAACGGCGGCCAA
1208,GGCGGAGGAAATATCGTCCG
1209,GGGCGAGGCCAAGCGGCACT
1210,GTCGAGGACATGCTGGCCAT
1211,TAAGGAAGAAATGGGGCAAT
1212,TTCGGCGACAAGCTCGCCCA
1213,TGCCGCCAAGGTGCTGCATC
1214,GGCGACGAAGCGGCTGCCTT
1215,GCTAGCGAAGATGTCGAAAC
1216,GGACCACACGATGCGGCAAG
1217,GGAGAACGAATTGCGGCGCA
1218,TTCGCGGAATATGTGGCGAT
1219,GTGAGCGACAAGCTTGCGAT
1220,TGAGGAGACGGTGCGGTCTG
1221,TGAAGAGGCCATAAGGCCCG
1222,GGCCGAGAAGCTCGGGCGCA
1223,GGCCGCGACCTGCAGGAACC
1224,TGAAGGCAATCGAAGGCAAT
1225,GGCGGCGACGAGCTCGTGAT
1226,GCCGGCGACATTATCGCGCT
1227,TGAAGGGGAAAGAACGCCCC
1228,TGCAGACGCGCGGCGGCGAC
1229,GGGCCCGGCGAAGAGGCAAT
1230,TTTTGCGCAAGTGCGGCAAT
1231,GCGGGAGAAGCGCTGGCGAT
1232,GGTGGCGGAAAACCTGAATG
1233,GGCCGAGAAGAAGGTGCCCG
1234,TGTGGAGAAAGGCCCGCGTT
1235,TTCACCGAAATACCGGTCAT
1236,TGCCGGGAAGTTCGCGCCCC
1237,TCCGGCGGAGGGCCGGTAAT
1238,TGCGAGGGCTATGTGGAAAG
1239,TTCAGAAACACGCCGGCGCT
1240,GGCGACGGCATGGCCGCCTT
1241,TGGAGCAGAACGACGGCGAA
1242,TGCCGAGGCGTGCGGGCGAA
1243,GCGGGCGGAAAACCGGACAC
1244,TGCCGCTAAGCTGCTGCACC
1245,GGGACAAGAAAAATGGCACT
1246,TCGGCCGACGATCCGGAACT
1247,TGCAGCAGCACGCCGGAGAC
1248,GTGGACGGATAGGCGGCGAT
1249,GGCCGCAACGAACAGGCGCT
1250,TGAGACAGCGATCAGGAATG
1251,GGGCAAGGAAAACAGGCGCT
1252,TTCAGGAAAACGCGGGCGAT
1253,GGAGAAGACAATGGCGACAG
1254,TCTGGAAACTCTGGGGCAAT
1255,GGGAGCGCAGCTCAGGCAAG
1256,GGAAACGACGAGCTGGTCTT
1257,TGCGAGGGCAAGCCGGTCCT
1258,GGCGGCAGCGATCCGGCGAA
1259,GGCGGCGACGTGGCCGCCAA
1260,GTGCGCGGCATGCTGGCGCC
1261,TCCTGCCGAATTCGGGCCCT
1262,GTTTGCAAAATGGTGGCGAG
1263,TTCGGAAGCAATGGCGCGCT
1264,GGCAGCGACATGCATGACCT
1265,TGGAGCAGAAGGCCGGCGAG
1266,TTCCGGAACATTGCGGCGTT
1267,TGCGACGGCATAGGGGAGCA
1268,TGCCGCGAACCAGTGGTGAC
1269,TGCCGAGAATCGACTGCATT
1270,GTCGACGGAGATGCCGCCAT
1271,TTTGGAGACATGAATGCGCT
1272,GGCCGCTGAAAGACGGCGAG
1273,TGCAGCGGCGATGGCGAGAG
1274,GGTGGCTGCAAGCCGGCGCT
1275,GGCCGCAGAAAGAAGGCGCA
1276,GTCGACGGCAAAGCGGAGAT
1277,GGTGGCGACGAGCTTGAGAT
1278,TGATCCAGAGTTCCGGCACC
1279,GGCAACGACGCGCAGGCCCT
1280,TGGCGAGGAGAGCGCGCGCT
1281,GGTCGAGGACTTCTGGCATG
1282,TGCGCCGCCGCGGGGGCACC
1283,GCCGGCCGCTTTGCGGCAAT
1284,GGCGGCGCCAAGGTCGCCTT
1285,GGCGAAGGCGATCTGGTCCT
1286,GGGCGCCGAGCTCCGGCACG
1287,GGCGACCAAATTCCTGAACG
1288,TCGCGCGACCAGCCGGCACC
1289,GGTGAAGAAATAGGGGACCA
1290,GGCCGAGCAATTCGCGCACC
1291,GCCGGCGACAAGATCGCGCT
1292,TGCGGCGACCTGGGCGCGCG
1293,GGACGAAACGAGCGGGCCCG
1294,TGAGGGCGAGAGCTGGAGCT
1295,GGTCGCGGCAAAGTCGAACT
1296,GGCGGAGCCGTGAAGGCCAT
1297,TTCGGCAACGCTGGCGCAAG
1298,GGACGAGGAAAGCGCGCCCG
1299,GGCGACGGCAATCACGCGCT
1300,TTCGCCGGCGTGGCGGCAAA
1301,GCCGACGAAAAGAGCGCGAT
1302,TCCTCCGAAAATCCGGAAAG
1303,GTCCGCGGAAAGCGCGCCCT
1304,TGCAGCGGCAGGACGGAGTT
1305,TGGTGGGGCGATCCGGCATC
1306,CGCGGCGACGTGGTGGCAAC
1307,GGCAAAGGAACAGCGGCCCG
1308,GGCGGCAGCGGGGTGGCGAT
1309,GTTCGCGGAACTCCGGCGAG
1310,TGGCGGGGAGCGAGGGCGAT
1311,GTCGCCGACTATGCGGAACT
1312,TTCGAAGACGTGACGGCGCG
1313,TGACGAGGACCTGGTGCACC
1314,GGCGGCCGCGATCAGGTGAT
1315,TTTCGCAACAAGCCGGTGAT
1316,GGCGGCCGCGAGCAGGCGTC
1317,TGCCGCGCAAATCCCGCGTC
1318,GGGTGCGGCAAGCAGGCCCG
1319,TGGCGCCACTATGCGGAAAA
1320,TTCCGAGACGAGGCCGCGAT
1321,GGGCGAGGAGATCGTGCGAT
1322,GGCGACGACGCGCCGGCGCG
1323,GGCGCGGACGTTCCGGCATC
1324,GTCGGCCGCGTGCTGGAAAT
1325,GGGGCCGGAAATGCCGCCTC
1326,TTCAACGGCGAGACGGCCTT
1327,TGCGGCGGCGTACGCGCAAA
1328,TGCTGCAGCTTGCCGGCACT
1329,TGTCGCACCATTGCGGCCCG
1330,TCCGGAAAACATCCGGCGCT
1331,TCGGGCTGCAATCGGGCATC
1332,TTGTGCTAAAATCCGGCATG
1333,GGACAGGAAATGGCGGCGAA
1334,TTTGAAGAAACTCTCGAAAT
1335,TCGGCCGCAAATACGGCAAG
1336,GGACACGAAGAGGCCGCCTC
1337,TTGGGAGGAAAACATGAAAC
1338,TGCGGGGCAATTGGCGAAAG
1339,TGGCGCGAAGCGAATGAACC
1340,TCGCGCGACGATGTCGCCAT
1341,TTCAACCGCAAGCCGGAACT
1342,GTCGAAGGCACGATGGCAAG
1343,TTCAAGGACATGGCGGCCTC
1344,TGCGGATACCCTCCGGCAAT
1345,TGCCGTGAAAAGATTGCCCG
1346,TGACAGGAAGCGCCGGCCAC
1347,GGGGCGGACGAGGCGGCACG
1348,GCCGGCGACGTTGCGGAATA
1349,GCAAGCGGAGAAATGGCCCC
1350,TGCAGCGCCGCTGCGGCGCG
1351,GTGCGACGAATGCCGGCAAG
1352,TCGCGCAGAATAGAGGAAAC
1353,GGCGCCGAAGAAGTCGCGCT
1354,GGCGACACCGTTGCGGCATT
1355,TTCGGCGGCGAAAAGGAGAC
1356,GGCAACGACGATGCTGCGAG
1357,TGGGGCGGCCTGATGGTCAC
1358,GGTTGCGGCGAGGTGGCGCG
1359,GCCCGAGGAGTGAGGGCCAT
1360,GCCGGCAACGTTCCGGCGAC
1361,GGCGAAGACGAGATCGCCAT
1362,TTCGGCGGATTTCTCGTAAT
1363,TGGAACGGCGAGGCCGCACG
1364,GGCGATGAAATGAAGGCGCG
1365,TTCGACGGAGATGGCGCGTC
1366,GGCGACGGCCAGGCGGCGTT
1367,TGAAAAGACCTGCCGGCGCT
1368,TGTGCGGAAAGTCAGGAAAT
1369,GGTCACGACTTTCTGGAACT
1370,TGCGGCGGAGAAACTGCCCA
1371,GGCGGCCGAGCAGCCGCAAT
1372,GCTGACGAAGCAGGGGCAAG
1373,TGCGGTGGCGTGCGGGCGAG
1374,GTCGGCGCCGAGCGGGCCAT
1375,GGGGCCGAAGTGATGGCGAA
1376,GGGGGCGCAGAGCAGGACCT
1377,TGTCGCTAACTTGGGGCAAA
1378,GTTCGGCAAATTGCGGCCAC
1379,TGCGGCCGCGCGGTGGCGAA
1380,GGCTACGACCATGCGGAACT
1381,TCGAGCGCCATGGCGGCGAT
1382,GGCGGAGGCGATCCTGAAAG
1383,GTTGCAGACAATCCGGCAAA
1384,GGCGGCGGCCAGCTGGTGAT
1385,TGCAGCGCAATGCCGGACCA
1386,TTGCGCCGCTATGCGGCATT
1387,GCAAGAGGATATGCGGCGAC
1388,TGGTGCAGCCAGGTGGCACC
1389,GGCTATGAAAAGCCGGCACG
1390,TGCGCCCAACTTCCGGCAAA
1391,TTCAAGGGCAAGGCGGCGCT
1392,GCGGAAGAAATGCCGGCGAG
1393,TTACCCGAAAAGCTTGCCAC
1394,GGCTGAAGAAATGTGGAGCG
1395,GGCGCCGGCAAGCAGGAGCT
1396,TTCCCCGACGATACGGCGCC
1397,TTCGGCGGCGGTGCGGACCT
1398,TCCTGCGCAATTGCGGAAAG
1399,GGAGCCGGAAAGCACGAAAC
1400,TGCCGAGGAGTTCCTGCGCG
1401,GGAAACGAAGCTCGCGAAAT
1402,TGGGAAAAATTAAGGGAAAC
1403,TGCAACAGCGCGCGGGCAAG
1404,GCAGGCGACGAGCACGCACT
1405,TTCGGCCGCGATCGGGTCAC
1406,GGAGGACGAAAAGGCGCGCC
1407,GCCCGCGACACGGAGGTACC
1408,GGCAGGAAATATCCGGCCCT
1409,GGAGGCGGCGTGAGTGCGCC
1410,TGGGCGGACGAGAAGGCCAT
1411,TCCCGCGCAATGCCGGCAAA
1412,GCAGGAGAAGTTCCGGACCG
1413,GGCAATGAAGTTGGGGTATC
1414,TGCCGAAGAAGGCCGGTACC
1415,TCATGCGGCACGACGGCATT
1416,GCAGCCGACATTCAGGCATG
1417,TTCCCCGAAGATGCGGAGCG
1418,TGAAGCCGCGCAGCGGCCCC
1419,GCCGGCGGCAAGCCGGTGAC
1420,GGCCGCGGCGAAGCTGCACG
1421,TTCGGCGGATAGCAGGTCTT
1422,GGAGCCGGAGCGCAGGAACT
1423,TGCGCGCGCATGGCGGCATC
1424,TGCGGGCGCATGGTCGCATC
1425,TTCCGGAAAATAGGGGAACG
1426,TGGGCGCGAATGCGGGCAAG
1427,TTCGGAAAAACTGGTGACAC
1428,GGTCGAGGATCGCCGGCACC
1429,GGAGACGAAGAGCGTGCGTG
1430,TGGCCCGGAGATGCGGTCTC
1431,GGCGGCGGAAAGGCTGACTA
1432,GGCCGGGAAATGCTCGCGAC
1433,GGCCGAAGAATGCGCGCAAG
1434,TGGCGCTGCATGGCGGCCTC
1435,GGCGGCGCACTGCTGGCGCT
1436,GGCGGTGGCATTCTGGTGAT
1437,GGAGGCGCCGTTCTGGAGCT
1438,GGCGGCGACTGTACTGCAAT
1439,TTCGGCGAACCGATCGCACC
1440,GGCGAGGACACGCAGGCGAT
1441,GGCTGCGCAACGGCGGCAAA
1442,GGGCATGGAGATGTGGCATC
1443,TGCGACCGCGTTCTGGTGAT
1444,GCCGAAGGCATGCTGGAAAT
1445,GGTGGGGGCTTGCCGGCAAC
1446,GGTTGCGGCACGCAGGAAAT
1447,TGTTGGCGAATGATGGAAAT
1448,TTGCGCAAAAAGCCGGTGCG
1449,GGCGGCGGACAACAGGAATG
1450,TGGTACAGCGAGGAGGCACC
1451,GTTGCCGAAACGCCGGTACT
1452,GGTCGCGACACGACGGACCG
1453,GCCAGGGAAACGGAGGAACT
1454,GGCGCCAGCATGCCGGCATG
1455,TCCGGCAGAAATAGCGCGCC
1456,GGCGCCGAAGTGGGCGCACA
1457,TGCAGCGGCGCTCGCGCCAC
1458,TCCGACCGAGAACCGGCACC
1459,GGTGACGACATGCACGCCCT
1460,GGCAGCGGAATGACCGCCAA
1461,TGGCGAAAAACTATCGCGCT
1462,TTCAGCGGCATGCGCGAACC
1463,GCAACCGAAACGATGGCATC
1464,TTGCGCGACGAACAGGCGAG
1465,GCCGCCGAAGAGCTGGAAAG
1466,TGCAAAGGCGAGGCTGAACT
1467,GGCGGCCGCAGGGTGGTATC
1468,TGCCGCCGAGTTCCTGAACC
1469,TGTCGCGGATCGACGGCGAG
1470,GTTCGCCGCAATCTGGCCCT
1471,GCGGCCGAAGCTGCGGCATC
1472,TTGCGAGGCGCTGTGGCGCT
1473,TGACGAGGAACTGGCGCGAA
1474,TGGTAAGAAAATAATGAATT
1475,TGCCGCCACGTTGGCGACAT
1476,GCGCGGGAAATGGCGGCAAA
1477,TTCAGCGACTTGCCGGAATG
1478,TGCGCCGACGTGATCGCATG
1479,TGCGCCGGATAGGGGGTCCG
1480,TCACGCCAAGCGAAGGCAAG
1481,TGCCGCGGCATGCATGCGCG
1482,GGCGGGCGCAAGAAGGCGCT
1483,GGCGAAGAAGAACGCGCCCT
1484,TGACGGACAACGGAGGCAAC
1485,TGCTGCTAAATTGCCGCGAC
1486,GGCGGCGGCGATGTCGTCTT
1487,GGCGACCACATTGATGCCTT
1488,GGACGCGCAATGCCGGCGAA
1489,TTTAGAGAAAAAACCGTACC
1490,TGCGGCAACCGGCGGGAAAT
1491,GTCGGCGGAAGAGCGGACCT
1492,TTCGACGGAGAGATTGAACC
1493,GTCGGCAACGAGGCGGTCTT
1494,TTCAGCCACGATCCGGACAG
1495,TGGCACGGCAAGGCCGAAAG
1496,TCCCGTGAAAAGCTCGCAAT
1497,TGAAGACGCAGGAGGGCCAC
1498,TGCGGCTACGCACGGGAAAC
1499,TCCAGCAGATTTCCGGCATC
1500,TTGGGCGGCAAGCATGAAAG
1501,TGCAGGAGAGAACCGGCGAC
1502,TTCCGGAACAATGAGGCGTC
1503,TCCAGCGCAATAGAGGCGCC
1504,TCCCGCGAAGCGCAGGACAT
1505,GGCGAGGACATGCCGGTGAT
1506,TGTCGCGGCGTGAAGGTCCC
1507,TGCAGACGAGATCGTGCGCC
1508,TGGCGCGGCTCTCCGGCGAC
1509,TGCGGCAGATCGCCGGAGAT
1510,GCCGGAGAAGGTGTCGCAAT
1511,TGCGGCCGATTTCGTGCGAC
1512,GGGCGACAAGAGGGGGTGTT
1513,GGAAGAGGAATGAGCGAATG
1514,TGCGGCGGCAGTCGCGCGAG
1515,GGAAGCGAAGGTACCGAAAC
1516,TGTCGAAAAAGAACGGAATT
1517,TGTGCACGCAAAAAGGCACC
1518,GGCGAATCAAAGGCGGCACC
1519,GGCGGTGGCGCGGCGGCATC
1520,TGCAGCACCTTGGCGGCAAG
1521,TGTCCCGGCACGGCGGCGCC
1522,TGGCCGGGAACTGCGGAAAC
1523,TGCCGAAAAAGACCGGCCCG
1524,GGACGATGAATACCGGCAAG
1525,GGAGAAGAACTGCCGGCGCG
1526,TGAAACGCCGCTACGGCAAG
1527,TGCCGTGACGAGCCGGCGCG
1528,GGCCGAGAAGCTGGCGAACG
1529,GGCCGGAACCAGGTGGCAAC
1530,TCTCGCAAAATTCGCGCATC
1531,GGCAGACGAAAGAAGGTCAG
1532,TGCGGCGGAGCGGCTGCGCA
1533,GGCGACGACGTTCTCGCGCC
1534,TCGGAAAAAAAGCCGGCGTC
1535,TGACGAGAAGCACGGGTCCG
1536,GGCCGCGGAGAGGCTGCGTG
1537,TTCGCCGAAGCGATGGAGAT
1538,TCGCCCGAAGAGCGGGCGAT
1539,TCCGCCAACGATGCGGCGAC
1540,GGTCACGACGATCGGGTGCT
1541,GCGCGGGAAAATCCGGCGCC
1542,GGCGAGGAAAAGATCGCGCC
1543,GGAGGCTGAAAGGGCGCGCC
1544,GGACGCAGAGTGAAGGAGAT
1545,TCGAGCCGACTTCGGGCAAT
1546,TGTCGCGGCGCGCATGCAAT
1547,TGGGGCTGCAAAGGGGAGCC
1548,TCGCGAGAAGCGCCGGCATG
1549,GGCGGCAGACAGGCCGCAAG
1550,GGCGGCGGCGAGCACGCCCC
1551,TGCGGCGCCGTGCCGGTCTT
1552,TTACGAGACGATCGTGAACC
1553,TGAGGGGAAACTGCGGCAGC
1554,TGCGGAAAATCGAAGGTCAT
1555,GGCAAAGACGTGGCGGTAAA
1556,GGCGAAGAAACGCTCGCGCC
1557,TCCGGAAGCATTCCGGCGTC
1558,GGCGAAGGCGATGCCGTAAT
1559,GGGAGCGACGATATTGAATG
1560,GGAAAAGGCATGGTGGCGCA
1561,GGCCGCAGAGAGATGGAGAG
1562,GCAGGCGGCAAGACGGTCTT
1563,TCAAGGAGAACGGCGGCACC
1564,TTGGGCAGCGAGACGGCGAG
1565,GTCGACCGCAAGCGGGCCCT
1566,GCCGGAGACGATGATGCCAT
1567,GTCTGCGAAAGACCGGCAAG
1568,GCCGGCGACGATATCGAACT
1569,GGGAGAGCACATAGGGCAAG
1570,GGCAGCGACGTTCTCGTCAT
1571,TTCGGCGGACATGCGGTCAA
1572,GCTGGCGAAGAACGCGCACC
1573,GGCGGCGACGCGCCCGCGCT
1574,TGCGCCGGAGCACCGGTATT
1575,GGTTGCGGAACTCCGGCGTG
1576,GGTAAAGACGATCCGGAGCT
1577,TGCGGCCACGCGAAGGCGAA
1578,GGCACCGACGAGGCGGCGAA
1579,GCTGGAAGAAAGCTGGAAAG
1580,TGAAACCGCTCTACGGCAAT
1581,GGCGACGCCGAGCCGGCCCT
1582,GTTGGAGGATTGCGGGCCAC
1583,TTCGCCGACAGTCCGGAATT
1584,TTCCGCCGCATGAAGGAAAG
1585,GGAGGGCACGAACTGGAAAC
1586,TCGCGCGCAATAACGGCAAG
1587,GTCGCCGAAGAAGCGGCCTG
1588,GCCGGCGAAGCGGTGGAGCG
1589,GGTCAAAGAGAGGCGGCCAC
1590,TTCCGCCAATTGGCGGACCT
1591,TTCGGCGACATGCTCGACCG
1592,TTACGCGCAGCGCTGGCATC
1593,TGGAGCCGCCAGGGGGCGCC
1594,TTCACCAACAAGGCGGCGCG
1595,TGACGAGCACCTCGGGCACC
1596,GGCAGCGGCGAGGCTGCGTC
1597,TGTTCCGAAGAGACGGACCT
1598,TGGCGAGGATTGCCTGCACC
1599,TGGGGGGACATACCGGACTG
1600,GGCGCCGGAAAACCTGAAAC
1601,GGCGGCGAAGATCGGGAAGT
1602,GGTGGACACGATGGCGCGCT
1603,GCCGACAACAAGAAGGCGAT
1604,TGCAAGCAAAATGGCGCCTT
1605,TGACGCAACGGTAAGGCAAA
1606,TGAGGCCGAGAGCCGGTGCA
1607,GCAGCCGAAGATGCGGCCAA
1608,GCCGCCCGCAAGGCGGCAAC
1609,TTCGCCGGCGATGCCGCACC
1610,GGCGGAGGCCATGCGGACCG
1611,TGCGGCCGAGAGGGCGACCG
1612,TGCCGCGAACCGATGGCGCA
1613,TGGGGCGGCACGGTCGTGAC
1614,GGGGGCAGAAATGCCGACCG
1615,GCGCGCGGATAGGCGGCCAT
1616,TCCGGCGACAAGCTCGTATG
1617,TGCCCAAAAATGCGGGCCAA
1618,GGTGGACGAAGGGCGGCGAG
1619,TTCGAGCAAGAGGCGGAAAG
1620,TGAAGGAGCGATCGGGCGTT
1621,GGTAGCGACACGAAGGAGCG
1622,TTCGGCAGCGCAGCGGCGAT
1623,GGCCGCGGCGATGGTGACCT
1624,GGCGGCGGCGAGCGCGACAT
1625,GTCCGCGGCAAGGAGGAGTC
1626,TGGCGGGAAGCGACGGCGCG
1627,TGACACCGCGTGCGGGCATG
1628,TTCTGCAGAAAGGAGGTGAC
1629,GGCCGACGAGAAGGGGCGCG
1630,GCCGACGAAAAGGCCGACAT
1631,TGCGCAGGAATACATGCACG
1632,TTCGAGGGAAAGACGGTCAC
1633,GGCGGCGGCGAAGTCGCCCG
1634,TTACGGGGAGCGGCGGAACT
1635,TGGCGCTCAATGCGGGCATC
1636,GGTCGCGGAAAGAATGCGCG
1637,GGTGGCGGCCATCGGGTCAC
1638,TGCCGCGACGGGGCCGCGAT
1639,TTCGACGGCAGGATGGTACT
1640,TCACGCGGCGGTGCGGCATC
1641,TGCGCCGAAGGAATGGACAT
1642,TTTTGCGACGAAAGGGCAAA
1643,TCGAGGAAAAAGCCGGCGAC
1644,GGCCGTAGCAAGGCGGCCAT
1645,TCCGGCAAAACTCCCGCATG
1646,TTCGGCCAACGGGCGGCCAT
1647,GGTAGCAACTCTGTGGCGCT
1648,GGGCGGGACGTTCAGGCGCT
1649,GCCCGCGACGATCAGGACAT
1650,TGTCACAGCAATATGGCCAA
1651,TGCCGCAACCCTCTGGCGCT
1652,TTCGAGGAATAGCGGGCGCT
1653,GTCGACGAAACGGGCGCCTT
1654,TTTCGCAACGCTGCGGCCTT
1655,TGCGGCTCCATTCCGGCCTT
1656,GTGAGGAAAAATACGGCCAG
1657,TGCGGGAGAAAAGGCGCGCC
1658,GGCGGAGACACGCGCGCCCG
1659,TTCGGCACCACGGCGGCGAT
1660,GGCGGCAGCACTCTCGCACG
1661,TGAGGCAAACTGAGCGAAAG
1662,TGCGGCGAGAAAGCGGCACA
1663,TGAAGGGCAAGTGGGGCGCC
1664,TGATCAGGAATTGGTGTAAT
1665,TGCCGGGAAGGGACGGAATC
1666,GCCAGCGAAGGTGCGGACAT
1667,TGCCGAGACGCTCTCGCGAC
1668,TGGACAGGCACTGCGGCCCG
1669,GTCGGTGAAGTTCAGGCGCC
1670,GTCCGCCAATTGGCGGAACC
1671,GGCCACGACATGCTTGCCTT
1672,TCCCGCGCCATTCGGGAACC
1673,GCCGAAGGCATTGCGGACAT
1674,TCCGCCGGCGATATGGCGCT
1675,GGCCGCCGAAAAGCCGCGAC
1676,GGAGAGGAAGTGGTCGAAAC
1677,TCGCGCGCAAATACGGCGTC
1678,TTCAGCGCAGGGAAGGCAAT
1679,GCCGGACGAATGCCGGCCTT
1680,GGCGGCGAAAAAACGGGACC
1681,GGCCGCGGAACGCTCGCGCC
1682,TTCAGCGGACGGGCGGCACG
1683,TTACGCAGAAATGACGCGAG
1684,GGCGGGGGAAAAAGCGCGCT
1685,GCCACCGAAAGGCCGGCAAT
1686,TGACCAAAATTGACGGCAAG
1687,TGACGCCGCTTTACGGCGCC
1688,GGGCGACAATTTGGGGTACG
1689,TCAGGAAGCAAACAGGAACT
1690,TTCCGAGGAAGACAGGAAAT
1691,TGAACAGAAAAGGCTGCGCA
1692,GGTCGCGGAAGTCAGGCCTG
1693,TCGCGCGACACTCCGGCCTG
1694,GGCCGCAAACCTCGGGAACC
1695,GGCGAAAACGATGCGGTGTT
1696,GGCACCGAAAAGGGCGTGAC
1697,TGCGAGGACACGAGGGTGAC
1698,TCAGGACGACATGCGGCGAC
1699,TGAAGCCGAAGGCTCGCAAG
1700,GGGGGCGGAGAACTCGCGTT
1701,GGAAGCGCAAAAAATGCATC
1702,GGAGGCGGCATGCTCGAGCC
1703,TCGCGCAACACGCTGGCCAT
1704,TGCCCCGGCGCTCCGGCGAT
1705,GGCCGACGAAGAGCGGCACG
1706,GGCGCCGAAGAAGCCGCCTT
1707,GCAAGCGCCACGGCGGCAAC
1708,TGCAGCGGACGGGTGGCCTG
1709,TTTCGCGGCGAAGAGGAACG
1710,TGGCGCTGAATGCAGGCGTC
1711,TGCGGACGATCTCCGGCCCG
1712,GGCAGCGCCGCAATGGCACT
1713,TCGGACGGCGATCTGGCGTT
1714,GCGCCAGAAAATGCGGCCAG
1715,GCAAGCGACAATGCTGTCAT
1716,GCAAGCCGCATTGCGGCCAG
1717,TTCTCCAACACTGCGGCACT
1718,GGCGGCGCCGGGGCGGCCAT
1719,GCGGACGAAATGGCCGCCAC
1720,TTGCGCGAAAATGCTGACCA
1721,TGGTACGACACGCGTGCAAC
1722,TGCGGGGGCACTGCCGCCAG
1723,TGCCGCCGAATTCCTGAAAA
1724,GGCACCGGAAATCCTGCGCC
1725,GGGGACGACATGAACGAATT
1726,TGCCCCAGATCTGCGGCACC
1727,GGAAACGGCGAGCTGGTCCT
1728,GTATCGGAAATTACGGCAAT
1729,TTGCGCGGCGATGGCGCCAC
1730,TGGCACGCAATAGTGGAGCT
1731,GGTGGCGGATTGCTTGCCCT
1732,TGAGGGGCAGAGGCGGTGTT
1733,GGTCGAGAAGATCGCGCGCG
1734,TGTCGACAAGCGCCTGCAAC
1735,TCCGGCGGCGCGCCGGCGCC
1736,GGCTGCGGAGTAGATGCATT
1737,TCAGGCAAAGATCTTGCCCG
1738,TGTCGAGGATCACCGGCACG
1739,TTCGGAGGATGGCCGGCATC
1740,GCGGCCGGAATGGCGGCGCC
1741,GGGGGCGGCTCACCGGCAAG
1742,GGCCGCGCCAAGAAGGTCAT
1743,GTGAGCCGAACGCAGGCAAG
1744,TGGGACGAACTGCGCGCCCT
1745,GGAAGTGACGATACGGTCAT
1746,GCCGGCCGCGTTGCGGCGCT
1747,TTCGCAGCCAAAGAGGCAAC
1748,GCCAGAGACGAGCTGGCGAG
1749,GGCGGCGGCCATGGCGCCTT
1750,GGCGGCGGCGCTCTTGCGCT
1751,TCCGGCGGCTCGGAGGCCAT
1752,GTCGCCAGAGTGGTGGCCAT
1753,GTCGCCGAAAATGGCGAGAC
1754,TCGAGCAAATCAGGGGCAAC
1755,TGCGGCAACACGATCGCCTG
1756,TCCGGCGGAACGCCGGTATA
1757,GCCGACGACGTTGAGGCGCG
1758,TTAGCAGCCATTCCGGCATT
1759,TGGCGCGCAAGGCGGGCCAG
1760,GGCGGCGAGAAGGAGGCGCT
1761,GGCCGAGGATGGCGGGCACC
1762,GGCGCGGAAATGGCGGTCCG
1763,GTCGCCAACGTGGCGGCATC
1764,TGCCGCCGATCTGCGGAATG
1765,TTGCGAGGAAATGCCGAGCT
1766,GGCAGCGGAGCGCCGGTCTC
1767,GCCTGAGGAGTGGCGGAAAT
1768,TGCCGCCAAAACCGGGCACC
1769,GGACGAGCCAATCCGGCCTG
1770,GGCAGAAGAGTGCTGGTCCT
1771,TGCCGCGCCGAACGGGAACG
1772,TGGCGAGGATTGAGGGAGCC
1773,GGCGCCGACGCGCAGGCGCT
1774,TGTAGCGGAAATCCGGGACC
1775,GGCGGAAAAATTCATGAACA
1776,GGCGGCGAAATGCCCGACTA
1777,TGAGGCGGAAATCAGCCATC
1778,TTCGAAGACATGGCCGCCCG
1779,TTCCATGGAGATGTGGAAAC
1780,GGCGGGAACACGCCGGCGCC
1781,GGGAGAAAAGCACTGGCATG
1782,TGGAACCAAAGTCCCGCAAC
1783,GGGCGCGAAACGATCGAGAT
1784,GCGAGCCAAACGGCGGCGCC
1785,TTCACCGGCACGCCGGCATC
1786,TTCGAATACAAGCTGGCATG
1787,GTCGGCAGCGCTCCGGCATC
1788,TGCGGAAAACTGATCGCCAC
1789,TCAAGCAGAAATGGCGACAT
1790,GTCGGCGCCGATGCGGACCT
1791,TGCGAGCAACTGGTGGCGCT
1792,TTGAGGGACGGTGCGGCATT
1793,GCCAGCGGATTGGGGGCCAG
1794,GTTGGCGAAGATGATGAGTT
1795,GGCAGCAGCGATGCCGCCCT
1796,TGGAGCGCAGCACCGGCATG
1797,TGAAAAACATATGGGGAAAT
1798,TGGAGGCAAGCAGCGGCCAC
1799,GTCGCCGACATGGGCGAAAT
1800,GCGCGCGGATTTCCGGCATT
1801,TCGGGCAAAGAGCCGGACCG
1802,GGAGAAGACATGGTCGAAAA
1803,GTCGGCGACGAGCATGCGCT
1804,GGCGGCCGCGTGAAGGACCT
1805,GGAGGCGCATCGGGGGCACA
1806,TGCGGCAACAGGCGCGCGAC
1807,GGTGAGGAAATAGGTGTAAT
1808,TTCAGGGAATTTCGTGCACT
1809,GGGCGACAATTAGCGGCGAT
1810,TGCCGCCACGATCATGCGCC
1811,TGCCAAGGATTACAGGCCAT
1812,GCTGGCGGCACAGTGGCGCT
1813,TCGACCAAAATGCTGGAAAC
1814,GGCGGCGAAGATCAGGCAGG
1815,GTCACCGAACTGCCGGCACT
1816,TGCCGAGAAAATAGGCCAAG
1817,GGAGAGAACCATGCGGCACC
1818,TGCGGTCGAGATAGGGCGTG
1819,GGCGCCGCAATGACGGCGTC
1820,GTGGAACAAATTGTGGCGAA
1821,GTCGGTGAAATGGCCGCGAT
1822,TGAGGTCGCAATGCGGCGCA
1823,TTCGACCACGTGGCGGAGCT
1824,GCCGGCAGCATGGGCGCACT
1825,GGCAACGGCAATGCCGACAC
1826,GGATCCGGAAAACAGGAACT
1827,TTGCCCGAAAGGCCGGCATC
1828,TGGAGAAGCCCGGCGGCAAC
1829,TGCGACGAAATCGAGGAATT
1830,TTGAACGGAATGACGGAGTC
1831,GGCTACGGCAAGATCGCACT
1832,GCACGCGAAGCTCTGGCGCG
1833,GGGCGGGAAACGGAGGTGCT
1834,TTCGGCAGCGTGCCGGTCAT
1835,TTCTACGAAGTGGATGCATT
1836,TGCCGCCGCATGGCTGCGTC
1837,TGAGGAGAACATCATGAACA
1838,TTCAGCTACACGCTGGCGAT
1839,GGCGGCGAAGTTCTCGACCA
1840,GGAAGCCGATAAGGTGCACT
1841,TCAAGAGAATCGGCGGCGAG
1842,GGTCGAAAAAGGGAGGCCTC
1843,GCCGAAGACGAGCGGGCGCT
1844,TCTAGAGGAAAAATGGTGCT
1845,GTCACCAGAAATGCGGAACG
1846,GGCGACGCCGAGCCGGTAAC
1847,GCGGAAGAAATTGCCGTAAT
1848,TGAAACGCATCGGCGGCACG
1849,TCTCGCCAAGATGCCGCATC
1850,GTCGACGACAGGACGGCGCT
1851,GGCGCCGAAGGGCAGGTACT
1852,GCAGGCGGATGAGGGGCAAT
1853,GGCGGGCGCGCGGAGGCAAC
1854,GGCGGCCGAGATCTTGTCAT
1855,GTCAAGGAAAAAGCGGCCCG
1856,GGCGACAGCATGCCTGCATT
1857,TGCAGGGAAACTCACGCCCG
1858,TTCGGGGAAGCAGCGGAGAC
1859,TGGGGCCGAAGACCGGCATA
1860,GTCCACGACAATGTCGCCTT
1861,TCGGGGAGAACTACGGCATT
1862,GGTGAGGAAGAGCAGGCGCG
1863,GCGGGCGGAACGAAGGACAT
1864,TTCCACTAAGAGAGGGCACG
1865,GGTCGAGAACCGGCTGCAAT
1866,GGAGGCGACGAGGTTGAGAA
1867,TTCCACCGAATGCCTGCAAT
1868,TTCGGGAGAAATCCGGTGCC
1869,TGTCGACGAGATCGCGCCAT
1870,GTTGGCGGCCTGGCGGCCCT
1871,GGACACGACGTGCGGGTCCC
1872,GCCGGCGGCATGAAGGTCAC
1873,GTCAGAGAAATTCGCGTGAT
1874,GGCGGAGCAACTCTTGAAAC
1875,GGCGCCAGAACGCCGGCAAA
1876,TTGGGGAAAAGGCCGGCATC
1877,GGCGGAAAACATGGCGCGCC
1878,GGATGCGGCAAAGGCGCCCT
1879,TTCGGCCAACTTCCGGTGCT
1880,GGAGCAGACGTTCTGGTGCT
1881,GGGCCGGACACGGCGGCACT
1882,TCACGGGGAATGGAGGAGAT
1883,TGTCACAAAAAACGCGCATG
1884,TTTTGCGGCGAAGCGGCGAC
1885,GCCTGCGGAATGCGGGCGAG
1886,TCTGCCAGAATTGCGGCACA
1887,GTTCGAGAACATCTGGCGCC
1888,TCAGAGGACGTGGTGGCGAC
1889,GGCGGAGACGATATCGCCCA
1890,TGCCGACGAAGGGCGGAAAA
1891,GGTCACGAAGTGCGGGTCTC
1892,GTCTACGACACAGAGGCACT
1893,GGACGAGACGATGACGCGCG
1894,TCCGCCCAAATTGGTGAACT
1895,GTGAGCGGCACGGAGGCCTC
1896,GGCGACGGCAATATCGTGAT
1897,GTCACCGACAAGCCGGTATC
1898,TTTAACTGAATGCTGGCATT
1899,GCAAGCGGAGAGAGGGACTT
1900,TGCCGCAGAGATCATGACAT
1901,TTCGGCGGAACAGCCGTACG
1902,GGCCGCGAACTGATCGCCAC
1903,GGCGGCCAAGCAAAGGTGAT
1904,GGCGCCGACGAGGGCGAAAG
1905,GCGCGCGGCAAGCCGGCGCC
1906,GGCACCCGAGATGATGCAAT
1907,GGCCGAGAACTTGATGCGCT
1908,TGCCGCGGAGGAGGGGACCG
1909,GCAAGCCACATGCCGGCGCC
1910,GCGGGATGAAATGGGGCGCT
1911,TGGAGCCGAAAAAGTGCCCG
1912,GGCGGCTACATTCCCGCCCT
1913,GCTGACGAAGCGCTGGCGAT
1914,GCCAGCCACAAGCCGGCCCG
1915,TCGCACGGCGATCCGGAAAT
1916,TCCGGCGGAGATGCCGAGTT
1917,GCGGCCGACGAGGCGGAACT
1918,TGCACGGGCGCTACGGCAAT
1919,TGACGACCAATGCCGGCGCG
1920,GGCGCCGAAACGGTCGTCAT
1921,TGGAGCGACAGGGGCGACAC
1922,GGCCGCCGATATCGGGACCT
1923,GGGGCCGCCAAGGCGGCGCC
1924,GGAGAGGGCGAGCGGGTACT
1925,TTCGGCGGCCTGCGTGCAAC
1926,TGCGGCAGCCATGCGGTGCG
1927,TTCGGAAGCAGGCCGGAAAT
1928,TGGCGCGCCGAAGGGGCGCG
1929,TGAAAACGCCAAGTGGCAAC
1930,GGCGCCGGCACGGCCGCACC
1931,GCGCGGCACAATCGGGCAAT
1932,TCCGAAGGCAGAGAGGCAAT
1933,TGACGAAACGCTCGCGCACC
1934,GGCGCCTGAATAGGGGAAAC
1935,GGAGAAGGCAAAGTCGCCCC
1936,GGGAGAGGAGAGGCCGCCCG
1937,TGCGGCGACGCAGGTGCGAA
1938,TGTTGGCCAAATGAGGCATT
1939,GCCGCAGGAATGGCGGCGTT
1940,TCGCGGGGAGTTCCGGCATC
1941,TTCGGCTGAAAAGGCGCACG
1942,TTCGAGGAAAAGCTTGTACC
1943,TGAAGGAAAACAGCCGCATC
1944,TGTCGCGAAAATCGGGCCAT
1945,GGCGGAAGAAATGGGGCACT
1946,GGCGGCGAAAAGCGGGAGAT
1947,TGCGGCGGAAATCAGGCGCG
1948,TGACGGGAAATTGCGGCATG
1949,TGGGGCGAATATATGGCGAC
1950,GGGCGCGAAAAGATGGCGCT
1951,TGGGGCAAAGTGGAGGAACT
1952,GGCCGCGAAGCTGCGGCACG
1953,TTTGGCGAAATGCCGGCGTT
1954,TGCCGCGAAATTCCCGCACG
1955,GGCGGAGAAATACTGGTACC
1956,TGACGACGAGATCGGGCAAT
1957,GGTAGAGGCAAGGGGGCATT
1958,TCCGGCGAAAAGCAGGAAAG
1959,GGCGGAGACATAGAGGCGAT
1960,GGCGGCGGATTGGCGGCATC
1961,GTCGGCGGCAATGCGGCGAC
1962,GGCCCCGAAATTGCGGCGCT
1963,GGCGGCGGAAATGGTGCCCG
1964,GGCGGCGACAATGGCGCGTT
1965,GGCGCCGAAAATCGGGACCT
1966,GGGGGCGCAATGGCGGAAAC
1967,TGAAGAAGCGTTGCGGCACC
1968,GGAGGCAAAATTGCGGTGTC
1969,TGTCGCGAAACAGCCGCAAT
1970,TGCGGCGGAATGCCTGCCTT
1971,TCTGGCGAAGAGAGGGCGCT
1972,GGATGCGGAGATGCGGCATG
1973,TTTAGCGAAAAAGAGGCGTC
1974,TGAGGAGAAGTGCGTGCGAT
1975,TGACGGGAAGCTGCGGCACG
1976,GGCAACCGAAAGGCGGCAAG
1977,TGGTGGGAAAAACTGGCAAC
1978,TGTTGCGGCAATGGGGAACG
1979,GGCGGCGACACTGGGGACCG
1980,GGCGGCAGAGATGTGGTACG
1981,GGCAGCGGCAAGCCGGCGCC
1982,GGCAGCGGCAATCCGGCGTC
1983,GGTGGAAACAATCCGGCATG
1984,TGGCGCGAAATGCATGAAAT
1985,GGTGCCGAAGCTATGGCAAT
1986,TTCGGCGGAACGCAGGCCCT
1987,TCCGGAGAAAAGATGGTCCT
1988,GGCGGCGGACTTGCGGCCCC
1989,TGCAACCAAAATGTGGTCAG
1990,GGAAGCGAAGCGCGGGCGCT
1991,TGCGGTGAAAAGGTGGTGAG
1992,TGACGACAAAATACGGTATG
1993,GGTGAAGACAATCAGGCGAT
1994,TGCCGCGAAGTGATGGACCG
1995,TGAAGACAACTTCAGGCAAT
1996,GGAGGCGACAAGGATGCGCC
1997,TGAAGCGAAGCAGGTGCACC
1998,TGCGGCTAAAATCGGGACTC
1999,GGCAGAAAATAGGCGGCATT
2000,TGTGGAAGAATTCGGGCATA
2001,TCCGGCGACGAGATGGTACT
2002,TGAGCCGAAAGGCCGGCCAT
2003,GGCGGCGGAGCGCTGGCGCT
2004,TTCGGCGACAAAGTCGCCAT
2005,TTCAACAAAAATGTTGCAAC
2006,GGAGGAGAAACAATGGTATC
2007,TGTGGCGGCGATCGGGCGTG
2008,GGGCGCGACAAGGCGGTGCT
2009,GTCGGCGGAATGCCGGCGAG
2010,GCACCCGAAAAGGGGGCAAC
2011,GTGAGCGAAATGAAGGTAAC
2012,GGAAGCGGAAAGGTCGCCTT
2013,TCGAGCGGAAATCGGGAATC
2014,TGAGGCGACATACGCGCGAC
2015,TGCGGCGACGATCACGCGCT
2016,GGCGGAGAAGAGCTGGCGCA
2017,GCGCGCGGAAATGCGGAAAC
2018,GGCGACGGAAAACAGGAATT
2019,TGCGACGAAGCGCTGGCGCG
2020,GGCGGCGGAGCGGTGGTCAT
2021,TGCCGCCGAGAAAAGGCACC
2022,TTCCGAGGAGCTCTGGCAAC
2023,TGGCGCGACGTAATGGCGCT
2024,TGCGGCGGCAAGAGCGCCAG
2025,TGTAACGAAGCGGCGGCGCC
2026,TGTTGAGAAAATGAGGTCCG
2027,TTCGCCGAAGATGCGGTCAT
2028,GGTGGCGGCAAGAAGGAGAT
2029,GGCCGCCGAAATAAGGAAAG
2030,TCAAACAGAAATACGGCAAC
2031,GGCCGCAGCAAAGTGGCCAT
2032,TCGCGCAGAAATCCGGCACC
2033,GTTGGCGGAGCTGCGGAAAT
2034,GTCGGCGGCTATCGGGCACT
2035,TGCCGGGAAACAGCGGCCTT
2036,TGGAACGACGATGCGGAAAA
2037,TGTCGCAAAGTTCCTGCACT
2038,TTCGACGAAGCGGTGGCGTT
2039,TGCGATGACATGGCGGCGCT
2040,TGCGGGGGATTAGTGGCATC
2041,TGAGGCGAAGGACAGGCCTT
2042,GGCCAGGAAGAGGCGGCAAG
2043,TGGGAAGAAAATCCCGCCAG
2044,GGCAGCCAAGAAGTCGCAAT
2045,TGCGGCCGATTGCCGGCGAT
2046,TGCGCCGGCAAGGGGGTGCT
2047,TGAAGAGGATTGCTGGAATT
2048,TGCGCCGAAACGGAGGTCCC
2049,TTCGGCGACGAGGACGCATC
2050,GGGCGCGGAGATCTGGCGCG
2051,GTAAGCGGAACGAAGGCAAG
2052,GTCGGCGCCAAGGCGGAAAT
2053,GGCAGCAGCAGGGCGGCAAT
2054,GGAGGCAAATATGCGGTGCT
2055,TTCGGCAGCGAGGTGGCGAC
2056,TGCAGAAGAATGGCCGCATC
2057,TTCGACGACGTGAAGGCCAT
2058,TGCAGAGAAAGGCTTGCAAG
2059,TTGGGCGGATTTCAGGAAAT
2060,GGCGGCGAAAAACTCGACCT
2061,GGCGGCGAAGAGAGCGCCCG
2062,GGCGGCGGCGATCAGGCCTG
2063,GGCCGCGACATGCGTGCCAT
2064,TGCCGAGGAGATCTGGCGCA
2065,GGCGGCGACCTTCAGGCGAC
2066,TTTGGCGGCAAGCGGGTGAT
2067,GGTGCCGAAGCTGTGGAACC
2068,TCCGGAGGCGCGGTGGCAAC
2069,TGGACAAACAAGCCGGCAAC
2070,GGCAGCAACACGGCGGCCAG
2071,GTAACCGAAAAACCGGCACC
2072,TGCACCGGCATTCCGGCCTT
2073,TTCTCCGACATTGCGGCATT
2074,TGCAGCAGAGAGGTGGCGCA
2075,TGCCACGAAGCTGAGGCCTG
2076,GGAGACGGCAAGGCGGAACA
2077,TGATGCGGAACGCTTGCACT
2078,TGGGACAGAGATGCGGCCTG
2079,TGAGGCCGAGTTCACGCACC
2080,TGTGGCGACGCAGAGGCGTC
2081,TGTCGCCGAAGGGCGGCATC
2082,TGACGAGAAGATACTGCCCG
2083,GGAGGCGGCAAGGTCGCCCG
2084,GGAGGGAAAAATGCGGCGCA
2085,TGCGACGACCAGAGGGCGCC
2086,GGCGCCGGAAAGAAGGCCCG
2087,GCAGCAGAAATGGTGGCCAT
2088,TTGGGCGAAGAGCGGGACTG
2089,TGAGCCGAAGATCATGAACT
2090,TTGAACGGCAAGCGGGAAAT
2091,GGTGACGAAGGTGCGGAACC
2092,TGCGGTGACGAGAAGGCGCT
2093,GGCAACGGCGAGGCGGCGAC
2094,TGACGCAAAACTGCTGCCAG
2095,GGCCGCGACATTGACGCCTT
2096,GCGGGCGGCATTGCGGCCTT
2097,TGACGCCGCATGACGGCGTT
2098,GGCGACGAAATTAAGGAGAA
2099,TGTCACGACTATATGGAACT
2100,GCCGGAGAAGATGGCGCAAG
2101,TCCTACCAAAATCGGGCACT
2102,GCCGACGAAGAGGAGGCGCT
2103,TGGCGCGACTTGGAGGCGTT
2104,GGCGGCGGCTTTCGGGAAAG
2105,GGCGCCGGAGAGATGGCCTT
2106,TTACGAGAAAATCTCGCGCC
2107,TTCGACGACGTGCCGGAATT
2108,GGCGGCGGAATTCTCGAGCT
2109,GCCGGCGGAAAGCGGGTGAT
2110,TCAGGAGGAGAGGTGGTCAC
2111,GGTCGCGAAAAGATTGCCCG
2112,TGGAGAGACTCTGTGGCCCC
2113,GTCGGAGACAAAGCGGTCCT
2114,GCCGGCGACATTGCGGTCAG
2115,TGGCGACAAGATGCGGCCCA
2116,TGTGAGGAAGAGCCGGCGTT
2117,TGAGACGGAGAGCGCGCCAC
2118,TGTGGAAACAAGCGGGAGCG
2119,GGGGGCGACGAGCAGGTGCT
2120,GGAGACCGAGATCTGGCAAA
2121,GCTCGCGACGAGCTGGCACT
2122,TGTCGAGAACTTCCTGCAAT
2123,GCAGCCGACACTGCGGCACT
2124,GGCGGCCACGATGTCGAACT
2125,TCAGGTGGAAATGCGGAATC
2126,TCCGACGGCGATCTGGAAAT
2127,TGCAGCCACCTTGTGGCGTT
2128,TGGAACGGATCTGCGGCACG
2129,TGAGGCCGAACGCCGGTCCC
2130,TGCGGCGGCGGGCCGGAACC
2131,GGCAGCGAAGAAGATGAATT
2132,TGCCGGAACAGTGGGGCACC
2133,TGGTACGGCGATAGGGCAAG
2134,TGCGAGGACCAGGTGGCATC
2135,TGAAACGAATATGTGGTCTG
2136,GCCGGAGACGATGCGGCCCG
2137,GGAGACGACCTTCTGGAACT
2138,TGCGACAGAAAAGACGCAAG
2139,GTTCGAGAAGAACGGGCAAG
2140,GGCGGCAGCGTGGCGGCGAG
2141,TGAGGCGACATTCATGAATA
2142,TGACGAAACACTACGGCCCG
2143,GTCGGCCAAGCAATGGCACT
2144,TCAAGCAGCATTCGGGCCAT
2145,GGAGAAAGAGATGCGGCCTC
2146,GGAAACGGAGAAGCGGACAT
2147,GGCAGCGGCGATGTCGCCCT
2148,TCAGACGGAAATCAGGAGAC
2149,GGCGACAGATTGCTGGCACT
2150,TCCAGCGACCAGCGGGCATT
2151,TGCGGCGACATGCATGCCCA
2152,GGTGACGGCGAGGTCGCAAT
2153,TGGCCCGGCGCGGTGGCAAT
2154,TGGGCCGAAACAGTGGTCCC
2155,GGTGACGAAATACTGGTGTT
2156,TGAAGGAACATTCTGGCGCG
2157,GGCGCCGACATTCCGGACAG
2158,GGCTACGAAGAGGTGGAGCT
2159,TGCACCGAAAAGGGCGAGAC
2160,TGGGACGACTTGATGGCGTT
2161,GGGGGCAACGAGACTGCAAC
2162,TGGTGCGACGATATGGCGAA
2163,GTCGGCGGCATGATGGTGAT
2164,TGGTGCACAATGGCGGCATC
2165,TCAGGCAAACAAGCGGCATC
2166,TTCGGCGACAATCTCGCCAA
2167,TGGCGCAGAAGGAAGGCAAG
2168,GGTGCCGAAGCTCTGGAACC
2169,GCTGAGGAAATGGAGGCAAC
2170,TGGGAAAACATTGTGGCGCA
2171,TGGACCGGCAATCGGGCGCG
2172,TTACGCGAACAACAGGCACG
2173,TGCCGACGAATGCCGGCGTG
2174,GGCGGCAAAGCGCGTGCACC
2175,GGCGGCGACGATGTCGAACA
2176,TTCGACAACATGCCGGCCAG
2177,TGCCGGAAATCTCTGGCAAT
2178,TCCCGCAACACTCCGGCAAG
2179,GGAGCAGAAACGCTCGCAAT
2180,TGCCAATACATGACGGCAAC
2181,GGTCACCGCGATGCGGCAAC
2182,GGTAGCGAAGAAATGGAGCG
2183,TGCACGGAAGAGATGGCGAC
2184,TTTGACGAAAATGCCGACCC
2185,TGCGGCGAAGCAGTTGCGTG
2186,TGTCGCCGCACTCCGGCCCT
2187,TCAGGCGGAACTCAGGCGTG
2188,TCTAGCCAAATTGCGGAGTT
2189,TTCCGAGAAATAGTCGCCCC
2190,GGCGGTGACGAGGCCGCAAT
2191,TGATGTGGAAGGGCGGCAAT
2192,TGCGGCGGCGAAGGCGAACG
2193,GGGGGGAACATTGAGGAATC
2194,TGGGGCGGCCTTGCGGTGCT
2195,TGGAACGGCAATCGGGAGCG
2196,GCAAGCGGAACGAAGGCATC
2197,TGGGGGCAAGAGCCGGCGTC
2198,TGAAACGGCCTTGCGGCCCC
2199,GGTGGCCGAGATCAGGACCT
2200,GTCGGCGGCGAGCCGGCACA
2201,TGTAGGGAATATGCTGCATC
2202,GGCGGCAACTTGCCGGCGCT
2203,TTCCGCAGCGAGGTGGCGAC
2204,TGGAGACGAATAAGGGCGTC
2205,GTAGCCCAAGATACGGCAAG
2206,TCGAGCGAAACGAAGGCGTC
2207,TGCGGCGACGCGAATGAACC
2208,TGCTGGAAAGTGATGGCATC
2209,GGAGGAGACATTCATGCATA
2210,TGATGAAGAAGGGCGGCATC
2211,GGCAGCCGCGTTCGGGCGAC
2212,GGCGGCGGCATGAACGCGCT
2213,GGCGGAAGAATGGCTGAAAG
2214,TGCAGAGCAGCACGGGCACC
2215,GGGCGCGAAAGGGTCGCACG
2216,TGGACAGAACAAGTGGCATC
2217,TGCAGCGGCAATGCTGTGCG
2218,GGCCGCAGAGCGCTGGAAAT
2219,TGTCGCGAACATCAGGTGCC
2220,GCCGGCGACCTTGCGGCCCT
2221,GTCCACGACGATCTGGCCAC
2222,GGCCGGGAAACGGCCGCACC
2223,TTCGGCGGCGATGCGGAGAA
2224,GGAGACAAAGAGATGGCGAA
2225,TGGAAGGACGTTGTGGCGTT
2226,TGAGCAGGCACAAGGGCATC
2227,TGCGGCGCCGAGGTCGAAAC
2228,TCAAGACGAGTGGGGGCCAT
2229,TTCGAAGACGAAGTGGCGCG
2230,GGGCGCGAAATGATTGAGAC
2231,TGCCGAGGCAAGCTCGAAAG
2232,TTCAGCGCAACTGCGGTCAT
2233,TGCGACCAATAGGTGGCGCA
2234,GGGAGTGACGATCCGGCACG
2235,TCTGACGAAATACCGGCGCG
2236,GCGGGCAACATAAAGGCACT
2237,TGACGCCAAAAACATGAAAG
2238,TGAAAAGGAGTGAGCGCATT
2239,TTCCGCCGAATGGGTGCACG
2240,TTGGCCGAAACACCGGAACT
2241,TGCGGCCACAGGGCTGCGAT
2242,TCGTGCGAAACAGAGGCACG
2243,TGCGAAAAAAAGGCTGAGCC
2244,GGCGCCAGCATGATGGCCAT
2245,TGACGCGGATATATTGCGCC
2246,GCCGGAGAAGAGAAGGACAC
2247,GGGCCGGAAAAGGCGGCGCT
2248,TCGCGCCAAATGACGGCGTT
2249,TGCAACGACACGGATGCGCT
2250,TGCTGCAGATAAATGGCATT
2251,TGCAACCGAGCAGCGGCATC
2252,GGCGACAGCGAGGAGGCGAC
2253,TCCGATGAAAAGCAGGAAAT
2254,TTGAGCCAAATGCCGGAACA
2255,GGCGGACGCGTTCAGGCATG
2256,GTGGGCCACATTGCGGACAG
2257,GCACGCGGAGAGCGGGAACC
2258,GTCGACGGCGTTCGGGAACT
2259,GGCGACCAAATGCTTGCGAC
2260,TGCGGCGGATCGGCGGCGTA
2261,TGCAGAGACGTGCACGCCCT
2262,GCCAGCGACGAGACGGAAAG
2263,TGTGCAGGAATTGTTGCGAG
2264,GGCGGCAGCTATCAGGCCAC
2265,GGCGGCGGCGATGGTGAAAA
2266,GGCGGCGAAGCTCTTGTGAT
2267,TCGAGCAGATAGGGGGCATT
2268,TCCCGCGAACAAAAGGCAAG
2269,TCGCGGGAAGTTGGGGCAAA
2270,TTCGAAGAAATGGCCGCGCG
2271,GGCGCCGAATTGATGGTAAG
2272,GGGGAAGACAATCTCGAACC
2273,TGCAGCGGCTCGAAGGAACT
2274,TCGGGCTGCATTACGGCACT
2275,GTAAGCAACAGGGCGGCAAG
2276,GGTCGCCACGATCGGGCCCG
2277,GTCGGGAACAAGGTGGCCAG
2278,TGAAGCGGAGGAATGGCCCG
2279,TTCGACCAAAAGGCCGCGCC
2280,GGCGGCGACGAGGTTGCGCA
2281,GGTGAAGAAGTTCGGGAGCG
2282,GCCGGCGGCGTGATGGCATG
2283,TTTGCCGAAGGTGTGGCCAC
2284,GTCGGAGACTATGCGGAGCT
2285,TTGTGCGGAAATCGGGACCG
2286,GGCGCTGAAGATCTGGAAAC
2287,TTGAGGGAAGAGATGGCGTC
2288,GGCGGATGCGATGGGGCGCT
2289,TTCAACGAAAAGCTGGAGCA
2290,TGCTGATGAATTCGGGCATG
2291,GGCCGACCAACTCTGGCAAC
2292,TCAGCCGAACTTGCGGCCCT
2293,GCGGACGACATTGCCGCACT
2294,GGTGGCGGAAAGGATGAGCG
2295,TGCGCAGCCAAGGCGGCGTT
2296,GGTGGCGAATATGACGTACG
2297,TTCGGCAAAGCTCGTGAAAT
2298,GCTGGTGAAGATCTGGCAAG
2299,GGCGCCGAACTTGCGGAGCT
2300,GGCAGGCAATCTGAGGCAAT
2301,TGAAGCCGATATGCTGCATG
2302,TGTAAGAGAATTATGGCCAC
2303,GCCAGCAACAAGACGGCCCC
2304,GCCGACGGCATGGCGGCCTT
2305,TTGCGCGGAAGGGAGGCGCC
2306,GCAGGCGACAATCCTGAAAG
2307,TGCGACGGCAAGCCGGTCCA
2308,TGCAGACAAGATCTCGCCCG
2309,TGCAGCGGCATACGTGCGAG
2310,TGCCGCCGAGGTGCGGCCTC
2311,GGCGGCGAAATGTTGGAACT
2312,TTTCGCGACACGGCTGAAAT
2313,GCCGGCAACCATCGGGCAAC
2314,GGTCGTGAAGAAGCGGCATG
2315,TGCCCAGAAGATGGCGAAAG
2316,GGGGCCGACAAGAAGGAAAA
2317,GCGGGCGACACTGTGGTGAC
2318,TTCTGCGAAGATGTCGCCCG
2319,TTTGGCAGAAAGAAGGTCAG
2320,TCCCACGGCATTGCGGACAT
2321,TGACGCCAAAAGCTCGAGTT
2322,TTCGCCGGCCTTATGGCAAT
2323,TTTTACGGCAATGCGGCCTT
2324,TGGTGCGCAGTTCCGGCGCT
2325,GGCAGGCGAGATGCGGCCAG
2326,GGCCGCGCCGAGCGGGCGAT
2327,TGGACAGGAGTGATGGCAAA
2328,TCAGGCCAAGCGAAGGCATG
2329,TGCGGCCGATCTCTGGCGCG
2330,TGTCGAGGCGTTCGCGCATT
2331,GGGAGTGGAACAGCGGCATT
2332,GCTGGCGACAAGCTTGCCAT
2333,GGGCGCGACGTGCTGGCGAA
2334,GGCAGCGGCAATGGCGAGAG
2335,TTTCGCGGCAGGCGGGCAAG
2336,GCAAGCGCAAAGCCGGCGAT
2337,TGAGGCGAACAGGCCGTGAG
2338,TGCGGATGAAAGAAGGCGAA
2339,GGCGCAGAAGCTGTGGAGCC
2340,TTAAACGGATAGGCGGCGAG
2341,TTGGGCGACCAAGCCGCAAT
2342,GTAGCCAAAAATGCCGCAAG
2343,GGGACCGGCAAGGTGGACCT
2344,TTCGGCAGCGTGCCGGTACC
2345,GTCGACGAAGAAACCGCAAC
2346,GGCAATGAAGATACGGCCCC
2347,TGCTGCAAATTAACGGTAAT
2348,GGCGCCCGCAATCCGGCAAA
2349,TCGAGCAACTTTGCGGCAAG
2350,GGCTGCCGAGAGCGGGCGCT
2351,GGCCGAGACGATGCTGCGTC
2352,TGCGCCGAAGAAGGCGAGAT
2353,TGGGGCGAGAAGCCGGCCAT
2354,GGTGGAGGATCTGCGGCGCG
2355,TTCAGCGACGTGCAGGAACA
2356,TTCAACGCCAAACCGGCAAC
2357,GTCGAGGAATTTGTGGAAAT
2358,GCCGGAGACGAGGAGGTCAT
2359,TGCAGAAAATCGGCGGTCAT
2360,GGGCGGAACATTCAGGCATC
2361,GCCCGCGAAGTGGAGGAGAC
2362,TGCTGCAGCGAAACGGAAAT
2363,TGCCGGCGAGATGAGGCGTC
2364,TGCGCCTGAAATCTGGCGCG
2365,GCAGCCGACGATGGGGCAAA
2366,TGCAGTGGCGTGACGGCGAT
2367,GGTGCCGGAGGGCCGGCAAT
2368,GGCGGCGCAATTGCCGAGCT
2369,TCCGAAGACACGACGGCGCT
2370,GGAAGACGATCGCGGGCAAT
2371,TGGCGAAGCATGCCGGCGTC
2372,GGCGGTAGAGCTGCGGCAAG
2373,TGAGACGGAGGGCCGGCGCG
2374,TGACGCGGACCTATGGCCTG
2375,TGCGCAGGAGCTGCGGAGCC
2376,TTCGGCGAAGCTGCGGTGTA
2377,GGCGGCGCCAATGGTGCGCG
2378,GTCGGAGGACAGGCGGAACG
2379,TTGCGCAAAGCTGCGGCGCG
2380,TGAAGGAGAAAACCGGCGCG
2381,TCTGGCCAAATAGCGGACCG
2382,TTCAAAGGCGCTCAGGCAAT
2383,TGGGGCAGCGAGGCTGCCTT
2384,TGCGAAAGCACGATGGAAAG
2385,TGCGAAAGAACGATGGTCAC
2386,TGAGGATGACAGCGGGCACG
2387,GGACAGGAATTTGCGGCCCT
2388,TTGGCAAACAAGCCGGAAAT
2389,TGCGATGACGATGGTGCCAT
2390,GGATGAGGAAATGCTGACCT
2391,GGAAGAGAAGCAGCGGCGCA
2392,GGCGGAGGCGCGCTGGAGAT
2393,TGTCGAGCCGATCAGGAACT
2394,GGATGCGACCAGGTGGCGTC
2395,GGCGGTGAAACGACGGTGAC
2396,TGCCGCTAAACTCCGGCGAA
2397,GCAGGGAAAGCGGCGGCAAT
2398,GGCAGCGGCCAGCAGGCGCT
2399,GGCGGCAACACAGCGGTACA
2400,TTCGGCAGCAGGATGGAAAC
2401,TGGCCCGAAAAAATTGTACT
2402,TGCAGTGAATATAACGCACT
2403,GTGCGCGAAGTGGCTGAACT
2404,GGACGGAGAAAAGAGGCGAC
2405,GCAAGAAGCAAGGGGGCGAT
2406,GGAACAAACAAGGGCGCAAT
2407,TGGGACGACGTTCTCGACAT
2408,GTGGGTGAAGTTCTGGCGCT
2409,TCTGCCCGCATTGCGGCACC
2410,GGCAAAGAAAAACCCGCGCT
2411,GGAGAAGAAGTTCGCGAACG
2412,TGGCAAGAAGCGCGGGACCT
2413,GGCGGCGGCGCGACCGCATT
2414,TGACGCGGAGCTCTTGCCCG
2415,TTCGGCAGCCAGAAGGCATT
2416,TGCCGGTACACGCCGGCAAT
2417,GGACCAGAAGATGTGGTCCG
2418,TTCCCGGAAAATGAGGTATC
2419,TGACGCGGCGCGGACGCATC
2420,TTGCGCGACCCGGCGGCATC
2421,TGCTCGGAAATGCCGGCGCT
2422,GGAGACGGCGGAATGGCACT
2423,TGCCGAGAAGTGCGTGCGAA
2424,TGATGCGGAGAAGGTGAACG
2425,TGGAACGACGGGACGGCATG
2426,GGTCACGGAATTCCTGCCAC
2427,GGCCGCCACAAGGGCGCCCG
2428,TGCCCAGGCATTGCTGCCAT
2429,TCGAACAGCATTGCGGCCAT
2430,TGCGACGGATCGCAGGCGAG
2431,TTGAGCGGCCAGGTGGCGCC
2432,TGCAGACACTAGATGGACCT
2433,TGCCACAGAACTGCTGAAAC
2434,TCCTGAGGCATGCCGGCCAT
2435,TTGTGCGCAATGCTGGCGAT
2436,GGCGGCGGAGATGCGGCTCT
2437,TGGCGCGAAGCTGGTGACCG
2438,GCTCGCGAAAGAGCGGCACG
2439,GGTCCAGACATTGATGCAAC
2440,GTCGCCGACGAAGCGGTAAC
2441,GGTGAAGGCAGTGCGGCAAA
2442,GGGTGCGAAAAAGGCGCGCG
2443,TCGGCCGAAATGCGGGAGCC
2444,GTGCGCGCAACGGAGGCATT
2445,GGTTGCGACCAGCAGGCAAG
2446,TCGGGCGGCATTCGCGCCAC
2447,GGCCGCGGCACGCGGGCGAA
2448,GGCCGCAACAAGGATGCCCG
2449,TGACGCGGCGCAAGGGCGCG
2450,GGCGGACACAAGCCGGAGAA
2451,TTGAGCAGCATAATGGCGCT
2452,TGCGGCGGCACTGATGTCCG
2453,TGCCGCCCCACGAGGGCATC
2454,TGCAACGGCGCGGCGGTCAC
2455,TGGAGCAGCATGGCCGCGCC
2456,TGCCGGCACATGGAGGAAAA
2457,GTCAGCGAAGCGGGCGAAAC
2458,TCGGCAGAAACTGCGGCGCG
2459,TCAGGCCGAATTAAGGTGTT
2460,GTCAAACAAATTGCGGAGAC
2461,TCGAGCTGAAATATGGCGAC
2462,GTCGGCGCATCTGCGGCAAG
2463,TCCGGAAGAAAGAGGGAGTC
2464,TCCTACGAAGAGGCGGCGCG
2465,TTCCGAAGAAGGGCGGCCAC
2466,GGGAGAGGAGCGGCGGCCAA
2467,GGAAGAGACGATGGCGAGCC
2468,GCGCGAGAAGATGTTGAAAT
2469,GCGGGCGAAGTTGACGCGCT
2470,TTGGCAGAAACAGGCGCAAT
2471,TTCCGCGACCTTGCGGTGCT
2472,TGCGCCGGCGAGGTCGCCCC
2473,TGGAGCCGCGAGGAGGAGTT
2474,GCAGCCAAAATGCTGGCCAC
2475,TTCCGAAACAAGCAGGAGCT
2476,TTTCCCGACAATGCGGCCCA
2477,GGGAGAGACGAGGATGCCTT
2478,GCCAGCGACATAGAGGTCCT
2479,GGAAGCGACCTGGCGGCGCA
2480,TGACGCGCCGTGAAGGAATC
2481,TGCAGCAGGAAGGCGGCAAT
2482,TTACGCGGCGTTGCTGCGCT
2483,TGGTGAAGAACGCCGGCGAC
2484,TGTTCCGAAAATGGCGAGAT
2485,TGGAGCAACGGGGCGGACAT
2486,GCTAGAGAAAATGTTGCGCG
2487,GTAGCCGAAGATCGTGCCAT
2488,GTGGGCCAAGTTCGCGCAAG
2489,GGCGGCGACCTGCAGGAGTT
2490,TTCCGTGAAATGACGGCGTG
2491,GGCGGAGACGTGCACGCCTT
2492,TGAGGATAAGTAGCTGAAAC
2493,GCGAGCGGAGCGGAGGCACG
2494,TGCGGCGGAATTGATGCAGT
2495,GTCGCACACAATGTGGAATC
2496,TCCGGCAACGGTGCGGCGAC
2497,TGGCGACCAGTGACGGCAAG
2498,TGGCGCAACAGGCAGGCGCC
2499,TTTGCCGGCGAGGCGGCGTT
2500,GTAGGCCACGATCCGGCCAA
2501,GGCCGGACAAAGGTGGAAAC
2502,TGTAGAGGCGATCGTGCACA
2503,GGCGCCGAAGATGCCGCCAA
2504,AGCGGCGGAATGGCGGCGAC
2505,TCGAGAGCAAAGAAGGCCAC
2506,GTTGGCGAAGTGCATGCGCT
2507,GCAAGCAACATGATGGCGAG
2508,GGACGGCGAATGAGGGCGCC
2509,TTCGGCAAACAAGTGGCGAA
2510,GGCCGGCAAAATGATGCGCT
2511,TGTGAGAGCGAGGTGGCGAT
2512,GGCGGACGCAAGGTCGCGTT
2513,GGAGAAGACGATATTGCCTC
2514,GGGCGCAGCATGACGGCGCG
2515,TGAGGAGATGTTGCGGCGAT
2516,TGAGGCCGATCGGAGGCGTG
2517,TGCCCTGGAAATCCGGTACC
2518,GCAAAGGAAAATCCGGCAAA
2519,TGCCGCCAAGGGCGTGCACC
2520,TCCGGAGAAAAGAGCGAGTC
2521,TTTTGCAAAGCTGCGGAAAG
2522,TGGGAAGACGCAGCGGTGAT
2523,GTTGGAGAAAGTGCCGAAAC
2524,TGGCGGAAACCTATGGCAAC
2525,TGCTGCAACGAAGTTGCCAT
2526,GGCGGCGACGAAGACGTCAC
2527,TGAGGAAGCGATCGCGAAAG
2528,TGCCGCCGAACTGGCGAATG
2529,GGCCGCCGCAATCGCGCGAT
2530,GGTGGACGCATGGCCGAAAT
2531,TGACGCGGCACTGGCGAGTT
2532,TCATGCGCAGAGGGGGCGAT
2533,GTGGGAGACATTACCGCAAA
2534,GGAGACGGAGAGGCCGAGAC
2535,TGCGCGAAAGCGCCGGCATT
2536,TTCGGCGCCGCTGCGGCGAG
2537,GTTCACCACGATGTGGCCAT
2538,TGACCCGCCGAGGCGGCGAT
2539,TTCAGGGACCATGCGGCCAG
2540,GGTAGCCGAGATGCTGAAAG
2541,GGCCGCCGACATATTGCAAT
2542,TCGGCCGGCGAGGCGGCGAT
2543,TGCAACCGCGTGAAGGAACC
2544,TGCGAAGGATGTCGGGAATT
2545,TTTAGCGGCATTCTCGAAAG
2546,TGCGCAGGCAGACTGGCATC
2547,GTCGACAAAGATCGGGTCCC
2548,GGCCGCAACGCTCGGGCGCG
2549,GTTGGCTAAATGATGGACCT
2550,TTCGCCGACGATCTCGCCAT
2551,GGCCGCCGATCTGTGGAAAG
2552,GGCGGGGACGAGCTTGCGAC
2553,GCGAGCCCAATTATGGCAAC
2554,GTCAACGACGCAGGGGAAAT
2555,GTGCGGGAAAAGGTTGAACT
2556,TGACGCGCAACACAGGCGCG
2557,GCCGGCGACAGGGCGGTGAT
2558,GGCGGCAACACGATCGCCTT
2559,TCTCAAAAAATTGCTGCAAC
2560,TTGAGCGAAAGGCCTGCCAC
2561,GGTAAAGAAGCACCGGCATG
2562,TTTGGCAAATTGCTCGCACC
2563,GCGGACAAAGTTGCGGCGTT
2564,GGCGGAAGCCAAGGGGCGAT
2565,GGAAACAACCAAGGGGCATC
2566,TCCGAAGACAAAGTCGCGAT
2567,GGTACCCGAAAAGCGGCAAA
2568,TGCGGCGACGAGGGGGCAAT
2569,TGCGGCGAAAAGGGTGCAAT
2570,TGAAGAGAAAAGCGGGCGCT
2571,GGCGGCGACACGGCGGCACT
2572,TGCGCCGAAACTAGGGCAAT
2573,GGAAGAGAAACTAGGGCACT
2574,TGTAGCGAACATGCGGCATT
2575,TGCGGCGGCACTGCGGCGAT
2576,GGCGACGGAAAGAAGGCACT
2577,GGCAGCGAAAATCCGGAGAT
2578,TGACGAGAAGATAGGGCGAC
2579,TCCGGCGGCAATGGGGCAAG
2580,TTCGGCGACGATGCGGCCCT
2581,GGAGGCGACAATGTTGAAAT
2582,TGCAACGACAATATGGCGCT
2583,GGCGGCAAAAATGTGGTCCC
2584,TGCCGCGACATTGCGGTGAC
2585,TGACGCTGAAATCGGGCAAT
2586,TGCCGAGACGATGCGGCCTT
2587,GGTCGCGACATAGAGGCAAC
2588,GGCGGCGAAAAAGTCGAACT
2589,TGTGGCGAAGCTGCTGCACC
2590,GGCGGCGAAGAACTGGCGTT
2591,TCCGGAGGAATTGAGGAACT
2592,GGAGGAGACGATCCGGCGCT
2593,TGCCCGGAAAATCCGGCAAT
2594,TGGAGCGAATAGGCGGCGTT
2595,GGACGCCGAAATACGGCATC
2596,TTCGGCGAAGAGGAGGTCCT
2597,TGTCCGGAAATTGCGGCAAT
2598,GGAGGAGACGAAATGGCATC
2599,TGTGGCCAAAAGGCTGCATG
2600,TGGGGCGGAACGGTGGTGAC
2601,GGCGGCGACTATCCGGCGAT
2602,GGAGACGAAAATGCCGAACC
2603,GTCCGCGAAGAGGCGGTAAT
2604,GGCGGCGGAAATGATGAAAG
2605,GGACGAGAAAGTCCGGCATT
2606,GGAGGAGACGAACTGGCACG
2607,TTCCGCGACAATGCGGAAAA
2608,TGTGGAGCCATGGCGGCAAG
2609,TGACGCGGCAATCGGGCGTG
2610,TGCCCCGGAGATGGGGAACT
2611,GGCGGCGGAGAGCTGGACAC
2612,GGCGGCGAAACGACGGTGAC
2613,GGACGCGCCGATGGGGCAAT
2614,TGCGGCGACAAGCCGGTCAA
2615,TTCGGCGGAATTCTGGTCTT
2616,TGCGGCGGCTATCCGGCCCC
2617,TGAAAAGGAAAGGCGGAGCT
2618,GCCGGCGACATGCCGGCATC
2619,GCCGGCGACGTTGCGGAAAT
2620,GGCGAGGAAAAGCCGGCGAT
2621,TGTGCCGAAATGACGGCGCG
2622,TGCAACGGCAATCCGGCGAG
2623,GGAGGCGAAGCGCTGGTATC
2624,TCGAGCGACATAGCGGCAAG
2625,GGAGCCGAAATACCGGCGAT
2626,TGCGGCGGAGCGCCGGCCCG
2627,TGAGGTGAAGAGATGGCCAG
2628,GGAAGAAGAACGGGGGCATT
2629,GGCAGCGAATTTGCGGTCAT
2630,TGTTGAGGAGCTGCGGCAAC
2631,GTAGACGGAATGGCGGCCCT
2632,GGGGCCGGAGAGGGGGCAAG
2633,GGAGCAGAAGCTCCGGCAAT
2634,GTCCACGACAAGGTGGCATC
2635,TGCGCCGGCGTGGCGGCATC
2636,TGCCGCGAAAGGGCGGTGAC
2637,TTCGGCCGCAAGGCGGAACC
2638,GGCCGGGAAAATGTGGTGAC
2639,TTTGGAGACACTGTTGCAAT
2640,GGGAGCCGCAAGGGGGAAAT
2641,TGACGGGAAGCTGCGGCATG
2642,GGACGGGGAAATGGGGCCTC
2643,GGCGGAGGAAAAGGCGAAAT
2644,TTCGGCGACGTGCTGGAACG
2645,GGACACAACGATGGGGCACC
2646,GGCGGCAGACATAGGGCACC
2647,TGTCGAGGCCATGCGGCAAC
2648,GGAGGAAGCGAGCTGGCACT
2649,TGAAACGACGAAGCGGTACC
2650,TGGAGAGACTTTCCGGCATC
2651,TGCCGCGAAGCGGCCGCAAG
2652,TGAGGCGAACATGTCGCACA
2653,GGCCGCGAAAAGCTTGAAAG
2654,GGCACCGACGTGATGGCAAT
2655,GGCGGCGAAGAGATCGAATT
2656,TGCAAAGACATTCCGGACCT
2657,TCAGGGCAAATGGAGGCAAC
2658,TGCAGAGAAATACCGGAATA
2659,TGCCGACGAAATCCGGTATC
2660,GGCGGCCGCATGACGGCGAT
2661,GGTGGAAACAATCGGGCCTC
2662,TTCCGCGGCAAACTGGCACG
2663,TGCCAACAAAAAGGGGAATT
2664,TTCGGCGAAACGCGCGCATC
2665,GGCGAAGGAGATCTGGCCTT
2666,TGGCGCTGAACGGCGGCAAT
2667,GGCGGCGAAGAGGCCGAGAT
2668,TGAAGCAGACATCAGGCATT
2669,GGCGCCGGAACTGCGGAATT
2670,GGGGAAGGAAATCTTGCACT
2671,GGCAACGACACGATGGCCAT
2672,GGTTGCGACAGGGCGGCAAT
2673,TTTCGCGGCGATGCGGCGAT
2674,TGCGACCGAAAGCGCGCAAC
2675,TGCGGCAAAACTGGCGCGTC
2676,TGACGCCGCAAAGCGGAATT
2677,GGCGGCAACGAGAAGGCGAC
2678,TGCGAACGAGCTGGGGCAAG
2679,GGTAGAGGAAAAGCGGCGCG
2680,TGGAGCGCAAAGCCGGCCCG
2681,GGCCGAAACAAGCCGGAAAC
2682,TGGCCCGGAAAGGCGGAACG
2683,GGCCACGAAGTGACGGCGCT
2684,TGCCGCCAAACGGATGCACC
2685,GGATGCGACATGGTGGTGAT
2686,TGCCGGAAAATTCCGGCCAG
2687,GGTGACGGAACGGCGGAAAG
2688,GGCGGCGACGAACCGGTCAT
2689,GCCGGCGACGAGACGGCACG
2690,GGCGGACAACAGCCGGCACC
2691,GGCGAAGGAGAGCGGGCGAC
2692,TTCAAAGAAATGCGGGCACA
2693,GGCGACGGAAAGGTCGCGAC
2694,GTCCGCGGCATGGCGGAAAC
2695,GGAGGCGGCAGTCTGGAACC
2696,GGCGGCGGCGAGACGGCGCG
2697,TGCAACCGAGAAGCGGCATC
2698,TGGCGCGGATCGGCGGCATC
2699,TCACGCGGCATGGGGGCGCT
2700,TCCGGGCGAAATGCGGCAAG
2701,TGGCGCGGCATTCACGCACT
2702,GGCAAGGAAAATCTGGCGTT
2703,TCGGGCGGCAAAGCGGCGCT
2704,TGAGGAGAAGAGGTCGACTC
2705,GGCGGCGACGTGCTGGTAAA
2706,GGACGAAGAAAGGCCGCAAT
2707,TGCGGCCGAAAGCGTGCGCC
2708,GGCCGAGAAGCGATGGCGAC
2709,TGCGGCGGCTCGGCGGCGAC
2710,TGCGGAAGAGAGGCGGCCCA
2711,GGCCGCGACACGCTGGCCCG
2712,TCCCGCGAACAGGTGGCGAT
2713,GGTGACGAAAAGCGCGCCAC
2714,GGAGGCGAAGAGGACGCGCG
2715,TGCGGTGAAGTTCTGGTCAC
2716,GGAGACGACGAGCAGGTACC
2717,GGTTGCGAAATGCCGGTCAT
2718,GCCCGCGGAACGGCGGCATT
2719,GGTGGCGGAGCACTGGCACG
2720,TCCGACGACACGGCGGTAAT
2721,GGTGGCGGCATGGCGGTGTT
2722,GCCGACGAAATAGAGGAAAC
2723,TCCGGCGGAGAAACGGCGAC
2724,GGCGCCGGCATGCAGGCAAG
2725,GTCCAAGAAATGCGGGAAAT
2726,GGCGGCGGCAAGCGCGCCCT
2727,GGTGGAGGAAAGCGGGAATA
2728,TGCGCCGACGCGCCGGCATC
2729,TTCGACGGCATGCCGGCGCT
2730,GCAGACAAAATTCAGGCACC
2731,TGCGGCGGAAAAGGCGACCG
2732,TGGCGAAGAAGGGCGGCACC
2733,TCCGGAGAAACGGAGGAGAC
2734,TTCCGAGGCATTCCGGCCCC
2735,TTCGGCGACGATGTCGTATT
2736,TCACGAGGAAAAGCGGCAAA
2737,TTCGGCGGCAATCAGGACCG
2738,GCCGGCCACAATCCGGCGAT
2739,GGAGACAGAATGCGGGCCAG
2740,GGCGGCGAAGTAGTCGCGTT
2741,TGCCGCGGCTTTACGGCGCT
2742,TGGGCCGGCAAGACGGCGTT
2743,GGAGGAGGAATGCATGAAAC
2744,TTCGGCGGAAAGCGCGAATC
2745,TGCAGCGGAGCTGCTGCGCT
2746,TGTCCGGAAACTCCGGCAAT
2747,TTGAGCGACATGGTGGTGAG
2748,TGCCGCAGAAAGCGGGTCTC
2749,GTCCGAAACAAGGCGGCCAT
2750,GCCAGCCACATTGCGGCCAT
2751,TGAGGCGACACGAACGCCCC
2752,TGCGGCGGCACGACTGCGAT
2753,GGAGGCGAAGGAGTGGTACG
2754,GCTGACGGCAAGCGGGCAAT
2755,GCGAGCGACAAGCCGGCGAT
2756,TTGGAGGAAATGGTGGCGTT
2757,GCCGGAGAAGATCTGGCGCG
2758,GCAAGCGCAATGGCGGCACC
2759,TGCGACGACAGGCCGGCGAG
2760,GGAAGCGGCCTTCGGGCAAG
2761,TGCGGCGGACCGCCGGCAAA
2762,TCCAGCCGAACGGCGGCAAG
2763,TCAAGCGGATTTCCGGCAAG
2764,GGGAACGGCAATGTGGTGAT
2765,TTCAACGAAAATCTCGCGCT
2766,GGTGGCGAAAGTCGCGAAAT
2767,GGACGAGGCAAAAAGGAAAC
2768,TTCAACGGCATTCCGGCGCT
2769,GGAAGAGGCGTTACGGCAAA
2770,TGGCGCGGCAAGGTCGCCTT
2771,TCTACCGGAACTGCGGCAAT
2772,TTCGGCGGCAATGCCGACAT
2773,TTCGGCGGCAAGGCCGCCTT
2774,GGTCGCAGAAATCCGGCGCG
2775,TGAGCCGCAAAGGCCGCAAC
2776,TGGCGCGAATGAGGGGCAAG
2777,TTCACCGGCAAGGCGGAACT
2778,TGCCCCGGCAAGACGGAATT
2779,TGCGAAGAAAATCATGAAAA
2780,TGCAACCACGAGGCGGCGAG
2781,TCGAACGAAAATCCGGTCAT
2782,TTCGGCCGCGATCCGGCCCT
2783,GGAGGCAACGAGAAGGCGTC
2784,GGCGACGACGATCAGGTGAT
2785,GGCCGACAATTGCCGGCACT
2786,TGGACCGCCAATACGGCAAC
2787,TGAAGAACCAAACCGGCAAT
2788,TGCAGCGGCGGTAAGGCACG
2789,TTCGACGCCATGACGGCAAC
2790,TGCCGCGAAGAAGCCGAGAT
2791,GGCCGCGAAGTGATCGTAAT
2792,TCTGGCGGAGATCCGGACAC
2793,GGCGGCGAAGGTGTCGCCAC
2794,GGTCACGAAATTCAGGTCAC
2795,GGAGGCGCAATTGCCGAACC
2796,TGCGGAGGCATTACCGCGAG
2797,TGCGGCCGCGATCGGGTGCT
2798,GGCGGCGAAGTGCACGAAAG
2799,TGACGGCGAAATCCGGCGCC
2800,TGACGACGAGCTGCGGAACC
2801,GGTGGAGGAGTACCGGCAAA
2802,GGAGGCGGAAAACACGCGAC
2803,TTGACCAAAGTGGGGGCAAC
2804,GGCACAGGAATGAGGGCCAC
2805,TGCCGAAAAACTGCTGAACC
2806,GGAGGCGACCATGCCGCCAT
2807,TGCAAACGATTTGCGGCATT
2808,GGATGCCGAACTGTGGCATG
2809,GGTGGGGACGATACGGCCAG
2810,TGGGGCGCCAAGGCGGCGCA
2811,TGCTGACAAAAAAAGGAAAG
2812,TTCCAAGAAGTTGCGGCGCG
2813,GGCCGCGAAGCGGTCGCCAT
2814,GGCAGCGGCATTGTTGCCCG
2815,GGAGGAAAACATCCGGCGCC
2816,GGCGGCAACCAGATGGCGAT
2817,TTCAGCGACGCGACGGCGCT
2818,GTCGACGACAATGTCGCGAT
2819,GTCGGCGACATAGGCGCACG
2820,TGCCGCCGCAGAGAGGCAAT
2821,TGACGCGCAATACCGGCCCG
2822,GGAGACGAAGATCCTGTATT
2823,TTCTGCCGCAATGCGGCGAT
2824,GGCCGCGAAGTGCCCGCGAT
2825,TGCGGAGGCGAGCATGCACG
2826,GTCGGCGGCAAGCAGGCGCG
2827,TCGGGAGGAATGACGGCGCG
2828,TTCTGCGACGAAACGGCATC
2829,GGGGGCGGAGAAGCGGAATA
2830,TGTGGGCCAATTGCGGCCAT
2831,GGTGGCGCAACAGCGGCATG
2832,TGCCGGGAAGGTCAGGCAAG
2833,TGATGCGACGCGGCTGCAAC
2834,TGTTGCGGAAAGAATGCCAT
2835,GGGACCGGCACTACGGCAAT
2836,GGCGGAGACAAACGCGCGCT
2837,TCCGGAGCAATGCGGGCGAT
2838,TGGCGGCAAAAACGGGCATG
2839,TGCCGGAAAGAGCGGGCGCC
2840,TTCGGCAGCACGAGGGCGAT
2841,TGGGGCCACGATCTCGCGAT
2842,TGCGGAACAGATGCGGCCTG
2843,TGCGGACAACGGGCGGCAAG
2844,GTACGCGACGAGGAGGCGAG
2845,TGAAGCAGCGCAGCGGCATC
2846,TTCGACGACACGGGCGCATT
2847,GGCGGCAGCTATGAGGCGCT
2848,GGCGACGACATTGCCGAGAT
2849,GGCAGCCACATGGCCGCCAT
2850,TGGGCCGGCACGGCGGCGCC
2851,TGTCGCCGAAATACCGAAAC
2852,TGCGGCCAATAGCTGGTCCG
2853,TGGCCCGCAACTGCGGCACC
2854,TCCGGCAGATTTGCGGCGAT
2855,TTCGACGAAATGGTCGAGCT
2856,GGCGGCGAACTGGCCGAACC
2857,TGCCGAACAGAGCCGGCATT
2858,TGCGATCACAAGGGGGTACT
2859,GGCGGCGAAGTGATTGCCAA
2860,TTGCGCAGATTTCCGGCAAT
2861,TTGCGAGAAAAAGCCGAAAC
2862,TGCGGCGGAACGGCCGACCG
2863,GGCAGCCGAGAGCCGGCCCG
2864,TGTCGAAGAAATGCTGAAAG
2865,TGCGACGGAGCGCAGGAGAT
2866,TGACGAGGCGTTGGCGAAAC
2867,GGGCGCGGCAAAGCCGCACC
2868,GCCGGCGAATAGACGGCGCC
2869,TGGGGCGCCGATACGGTCAT
2870,GGCAGCAGATTTCCGGCGAT
2871,TGATGCTGAAAAGCGGCCAC
2872,GTCGACAAAATGGAGGAGAT
2873,TGAAGTGGAAATGCTGCGCC
2874,GTGCGCGGAAAGCCGGCGCG
2875,GGAGACAAATTGACGGCGAT
2876,TTGCGCGGCATGGAGGCATA
2877,GGTGGAGGAAATAGTGAGCT
2878,TGGGCCCGCAATCCGGCGAC
2879,GGCCGAGGAATTGCTGCGCG
2880,GGTGAAGGAGAGACTGCAAT
2881,GGTGACCGCGATGCGGCGAT
2882,GGCGCCGGAACTCTGGCGCG
2883,CGCGGCGAAAAGGTGGCGCC
2884,TGACGAAGACCGGCGGCAAC
2885,GGACCGGAAATGCAGGCACC
2886,TACGGCGAAATGGCGGAACT
2887,GGTGACGCCATGGCGGCGAT
2888,TGGGGCGGCGAGCTTGCGCC
2889,TGCGCCGGAGATGCTGAACG
2890,GGAGGCGGAGATGCTGTGTT
2891,TGCCGGGGCAAACAGGCATG
2892,TGCGACGAACCGATGGCGTC
2893,TGATGCCGACTTGCGGCACG
2894,GTCGACGACATGACGGACAC
2895,GTAGCCGACATTGACGCAAT
2896,GTCGGAGGACATGGTGCAAT
2897,GGCAAGGACAAGCCGGCGCT
2898,TCCTGCGCAAAGGCGGCCAT
2899,TGGTGCCGAAGGGCGGCAAG
2900,TTCGCGAAAAAGGGGGAACT
2901,GCAGGAGAAATGCCGGCCCA
2902,TCCGGAAGCAAGCCGGCCCT
2903,GGAAGCGAAGAACGTGTATT
2904,GTCGGCGACCAGGCGGCGAG
2905,GGCCGCGACAATCTCGAGAC
2906,GGCAACGACCATGTGGCCCG
2907,GGACGCGGCGGGGCGGCATC
2908,TGGGGCGCCATGGTCGCCAC
2909,GGCTGCAGCACGCCGGCAAT
2910,GTCGCCGAAATGCCGGACCT
2911,GGAGAAAGCGATGCGGCGCT
2912,GTCGCCGAAAAGCTGGTGAC
2913,TGACGATGAATGGCTGCAAC
2914,TTCAGAGAAATAGGGGAGCA
2915,TGGCAGCAAATGACGGCATC
2916,GGTGGCGCAAAGGCCGCGCT
2917,TTTTGCCAAATACTGGCACG
2918,TGAGGTGAAGCTCTGGAAAA
2919,GCCGGCGACTTGCCGGCAAG
2920,GGAGGCGACGCGCGGGTGCC
2921,TGCCGAGACGAAGATGCCCT
2922,GTCGAAGAAGCGGCGGCGAC
2923,TGATAGGAAACAACGGCACT
2924,TGCGGAGGCGAAACGGACCG
2925,TGACGTGGCGTTACGGCATC
2926,TGCGAGAAAAATAGTGCCCT
2927,GGGGCCAGAACGCCGGCAAC
2928,GCCGGCGGAAAGCAGGACAG
2929,TTCGGCAGAATGGTGGTCAA
2930,TTCGGCGACGAGGATGCGTC
2931,GGCAAGGAAACACTGGCAAG
2932,TGTCGAAGCGAGCTGGAACT
2933,TTGGCAAAAAAGGCGGTAAG
2934,GCCGGCAGCGTGCTGGCAAT
2935,GTCGGCGACAGGCCGGCCTT
2936,GGCTGCAGAACGGTGGCCTT
2937,GGCCGCGGAGTGATCGCCAT
2938,TGGCGCGACAAGACCGAGCT
2939,GGCAGACCAGTTCCGGCAAC
2940,GGCGGCGAACAGCTCGAATT
2941,GCTAACGAAAAGCCGGCGCC
2942,GCCGGAAACGATGCGGCGCT
2943,TGGCGGCGAATTCCGGCCCC
2944,TGGGGCGAATAGCCTGCCTG
2945,GGCAACGGCAATGCCGCGCT
2946,TGCTGCGCAAGGAAGGCAAC
2947,GGTGGCGACTGGGAGGCATC
2948,TCATGCGGATTTCAGGCAAT
2949,GGACGAGGAGTGGCGGCGCA
2950,TGGGCCGGCAAGCCGGCCAA
2951,TGGGCGGGAATGCCGGCGAC
2952,GCACAAGGAAAACCGGCAAT
2953,GTCGGCGGCGATGGGGTGAG
2954,TGGGACGACGAAGTCGAACC
2955,TGATGCCGACATCCGGCATC
2956,GTCGACGGCAAGGCGGTCCT
2957,TTGACCGGAAAGCCGGAAAG
2958,TTACGCGGAAGGCCGGCGCC
2959,TTGCGCGGCAAGGCGGCGCA
2960,GGCGCCGGAGTGGTGGTGCT
2961,TGAGGCAGCTATAATGCACT
2962,TGCGACGGCATGGCCGACCT
2963,TGGGGCGCATATCGGGAGCT
2964,TGACGACGCAAGCGGGACCC
2965,TTCCGCCACGAGGTCGCACT
2966,GTGGAAGACATGGTGGCGCG
2967,GTCGGAGACGATGAGGTACA
2968,TTCGCCGGCAAGGTCGCATT
2969,TGCAGGGACCAGCCGGCCCT
2970,GGCGGCCGATCGATGGCATC
2971,TGCGGAAAAACAAGTGCCCC
2972,TTCGGCGGCGAAGTTGCGAT
2973,TGTGCAGGAAATCATGAAAC
2974,TGGGGCGCATATGCGGACCG
2975,TTCGGCGGCATGCTCGCCTT
2976,GGACGACCAGATAGGGCACC
2977,TGAAGGCGCAATATGGCGTC
2978,GGTACCGACGATGCGGCGCG
2979,GGCGGTAACATGCAGGAAAT
2980,TGCCGCAACGCTCCGGCGCG
2981,TGCCGCCGAACAGACGCAAC
2982,TGCGGCCAAGTTCACGAATG
2983,TTCGCCGCCAAGGCGGCCAT
2984,TGCGCCGCAATGCCGGCGCG
2985,TCCACCGAAAGGCCGGCACT
2986,TCCGGCGCAGTGAAGGCCAT
2987,GGAAGCGGATCGCCGGAACC
2988,GGTGCCGGCGTGGTGGCGCT
2989,TTCGACGAAGAGCTCGCCTT
2990,GGCGGCGACGTGCTGGTGAA
2991,GTCGCCGGCGAAGCGGCACT
2992,GGTGATGAAGCGGCGGCACC
2993,TTCGGCGACCCTGCGGCGCG
2994,TCGAGCGGAACTGCCGCAAG
2995,GTCGGACGAATAAAGGAAAT
2996,TGCGGCCGCCAAACGGCACG
2997,GGACGAGAATTGGCGGACCG
2998,TGTCGGGAAAATCCTGCGCG
2999,GGGCAGCAAATTGCGGAACT
3000,TTCGGCGACGCTGCTGCCAG
3001,GGAGGCGAACAGGCCGACCT
3002,CGCAGAGAAATTGCGGAAAT
3003,GGGAGGGGAATGACGGCGCG
3004,TGAGGGCGCCATGCGGCATC
3005,GGCTGAGAACTTCCGGAACC
3006,TCCGGCGGCGTGCTGGCGCG
3007,TGACCGGAATATCGGGCATC
3008,GCCGGCGGCGTGCAGGAAAT
3009,TGCAGCGGCTCGATGGCGCC
3010,TGTGCCGGAACGCAGGCGCG
3011,GCCTACGAAAAGCCGGAACT
3012,TTCGGCCGAAGTGAGGAGAT
3013,TGGAGCAGATAGCGGGCGTC
3014,TTCGGCGGCAGAAGGGCGCT
3015,TGCCCCGGAGAGGGTGCGAT
3016,GCCGGCCGAATGCCGGAAAG
3017,TGATGCTGAGAGCCGGCATC
3018,GGCGACGGAAAGCTCGACCT
3019,GCAGACGGAAAGACGGTCAT
3020,GGGTGCCAACTGGCGGCACC
3021,GGTCCACAAAAGCCGGAAAT
3022,TGCGAAGGCAGGCGGGCGCC
3023,TGTGAAAGAAATCGTGAACC
3024,TCCAGAAGAACGCTGGCATC
3025,TGCGGCGACGCTGCCGAGAG
3026,TCCGGTGACGATGAGGAACC
3027,TGGGCGGAAGCGGAGGCCAT
3028,GGTGAAGGAGATGCCGAACT
3029,TGAGGACGCGAAGTGGTGCT
3030,TTCCGCGACGATCTCGAACC
3031,GGCCAGGAAAATGCTGCGAC
3032,TGAAACGGATTAACGGCCTT
3033,TCAGGCCGCGATCTGGCAAA
3034,TTCCGAGAAGAGCACGCCAT
3035,GGCAAGGAAGTGATGGAAAG
3036,TGCCGAGCCGCGGCGGCATC
3037,TGCCGCGGCGCGAAGGCGTC
3038,GCCGGCCACAAAGGGGCGTC
3039,GGGGACGAATATCTTGCGAT
3040,GTCGCCGAACATCCGGAAAT
3041,TGATAAGAAATGGCGGTCAA
3042,TGGCGCCGCGTTGATGCACT
3043,GGCAGAGGACTTGCCGCACC
3044,GTCGGCGGCAATGTCGTCAT
3045,GGCGCCGACAAGCGTGCCCC
3046,TGATGGCGAAAAGCGGCATG
3047,TTCGCCGACGAGGCGGCCAA
3048,GGCGGTGGAATGGAGGCCCA
3049,GGGAGGAAAATGGCGGTCAC
3050,TGAGGAAGAATGAATGCGTC
3051,GCAGGCCGAACGGCGGTAAC
3052,TGCGCGAGAAATCCGGCGCC
3053,TCGAGCGGACCTCCGGCAAT
3054,GCGGGCGGCACTGGGGCGAG
3055,TGATGCGCAATACCGGCCTC
3056,TTGGCCGAAACACAGGAAAC
3057,TGGGGCGGCACTCACGAAAG
3058,TTCGAAGGAATAGCCGAAAT
3059,GGCGACCGCGATCTGGCGCC
3060,GGCAACGACCTGATGGCGAT
3061,GGTGGCTGAACTGGGGCGCG
3062,TTCGCCAAAACGGTGGCATA
3063,TGCCGACACGTTGCTGCATG
3064,GGCAGGGGAGATGTCGCGAT
3065,TGCGGCGAAAATCCGGTCGT
3066,GGACGAGAAGTTCTCGACAT
3067,TGGCGCCACAAGGATGAACG
3068,GGCGACGAAGGTGCCGCCAT
3069,TGGTGCTGAGATGCGGCGAC
3070,GGCGGCCGAACTCCTGCATG
3071,GGCAGCGAAGCGGGCGAGAT
3072,TGATGCCGAACTCAGGCCCG
3073,TTCTGGAGAAATACGGCAAG
3074,GGTGGCGACCATGGCGCCCC
3075,TCCAACAAAGAGCGGGCGAC
3076,TGGGGCGGCAAACCTGCCTG
3077,TTCGACGACTCGCCGGCAAG
3078,TTCGGCCAACCGCCGGAAAT
3079,GGACACGGCCAGGCGGCATC
3080,GCGGGAGGAAATCCCGCAAG
3081,GGCCCACACATGGCGGCCAT
3082,GGCGCCGACGAGGTCGCGAT
3083,TGGCGCTGCAATCCGGCGTT
3084,TGCCGAAGAACACCGGCACA
3085,TGAAGGGCCACTGTGGCGAC
3086,GCCTGGGAAAAGGTGGCGAC
3087,TTGCGCGGCACGGAGGCGAG
3088,GTTGAGGACAATCGGGCCCT
3089,GGCGGCGAACTGGTCGTCAT
3090,TTCAAGAAAACGAGGGCACT
3091,TGCAAAGGACATCTGGACCT
3092,GGCAGCGACACGGCGGACTA
3093,TGCCGCCGAGTGCGGGACCG
3094,TTCCGCCACTATCCGGAACT
3095,TGCCGCCGAAGGCTTGCAAC
3096,TCGGGAAGCAATGCCGCAAC
3097,TCACGAAGAACTACGGCACG
3098,TGGCGAGAAGCGCCTGAACT
3099,TGTAGCGGAAAGCGCGTCCG
3100,GGAGCCGAAGCGGCGGAACA
3101,GCCGGCAACAAGGCGGCCCA
3102,TCGCGGGAAAATCCGGCCTG
3103,TGAGGAAACTTGCAGGCGTC
3104,GGTGGCCACCTTCTGGTACT
3105,GGAAGCCGCACTCGGGCCCG
3106,GCCGGCAAAGTTCAGGCCCG
3107,GGTTCCGACGATGCGGCCCT
3108,TCGGGACGCAATGCGGAGAT
3109,TGCCGCAAACTGGTTGCCCT
3110,TTAGGCCGCATAGACGCACT
3111,GGAAGAGAAGCGAATGAAAT
3112,GGCGAGGACATGCAGGCCCG
3113,TCCTGCGGCGATACGGAAAC
3114,GGCGACGGCAAGCAGGTCCG
3115,TGGTGCCAAGAACCGGCCCG
3116,GCCGGCGGCATTCTGGAACA
3117,TTTCGCAACACTACGGCGCC
3118,GCCGAAGGAACGGTGGCGAC
3119,TCGGGCGGCGGGATGGCAAC
3120,TTCAGCGAAAAGACGGCAGC
3121,TTCGGCAACGAGGCGGACAA
3122,TGGCGAGGCGAACGGGCGCG
3123,GGGCGGCGAAAGCGGGCGAT
3124,TGGCGAGAACCAGCGGCGCC
3125,GGGGACCGACATGCGGCCCT
3126,TGAAGAAGCGCAGGGGCCAC
3127,GGGCGAGACGGTCCGGCACG
3128,TGCTGACGAAGGGCGGCCCT
3129,TGGCAGGAAATGATGGCGAA
3130,TTCGCCGACCTTGCGGCGCT
3131,TTCTGCAGCATGGCGGCCTT
3132,TGCGGACGAAAAACCGCACA
3133,TTTCGAGAAGTGCAGGTCCT
3134,GGAACCGAAACTGCTGAAAG
3135,TGCGGCAGATAGCCCGCGAT
3136,TGGCGCGAACATGATGACCT
3137,GCGAGCGAAAAAATGGCGAA
3138,GGCGGCGGCTTTGTCGAACC
3139,TGCGGCAGCGAGGCTGCGCG
3140,GGCGGCGGACAGGCTGCCTC
3141,GGCGGCTGAAGAGCGGCATC
3142,GCCGGGCAAGTTCTGGCATT
3143,TGCGATCGCGTTCTGGCAAT
3144,TGCACCCGAGCTACGGCATC
3145,GTAAGTCACATTCCGGCAAT
3146,GGCGGCCGAGATGCCGCATA
3147,TTTGGAGACGGTGGGGCGCG
3148,GGAGGCGGCGAACCGGAGCG
3149,GCCCGGCGAAAGGCGGCAAC
3150,TGGCACCACCAGCCGGCACT
3151,TTCGGCGGCAATACCGACTT
3152,GTTGAAGGAAAGCGGGAATG
3153,GCCGCCGAAACGCCGGTAAT
3154,GGTCGATGAACTCCGGCAAC
3155,TGGCGCGAAACGAGCGTGAC
3156,TCGGGCGACGTTACGGCGCA
3157,TCAGGACACGTTCGGGCGTT
3158,GGGCCAGAAACGCCGGCATG
3159,GCCAACGGAACGGTGGCGCT
3160,GGCCGGGACATTGACGCGAT
3161,TGGCGGCGCAAGCTGGCCAC
3162,GGCGGCCACGTAGCGGTCAG
3163,TTTGAGGAAACGAAGGCGAT
3164,GCCGGCGGACCTGCGGCCAT
3165,GGCCGCGCCCTGGCGGCAAC
3166,TGCCGGGAACAAGCGGCATA
3167,GTCGGTGGAGATGGCGCAAT
3168,GGCGGCCGAAATGCCGAGCG
3169,GTCGGAGGAAATCCCGCGTC
3170,TTTGCAGACAATGTCGAACT
3171,TGGGGCGAAGCGCTCGTGCT
3172,TGCGCAAGCGCGGCGGCACC
3173,GGCTACAACGATCCGGCACG
3174,GGCGGCGAAGTTGCCGTGAA
3175,GGAGCCGGCGAGGGTGCAAG
3176,TTCAGATAAGTGGCGGCGCC
3177,TCCGGCGGCGATCTTGCCCT
3178,TGAACCAGACATGTGGCCCC
3179,GTCGACGACGATGCCGCGAT
3180,GTCGATCAAATAGCGGCAAT
3181,GGGGCACAAAATATGGAGCC
3182,GGCTGCCGAGCTCGGGCATC
3183,GGCGGGAAAGATCAGGAGCC
3184,TGCGGTGACGATGTTGACCT
3185,TCGCGCGGAATACGGGACAC
3186,TCCGACGACGGGAGGGCACC
3187,TGACGGGGCATTGCCGAATT
3188,GGTCGAGACGAGGACGCCAT
3189,GCGCCCGAAAAAGGGGAACT
3190,TGCGGCCGCGATGGTGAAAA
3191,GGCGACGACGAAGAGGCCTA
3192,GTCGCCGAACATCAGGAAAT
3193,TTCCGCCACATGACGGTGCT
3194,TCGCGCCGAACGGGGGCATG
3195,TTCCAAGGCAATATTGCACC
3196,GGCGGTGACAATGTCGAGAT
3197,GTCGGCGGCCATGCGGAGAT
3198,GGCAGCAGAGCGGATGCAAC
3199,GGAGGCGGAACGCCTGTCAC
3200,TTCGCCCGAGATGAGGCCAG
3201,TGCAGCCACATGGCCGAGTT
3202,GGCGGCGAAAGACCCGCCTT
3203,GGAGCCGGCATGGCGGAGCG
3204,TCGGGCGAAGCGGGTGCCCC
3205,GGCGGGCGAGAGCTGGCGTT
3206,GCCGCCGAAATAGCGGCGCG
3207,TGTACAGACAAGCGCGAAAT
3208,GTGAGCGCAATGCCGGCGAC
3209,TTCAGAGGCATGCCGGACCG
3210,TCCGGCCGAATGCCGGTCTT
3211,GGCGCCCGAAAGACGGAGCT
3212,TGAAGAAGCGCGGCGGCGAG
3213,GCCCGGGAAATTGCTGCATT
3214,GGCTGGGAATATCCGGCATG
3215,GTAGGCGGCAATGACGAGAT
3216,TGAAGAAGACCTGGGGCGTT
3217,GGCGCCGGCATGCTGGAGCC
3218,GGCCGGCGAGATAGGGCATG
3219,TGCCGCGGAAATATCGAGCA
3220,GGAAAGGAAATAGGTGAAAT
3221,TCGGGAGACGGTGGGGCAAA
3222,GCCTGCCACATTCGGGCAAG
3223,GGAGGCGGCAGGATCGCATC
3224,GTGGGCGACGTGCCGGTGCT
3225,TTCGCCGGATTGCTGGCGAT
3226,TGGGCCGACATTGCCGCCAA
3227,TGGAGCCGCGAAAGGGAACG
3228,TGACGATGAACGGTGGTATC
3229,TGATGACACAAGCCGGTCTT
3230,TGCGCATGAATTCTGGAAAG
3231,TGAGGAGACTCGCAGGCGTG
3232,GTCGGCGAAGAGAACGCCCG
3233,TGACGGGGAAGTCCGGCGCG
3234,GGAGGAAACGGGATGGAACT
3235,GCGCGAGGAATGAAGGCCAC
3236,TGAAGTGGAACGAAGGCGTC
3237,TGCCGAAGCGCGAGGGCGAT
3238,TTCGCCGGAAAGGTCGCCCG
3239,GGCACCGAACCGGTGGCGAT
3240,TTAGAGGACACACCGGCATT
3241,TCCGCAGACGTGGAGGCGAT
3242,TGGCACCAAGGTCCGGCACG
3243,TTCCGCAACCTGGCGGCGAT
3244,TGCAGAGACTTTCCCGCGAC
3245,GGCGGCGACGATCGCGAGCG
3246,TTTCGCGGCCATGGGGAATC
3247,TTTCCAGACGATCTGGCCAT
3248,TGCCGCGGCTCGCCGGAAAG
3249,TGAGGGAAAGTTGCCGCGCG
3250,TCAAGCGGCTCTCGGGCACC
3251,TGTGGAAGAGTGGGCGCACA
3252,GGACAAGAAGAGAAGGAGAG
3253,GGACACGGAAATACGGTCCA
3254,TCAAGGGCCAATCCGGCAAC
3255,GGCGCCGGCGCTCCGGAACT
3256,GGCTACGGACATGAGGAACT
3257,GGCGGGAAACAGGGCGCAAT
3258,GCCGGCGGATCTCCGGCACG
3259,GGTCGAGAAAGGCGCGCATT
3260,GGCGAAAAAGCGAAGGCGAC
3261,TGTAGCGAAGGGGGCGACAT
3262,GTGCGCGCCAATCTGGCGAT
3263,TTCGAAGCCAATGCGGAATG
3264,TGGCCCGACAAGACCGCGAT
3265,TGAAGCTGATTGAAGGAAAT
3266,GGCGGCAAAGTGCTCGTCAT
3267,TTCGGCGACGTGATCGCGCG
3268,GGCAGCGGATTGGCCGAACC
3269,TCGGCCGGAATGACGGCGAG
3270,GCTGACGAAATACTGGCGCG
3271,TTCGGCGAAGCGCGTGACCT
3272,TCGCGCGGCGTGCCGGCGAT
3273,GGCCGAGACGAAGTCGCGCT
3274,GGTAGGAAAGTGGAGGCCAG
3275,TGGGACCGAATGCGCGCGAC
3276,GGAGACCAATATCGGGTGCT
3277,GGCGGCGGCGAGGTCGTGCT
3278,TGATCACGAAAGGCGGAAAG
3279,TGCGACAGCCAGGTGGTAAG
3280,TGAGACGAATCGGACGCGAC
3281,TGCGGGCACCATCCGGAATT
3282,TCTCGCAGCATTCCGGCATG
3283,GGCGGCAGCACGGTCGCCAC
3284,GCCGGCGAACAGACCGCAAC
3285,GGCGGCAAAACTCTTGAACA
3286,GGGGGAAGCAAACTCGCAAC
3287,TTGCGGGACTTGGGGGCAAG
3288,TGAGGTAGAGCTGCGGCGAG
3289,GGAGAAGACGCGCTGGCGCG
3290,TCGACCGGCACTCCGGCAAT
3291,TGCAAAGGCACGCGGGTCCT
3292,GGCAGCCGAATGAGCGAAAG
3293,TGGGAGGACACGAGGGACAC
3294,TGAGCCGAACATGTTGCCTG
3295,TCCAGCGGCTTTGGGGCGTC
3296,GGACGAGAAAGAGCTGAAAC
3297,TGACGGGCAAAACGGGCGAG
3298,GGAAACGCATATCAGGCAAG
3299,TGGGCCGCAGTTGCGGTGAT
3300,GGCCGAGGACATGCCGCACG
3301,GGTCGCGGCGCTCAGGAATT
3302,GCCGGCGGCGTACTGGCCAC
3303,TCCCGCCGAGAGGCGGCGCG
3304,TTGGGAGGAAATCATGAAAA
3305,GGCCGCGGCGGTCCGGCGCT
3306,GGCAGGAAATATCTGGCGCC
3307,GGAACGGAAGAAGGGGAATT
3308,GGCGGCGGCGGAGCGGACAT
3309,GTCAGCGAAGCGCCGGTGAC
3310,TGCGGAGGAATGCTTGTGAA
3311,GGCGGTGAAACGCGGGCGCA
3312,AGCGGCGACATTCCGGCGAT
3313,TGACGAGAACTGCGCGAACC
3314,GCCAGGAAAAAGCCGGCGAT
3315,TTCGGCGACGTGGTCGTAAA
3316,TCGACCGAACAGGAGGCACC
3317,TCGCGCGAATGGCTGGCAAC
3318,GCCGGCGACGCTAAGGTATT
3319,TGTCGAGCAGATAGGGCGAA
3320,GGGCGATAAACAGCGGCACG
3321,TCAGCCGCCAATGCGGCATG
3322,TCCGCCAGCGAGCGGGCAAT
3323,GGTCGCGAACCAGCGGCGCC
3324,TGGGATGAACTGGCGGCGAC
3325,GGGTGAAGAACAGCGGCAAG
3326,GGCAGCAGCCAGGCGGAATT
3327,GGCGGACGAATTCAGGTGTG
3328,TTAGACTGAATAGCGGCGCT
3329,TGTCGCGCAGAAGCGGCGAA
3330,TGTCGAAGAAGGATGGCCAG
3331,GGAGGCGGCGAAGCTGCGCG
3332,TGCCACGCCACAAAGGCACT
3333,GTGAACAAAGATGGCGCAAC
3334,GGCCAGGGCATGGCGGCAAA
3335,GGCGACGAAGCGGCTGCGCG
3336,TGCGACCGCGTGATGGTGAT
3337,GGTGACGATATTGCGGCACT
3338,TTCGGCGGTATGGCGGCAAC
3339,TTGGGAGGATAGGATGAAAT
3340,GCTGGCAAAGAAGGGGACCT
3341,TTCGGCAGATATCGGGAACA
3342,GGCCGCGCAGCGGCGGCGAG
3343,TCGCGCTGAATTGCGGCGCT
3344,GGATGAGGCATTCCCGCAAG
3345,TGCGGACGCCATCCGGCGTC
3346,GCAGCCGAAGCGGCGGCCCT
3347,GGCGGCAGCTTGCCGGCCTT
3348,GGGAGAGGCATAACGGAAAA
3349,TGACGATGAAGGACGGCAAG
3350,GGTGGCGGCTTTATGGAACA
3351,GGAACCGAAGAGCAGGACCG
3352,GGCGCCGACAAGCGCGCGAG
3353,TTCTGAGGAGAGGTCGAAAT
3354,GGTAGCGACGAGGCCGAGAC
3355,TCAGGAGGCAAGCATGAAAC
3356,GGCGGCGGAGTGGTGGGAAT
3357,GTGCGCGACACGCTGGAGAT
3358,TCCGGCACCAAGCCGGAAAC
3359,TGGGCACGATCGGCGGCAAT
3360,TTCGGCGCCATGCGGGTCTT
3361,TTTGCCGGAATGCTGGTCTT
3362,TGTAGCAGACTTGGGGACCG
3363,GCAGGCGGCGCAGCGGCACG
3364,TCTGGCGGATCGGCGGCCAG
3365,GCTGGCGGAACTGACGCATC
3366,TGCCGAGACTCGAGCGCAAC
3367,GTCGCCGACGAGGTGGTCAC
3368,GGCCGAGAAAAGCATGTACA
3369,TCCAGCGACAAGATCGACCT
3370,GCGCGCGAAAATCCCGCCTT
3371,TTCGGCCGCATTGTTGACAC
3372,GCACGAGAACCTGAGGCACC
3373,GCTGGCGACGAGCCTGCATT
3374,GGCAGGAAACCTGCGGCAAG
3375,GCGCGCAGCAAGGCGGCGAT
3376,TCAGGCGGATGAGGGGCATC
3377,TTGAGGGACGAACTGGCCAC
3378,GGTGGCGGCAAGACCGCGTG
3379,GGCGAAAAAAGTGGGGTCAG
3380,GGATGACGAATGATGGCGCG
3381,GGGCACGAAGAGATTGCCTT
3382,TGCCGCCGCACAAGCGCAAT
3383,TGCGGCGGATGGAGGGAGAG
3384,GGTGACGAAGATGCCGAGCG
3385,GGCGGCGGCGATACTGAGCC
3386,TGGGGCGAAGGGCATGAACG
3387,TCTGGCAACAGTGGTGCAAC
3388,CGAAGCAACAAGGGGGCAAC
3389,GGGAGCGAAGCGAACGCCCT
3390,TCAGGCAGAGCGGCGGCGCG
3391,TGAAGCGACCTGCCCGCGCT
3392,GGCAACGACGATGGTGTCAC
3393,TGCCACCAAGAGGTCGCGTC
