difference,flag
0,new
1.26,new
1.57,new
1.75,new
2.25,new
1.44,new
2.38,new
1.82,new
3.63,new
0.69,new
-0.59,new
-0.74,new
1.38,new
0.84,new
2.44,new
1.17,new
1.37,new
0.53,new
1.27,new
0.26,new
0.23,new
0.54,new
-2.18,new
0.5,new
0.48,new
0.84,new
1.29,new
0.7,new
0.69,new
0.28,new
-0.66,new
0.32,new
0.58,new
0.57,new
0.58,new
0.45,new
0.59,new
0.43,new
0.34,new
0.17,new
0.3,new
-0.61,new
2.01,new
-0.37,new
0.77,new
0.34,new
0.56,new
0.84,new
0.38,new
0.31,new
0.96,new
0.12,new
0.49,new
0.97,new
0.24,new
0.58,new
-1.06,new
1.47,new
0.71,new
0.49,new
0.55,new
-0.56,new
0.16,new
0.6,new
0.76,new
0.47,new
0.24,new
0.97,new
0.24,new
-0.74,new
0.58,new
0.31,new
0.62,new
0.28,new
0.26,new
0.47,new
0.42,new
0.49,new
0.51,new
0.28,new
0.15,new
0.4,new
0.52,new
0.19,new
0.09,new
0.52,new
0.42,new
0.31,new
1.27,new
-1.55,new
0.2,new
-0.13,new
0.56,new
0.22,new
-0.18,new
0.42,new
0.12,new
0.24,new
0.35,new
-0.16,new
0.1,new
-0.08,new
0.33,new
0.67,new
0.16,new
-0.59,new
-0.18,new
0.09,new
0.17,new
-0.6,new
0.1,new
0.16,new
0.74,new
0.06,new
1.33,new
0.58,new
0.06,new
-0.82,new
0.12,new
0.42,new
0.18,new
0.55,new
0.08,new
0.21,new
0.69,new
-0.57,new
0.17,new
-0.12,new
-0.65,new
0.88,new
0.11,new
0.42,new
0.64,new
-0.15,new
0.12,new
0.73,new
-0.08,new
0.09,new
0.28,new
-0.04,new
0.28,new
0.66,new
0.05,new
-0.03,new
0.09,new
-1.77,new
0.15,new
0.32,new
0.06,new
0.6,new
-0.16,new
0.52,new
-0.12,new
-0.28,new
0.08,new
-0.82,new
0.37,new
0.17,new
0.06,new
-1,new
0.25,new
-0.29,new
-0.47,new
0.51,new
-0.7,new
-0.27,new
0.79,new
-0.23,new
-0.15,new
0.37,new
0.31,new
-0.2,new
-0.39,new
-0.9,new
-0.17,new
-0.21,new
-0.16,new
-0.27,new
-0.71,new
0.18,new
1.71,new
-0.97,new
0.15,new
-0.51,new
-0.54,new
-0.34,new
-0.36,new
-0.64,new
-1.16,new
-0.36,new
-0.26,new
0.66,new
-0.53,new
-0.53,new
-0.23,new
-0.4,new
-0.57,new
-0.3,new
-0.5,new
-1.09,new
0.9,new
1.56,new
-0.35,new
0.85,new
-1.09,new
-0.84,new
-0.33,new
0.43,new
-1.03,new
-0.59,new
-0.86,new
-0.36,new
1.91,new
-0.73,new
-0.15,new
-0.79,new
-0.02,new
-0.87,new
3.06,new
-0.83,new
-0.77,new
-3.42,new
-0.62,new
-1.71,new
-1.16,new
0.35,new
-1.61,new
-0.98,new
-0.01,new
0.77,new
-0.68,new
-0.86,new
-1.21,new
-1.03,new
-1.33,new
-1.79,new
-0.81,new
-1,new
-2.75,new
5.78,new
-1.58,new
0,new
0.91,new
-1.53,new
1.31,new
3.64,new
-0.57,new
-7.64,new
1.5,new
3.69,old
5.94,old
4.38,old
1.81,old
2.39,old
0.88,old
-0.06,old
2.18,old
0.94,old
0.59,old
0.16,old
0.11,old
0.39,old
-0.03,old
0.61,old
0.3,old
0.1,old
2.72,old
-0.35,old
-1.22,old
-0.12,old
-0.29,old
0.28,old
-1.36,old
1.13,old
1.24,old
0.93,old
1.96,old
-0.87,old
-0.09,old
-0.07,old
0.06,old
-0.1,old
-0.02,old
0.31,old
0.83,old
0.4,old
0.44,old
0.92,old
0.5,old
1.46,old
-0.14,old
1.16,old
0.49,old
-1.66,old
0.04,old
0.68,old
0.2,old
-0.17,old
-0.42,old
0.39,old
0.37,old
-0.34,old
-0.02,old
1.54,old
0.73,old
-3.85,old
-0.36,old
-0.03,old
0.08,old
-0.12,old
0.05,old
0.15,old
0.85,old
-0.26,old
-0.1,old
0.21,old
0.09,old
0.21,old
-0.38,old
-0.25,old
0.62,old
0.4,old
-0.48,old
0.48,old
1.89,old
0.14,old
0.16,old
0.18,old
0.07,old
-0.36,old
0.08,old
0.18,old
0.03,old
0.38,old
1.54,old
0.22,old
-0.09,old
0.11,old
0.18,old
0.29,old
0,old
0,old
-0.02,old
0,old
-0.05,old
0.28,old
-0.84,old
0.18,old
-0.04,old
-0.05,old
-0.11,old
0.27,old
0.02,old
0.29,old
-0.79,old
0.03,old
0.18,old
0.03,old
0.12,old
-0.22,old
0.25,old
0.11,old
0.15,old
0.47,old
-0.78,old
-0.04,old
0.02,old
0.13,old
-0.06,old
0.14,old
0.19,old
-0.02,old
0.1,old
0.08,old
0.07,old
0.27,old
0.09,old
-0.1,old
0.06,old
0.08,old
0.08,old
0.02,old
0.1,old
0.09,old
0.11,old
0.09,old
0.12,old
-0.01,old
0.06,old
0.04,old
0.01,old
0.1,old
0.04,old
-0.09,old
0.07,old
0.05,old
0.58,old
0.09,old
0.04,old
0.08,old
0.17,old
0.04,old
0.08,old
0.09,old
-0.01,old
0.09,old
-0.2,old
0.03,old
0.05,old
0.01,old
0.1,old
-0.01,old
0.16,old
0.05,old
0.08,old
-0.53,old
0.08,old
0.07,old
0.04,old
0.03,old
0.04,old
0.09,old
0.04,old
0.06,old
0.27,old
0.03,old
0.07,old
0.01,old
0.05,old
0.52,old
0.06,old
-0.13,old
0.1,old
0.05,old
0.04,old
0.1,old
0.07,old
0.07,old
-0.16,old
0.09,old
0.01,old
0.08,old
0.05,old
1.59,old
0.04,old
0.01,old
-0.2,old
0.06,old
0.08,old
0.04,old
0.04,old
0.03,old
-0.02,old
0.04,old
0.04,old
0.06,old
0.07,old
-0.07,old
-0.24,old
0.06,old
0.03,old
-0.06,old
0.08,old
0,old
-0.14,old
0.03,old
0.06,old
0.1,old
0.02,old
0.03,old
0.1,old
0.02,old
0.04,old
-0.04,old
0.12,old
0.06,old
0.03,old
0.06,old
0.05,old
0.1,old
0.04,old
0.01,old
0.14,old
0.05,old
-0.01,old
0.08,old
0.04,old
0.07,old
0.06,old
0.14,old
0,old
-0.01,old
-0.72,old
0.11,old
0.07,old
0.06,old
0.98,old
0.01,old
-0.55,old
0.03,old
-0.11,old
0.03,old
-0.02,old
0.09,old
0.05,old
0.07,old
0.07,old
-0.01,old
0.06,old
0.06,old
0.07,old
0.06,old
-0.01,old
0.54,old
-0.56,old
0,old
0.06,old
0.07,old
0.01,old
0.06,old
-0.01,old
-0.31,old
0.19,old
-0.11,old
-0.39,old
-0.08,old
-0.69,old
0.04,old
-0.5,old
-0.36,old
-0.12,old
-0.24,old
-0.09,old
-0.42,old
0.08,old
-0.17,old
-0.01,old
0.06,old
0.08,old
-0.09,old
-0.76,old
0.87,old
-0.01,old
0.04,old
-0.41,old
0.3,old
-1.69,old
-0.06,old
0.01,old
0.02,old
-0.78,old
-0.16,old
-0.18,old
0.27,old
0.01,old
0.03,old
0.82,old
-0.25,old
-0.63,old
-0.19,old
-0.17,old
-0.16,old
-0.09,old
0.05,old
11.8,old
-0.51,old
0.01,old
0.02,old
-1.32,old
-0.7,old
-1.35,old
0.03,old
-0.85,old
-0.34,old
0.2,old
-0.19,old
-0.21,old
-0.94,old
0.14,old
-0.73,old
0.46,old
-0.41,old
0.13,old
0.27,old
0.06,old
-2.06,old
0.08,old
-1.83,old
-0.44,old
0.39,old
-0.02,old
-0.29,old
-0.02,old
-0.22,old
-0.05,old
-1.22,old
-0.78,old
-2.21,old
-1.99,old
-0.67,old
-0.61,old
0.43,old
-2.16,old
-0.39,old
-1.26,old
-0.55,old
-0.71,old
-0.55,old
-0.62,old
-2.12,old
-2.12,old
-2.3,old
-1.09,old
-0.12,old
-0.54,old
-2.27,old
-2.18,old
-2.22,old
-1.12,old
-1.6,old
-2.25,old
-0.54,old
-0.98,old
-0.1,old
-2.2,old
0.11,old
-0.71,old
-2.05,old
-2.36,old
-0.89,old
-1.87,old
-1.13,old
-1.04,old
-2.25,old
-1.77,old
-0.25,old
0.95,old
-2.09,old
0.19,old
-2.19,old
-2.28,old
-0.79,old
-1.39,old
-2.51,old
0.66,old
-2.12,old
-0.5,old
-2.36,old
-1.2,old
-0.8,old
-1.01,old
-1.41,old
-2.86,old
-1.08,old
-1.43,old
-1.37,old
-1.85,old
-0.73,old
-0.78,old
-1.64,old
-0.95,old
-1.5,old
-1.98,old
0.95,old
-0.8,old
-1.14,old
-2.27,old
-2.32,old
-1.43,old
-4.6,old
-1.69,old
-1.5,old
1.11,all
0.96,all
1.54,all
-0.67,all
-0.62,all
1.51,all
-3.01,all
-0.39,all
0.59,all
0.62,all
-0.96,all
-0.72,all
0.11,all
0.33,all
0.46,all
-0.13,all
1.2,all
1.82,all
-0.28,all
3.05,all
0.42,all
-0.2,all
3.15,all
0.06,all
-0.05,all
-0.28,all
0.62,all
-0.07,all
0.32,all
2.06,all
-0.92,all
0.93,all
-0.07,all
-0.55,all
-0.34,all
-0.43,all
0.54,all
-0.88,all
-0.15,all
-0.32,all
-0.52,all
-0.39,all
0.23,all
0.67,all
-0.22,all
-3.52,all
-0.03,all
0.37,all
-1.08,all
-1.26,all
2.24,all
-0.05,all
0,all
-0.09,all
0.29,all
0.07,all
-0.2,all
-0.09,all
0.53,all
-0.11,all
0.44,all
1.88,all
1.11,all
0.21,all
-0.37,all
0.17,all
0.03,all
0.87,all
2.83,all
0.61,all
-0.35,all
0.31,all
0.17,all
-0.3,all
0.07,all
-0.47,all
0.2,all
0.49,all
-2.01,all
0.23,all
0.1,all
2.59,all
-1.11,all
0.89,all
-0.2,all
1.05,all
0.23,all
0.47,all
-0.02,all
0.06,all
-0.29,all
0.04,all
1.11,all
-0.11,all
0.62,all
-0.19,all
1.05,all
-0.11,all
0.58,all
0.04,all
-0.05,all
0.19,all
1,all
-0.14,all
0.39,all
-0.55,all
-2.31,all
0.45,all
0.37,all
0.1,all
-0.1,all
-0.01,all
0.5,all
0.01,all
-0.57,all
0.48,all
1.17,all
-0.16,all
0.11,all
-2.18,all
0.21,all
-0.55,all
1.34,all
0.68,all
0.1,all
2.24,all
0.23,all
1.98,all
-0.39,all
0.77,all
0.06,all
-0.34,all
0.26,all
-0.24,all
-0.05,all
0.19,all
0.97,all
-0.04,all
0.09,all
0.36,all
0.61,all
-0.03,all
-0.24,all
-0.38,all
-0.01,all
0.14,all
-0.02,all
-2.4,all
0.18,all
-0.06,all
0.44,all
0.02,all
-0.3,all
-0.06,all
0.06,all
0.43,all
-0.28,all
-0.04,all
-0.39,all
0.1,all
0.07,all
-0.02,all
-0.09,all
0.22,all
0.51,all
0.21,all
0.23,all
0.1,all
0.51,all
-0.05,all
0.08,all
0,all
0.07,all
0.43,all
0.13,all
0.12,all
0.16,all
0.01,all
0.08,all
-0.22,all
-0.42,all
0.58,all
-0.13,all
0.23,all
0.24,all
0.08,all
0.47,all
0.09,all
0.12,all
0.08,all
0.11,all
0.16,all
0,all
0.09,all
-0.48,all
0.34,all
-0.32,all
0.12,all
-0.21,all
0,all
0.18,all
0.14,all
0.46,all
0.43,all
0.34,all
0.01,all
0.34,all
0.17,all
0.01,all
0.26,all
-0.33,all
0.65,all
0.16,all
-0.52,all
0.08,all
0.05,all
0.32,all
0.78,all
1.04,all
0.85,all
0.03,all
-0.06,all
-0.06,all
0.3,all
-0.07,all
-0.07,all
0.05,all
-0.1,all
-0.39,all
0.06,all
0.12,all
0.08,all
0.03,all
-0.21,all
0.36,all
0.1,all
0.25,all
0.16,all
-0.05,all
0.6,all
0.06,all
-2.72,all
0.43,all
-0.39,all
-0.05,all
-0.19,all
0.1,all
0.27,all
0.06,all
-0.07,all
0,all
-0.04,all
0.07,all
0.17,all
0.13,all
0.3,all
-0.02,all
0.11,all
0.68,all
-0.22,all
-0.02,all
-0.81,all
0.24,all
0.23,all
0.29,all
-0.04,all
-0.04,all
0.07,all
0.7,all
0.22,all
0.24,all
0.08,all
0.04,all
-0.3,all
0.27,all
0.04,all
-0.35,all
0.31,all
0.04,all
0.4,all
0.22,all
0.19,all
0.1,all
0.74,all
0.45,all
-0.03,all
0.01,all
0.23,all
0.56,all
-0.45,all
0.25,all
0.15,all
0.57,all
0.08,all
0.01,all
0.16,all
-0.02,all
0.07,all
0.3,all
0.41,all
-0.21,all
-0.04,all
0.03,all
0.71,all
0.17,all
-3.58,all
0.23,all
-0.06,all
0.02,all
0.35,all
0.09,all
0.47,all
0.64,all
0.16,all
0.23,all
-0.22,all
0.08,all
-0.47,all
-0.52,all
-0.02,all
0.13,all
0.51,all
-0.11,all
-0.21,all
0.02,all
0.05,all
-0.09,all
-0.05,all
0.22,all
-0.09,all
0.05,all
0.24,all
0.19,all
-0.01,all
0.14,all
-0.15,all
0.18,all
0.21,all
0.11,all
1.43,all
0.15,all
-0.08,all
0.29,all
0.55,all
0.12,all
0.6,all
0.55,all
0.11,all
0.04,all
0.24,all
0.18,all
0.06,all
0.16,all
0,all
0.7,all
0.05,all
1.28,all
0.14,all
0.13,all
0.12,all
-0.45,all
0.46,all
0.13,all
-0.37,all
0.3,all
0.16,all
0.33,all
-0.02,all
-0.18,all
0.26,all
0.13,all
0.48,all
0.11,all
0.34,all
-0.03,all
-0.01,all
-0.02,all
0.01,all
-0.56,all
0.06,all
-0.01,all
-0.26,all
0.17,all
0.16,all
0.03,all
0.08,all
0.06,all
0.05,all
0.11,all
0.48,all
-0.88,all
0.02,all
0.08,all
0.33,all
0.15,all
-0.01,all
0.08,all
0.54,all
0.3,all
0.12,all
-0.03,all
0.07,all
0,all
0.17,all
0.02,all
-0.08,all
0.01,all
0,all
0.1,all
0.07,all
0.04,all
0.11,all
0.09,all
0.36,all
0.27,all
0.11,all
-0.04,all
0.15,all
0.17,all
0.16,all
0.36,all
-0.38,all
0.02,all
-0.05,all
-0.03,all
0.25,all
0.07,all
-0.03,all
0.24,all
-0.12,all
0,all
0.16,all
0.08,all
0.11,all
0.09,all
0.05,all
0.03,all
-0.04,all
0.08,all
0.07,all
0.09,all
0,all
0.06,all
0.07,all
-0.1,all
0.03,all
-0.04,all
0.09,all
0.06,all
0.04,all
-0.02,all
0.35,all
0.12,all
0.44,all
-0.06,all
0.25,all
0.13,all
0.19,all
0.1,all
-0.22,all
-0.08,all
0.09,all
-0.03,all
0.11,all
0.13,all
-0.12,all
-0.15,all
0.05,all
-0.01,all
0.07,all
0.07,all
0.1,all
0.02,all
0.15,all
-0.21,all
0.05,all
-0.41,all
0.05,all
0.09,all
0.15,all
0.04,all
0.22,all
0.04,all
0.17,all
0,all
0.08,all
0.19,all
-0.43,all
-0.39,all
-0.62,all
0.2,all
-0.04,all
-0.03,all
-0.02,all
-0.25,all
0.13,all
0,all
0.09,all
0.08,all
0.1,all
-0.02,all
-0.3,all
0.12,all
-0.04,all
0.02,all
0.05,all
0.09,all
0.04,all
0.04,all
0.06,all
0.04,all
0.07,all
0.06,all
0.05,all
0.07,all
0.14,all
0.05,all
0.01,all
-0.04,all
0.28,all
-0.28,all
0.01,all
0.04,all
-0.03,all
-0.05,all
0.1,all
0.06,all
0.05,all
0.04,all
0.09,all
-0.06,all
-0.06,all
0.05,all
0.02,all
0.25,all
0.07,all
-0.4,all
0.1,all
-1.01,all
0.17,all
-0.11,all
0.13,all
0.01,all
0.03,all
0.19,all
0.06,all
0.02,all
0.07,all
0.07,all
0.17,all
0.1,all
-0.46,all
-0.61,all
-0.04,all
0.05,all
-0.13,all
0.02,all
0.11,all
0.05,all
0.13,all
-0.12,all
0.09,all
-0.02,all
0.14,all
-0.01,all
0.15,all
0.49,all
0.01,all
0.31,all
0.07,all
-0.02,all
1.66,all
0.08,all
0.14,all
0.09,all
0.14,all
0.15,all
0.05,all
0.08,all
0.13,all
0.05,all
-0.07,all
0.33,all
0.07,all
-0.15,all
0.02,all
0.07,all
-0.06,all
0.06,all
0.02,all
-0.27,all
-0.03,all
0.04,all
0.05,all
-0.03,all
0.05,all
0.05,all
0.07,all
-0.05,all
-0.02,all
0.02,all
0.17,all
0.08,all
0.17,all
0.05,all
0.08,all
0.03,all
0.07,all
0.11,all
0.07,all
0.08,all
0.1,all
0,all
0.1,all
0.06,all
0.04,all
0.09,all
0.2,all
0.15,all
0.1,all
0.12,all
0.03,all
0.03,all
0.02,all
0,all
0.25,all
0.09,all
0.13,all
0.09,all
0.07,all
0.07,all
0.05,all
0.4,all
0.03,all
-0.05,all
0.08,all
0.06,all
-0.13,all
0.18,all
0.03,all
-0.02,all
0.09,all
0.28,all
0.06,all
0.13,all
-0.07,all
-0.01,all
0.21,all
-0.01,all
0.04,all
-0.53,all
0.04,all
0.07,all
0.01,all
-2.02,all
0.01,all
0.05,all
0.14,all
0.13,all
0.09,all
0.14,all
-0.12,all
-0.02,all
-0.12,all
0.05,all
0.13,all
-0.03,all
0.21,all
0.06,all
0.01,all
0.06,all
0.08,all
0,all
0.1,all
-0.17,all
0.12,all
0.02,all
0.11,all
-0.01,all
0.14,all
0.03,all
0.09,all
0.05,all
0.09,all
-0.15,all
0.07,all
0.12,all
0.09,all
0.06,all
0.08,all
0.06,all
0.11,all
0.14,all
0.01,all
0.1,all
0.17,all
0.03,all
0.02,all
-0.21,all
0.08,all
0.11,all
0.09,all
0.1,all
-0.33,all
-0.01,all
-0.2,all
0.2,all
0.09,all
0.04,all
-0.04,all
0.09,all
0.07,all
0.22,all
0.07,all
0.13,all
0.11,all
0.07,all
0.05,all
0.02,all
-0.08,all
0.07,all
0.14,all
0.16,all
-0.17,all
0.03,all
0.04,all
0.05,all
0,all
0.08,all
0.1,all
0.06,all
0.05,all
0.02,all
-0.07,all
0.08,all
0.08,all
0.06,all
-0.03,all
0.05,all
0.15,all
0.15,all
0,all
0.1,all
0,all
-0.67,all
0.06,all
-0.08,all
-0.07,all
-0.01,all
0.1,all
-0.25,all
0.04,all
0.11,all
0.2,all
0.01,all
0.11,all
0.1,all
0.04,all
0.01,all
0.05,all
-0.35,all
-0.36,all
0.05,all
0.06,all
0.1,all
-0.04,all
-0.1,all
0.13,all
0.13,all
-0.06,all
-0.01,all
-0.21,all
-0.19,all
0.22,all
0.06,all
0.13,all
-0.07,all
0.09,all
0.12,all
0.04,all
0.07,all
0.14,all
0.05,all
0.13,all
0.03,all
0.02,all
0.09,all
0,all
0.08,all
0.05,all
-0.03,all
0.18,all
0.17,all
-0.35,all
0.05,all
0.06,all
-0.12,all
0.14,all
0.13,all
-0.01,all
0.09,all
0.03,all
0.04,all
0.06,all
0.07,all
-0.18,all
0.08,all
0.06,all
0.04,all
0.07,all
0.05,all
-0.22,all
0.01,all
0.05,all
-0.12,all
0.05,all
0.06,all
-0.15,all
0.18,all
0.11,all
0.14,all
0.02,all
-0.08,all
0.03,all
0.08,all
0.07,all
0.03,all
-0.32,all
0.13,all
0.1,all
-0.05,all
-0.01,all
0.09,all
-0.12,all
-0.01,all
0.08,all
0.05,all
0.23,all
0,all
0,all
0.05,all
0.03,all
0.15,all
0.03,all
0.05,all
0,all
0.05,all
-0.08,all
0.18,all
0.03,all
0.13,all
0.07,all
0.04,all
-0.1,all
0.05,all
0.01,all
0,all
0,all
-0.02,all
0.07,all
0.07,all
0.04,all
0.04,all
0.01,all
0.04,all
-0.65,all
0.04,all
-0.05,all
0.09,all
0.09,all
0.09,all
0.06,all
0.01,all
-0.19,all
-0.01,all
0.17,all
0.08,all
0.07,all
-0.04,all
-0.01,all
0.09,all
0.07,all
0.02,all
-0.03,all
-0.01,all
-0.06,all
0.03,all
0.09,all
0.03,all
0.43,all
0.04,all
0.06,all
0.06,all
0.14,all
0.02,all
0.09,all
-0.03,all
0.04,all
0.12,all
0.14,all
0.03,all
0.15,all
0.06,all
0.05,all
0.08,all
-0.09,all
0.02,all
0.09,all
0.13,all
-0.06,all
0.06,all
0.12,all
-0.07,all
0,all
0.05,all
-0.03,all
0.07,all
-0.04,all
0.81,all
0.02,all
0.04,all
0.06,all
0.03,all
0.06,all
0.05,all
0.05,all
0.02,all
0.11,all
0.05,all
0.14,all
0.06,all
0.04,all
0.04,all
0.04,all
0.02,all
0,all
0.05,all
0.07,all
0.05,all
0.08,all
0.05,all
0.12,all
0.05,all
0.09,all
0.07,all
0.09,all
0.03,all
0.11,all
0.05,all
0.13,all
0.08,all
-0.01,all
0.08,all
0.04,all
0.07,all
0.11,all
-0.02,all
-0.05,all
0.12,all
0.03,all
-0.02,all
0.05,all
0.06,all
0.08,all
-0.04,all
0.08,all
0.05,all
0.05,all
0.17,all
0.07,all
0.15,all
0.14,all
0.04,all
0.11,all
0.02,all
0.07,all
0.05,all
0.06,all
0.08,all
0.22,all
0,all
0.08,all
0.07,all
-0.1,all
-0.04,all
-0.34,all
0.07,all
-0.15,all
0.11,all
0.16,all
0.09,all
0.02,all
0.1,all
0.04,all
0.09,all
0.02,all
0.09,all
0.06,all
0.08,all
0.03,all
0,all
-0.05,all
0,all
0.08,all
0.13,all
0.08,all
0.09,all
-0.07,all
0.09,all
0.06,all
0.15,all
0.03,all
0.1,all
0.07,all
0.04,all
0.02,all
0.04,all
0.07,all
0.07,all
0.03,all
0.06,all
-0.2,all
0.03,all
0.05,all
0,all
0.05,all
0.05,all
1.02,all
0.01,all
0.01,all
0.1,all
-0.04,all
0,all
0.08,all
0.04,all
0.1,all
-0.05,all
-0.05,all
0.1,all
0.05,all
0.05,all
0.08,all
0.04,all
0.07,all
0.06,all
0.06,all
0.06,all
0.06,all
0.07,all
0.1,all
0.04,all
-0.03,all
-0.03,all
0.12,all
0.03,all
0.04,all
0.11,all
0.07,all
-0.01,all
0.09,all
0,all
0.05,all
-0.09,all
0.07,all
-0.11,all
0.23,all
0.01,all
0.07,all
0.1,all
0.1,all
0.05,all
0.04,all
-0.01,all
-0.19,all
0.03,all
0.03,all
0.25,all
0.08,all
0.04,all
0.02,all
0.16,all
-0.07,all
0.03,all
0.05,all
0.02,all
-0.14,all
0.06,all
0.03,all
0.02,all
0.1,all
-0.04,all
0.05,all
0.07,all
-0.05,all
0.08,all
0.05,all
0.07,all
0.01,all
0.05,all
0.05,all
-0.21,all
-0.15,all
-0.01,all
0.07,all
-0.03,all
0.09,all
0.06,all
0.05,all
0.05,all
0.03,all
-0.23,all
0.04,all
0.01,all
0.07,all
0.01,all
0.17,all
0.07,all
0.03,all
-0.06,all
-0.06,all
0.04,all
0.03,all
0.06,all
0,all
0.03,all
0.06,all
0.09,all
0.04,all
0.07,all
0.07,all
0.02,all
0.1,all
0.08,all
0.02,all
0.07,all
0.01,all
0.07,all
0.03,all
0.02,all
0.05,all
0.02,all
0.04,all
0.04,all
0.05,all
0.03,all
0.05,all
0.03,all
0.07,all
0.03,all
0,all
0.19,all
0,all
0.02,all
0.06,all
0.03,all
0.11,all
0.06,all
0.01,all
0.09,all
0.02,all
0.11,all
0.09,all
0.03,all
0.1,all
0.08,all
0.06,all
0.05,all
0.08,all
0.04,all
0.02,all
0.18,all
0.1,all
0.11,all
0.07,all
-0.01,all
0.14,all
0.03,all
-0.03,all
-0.06,all
0.05,all
0.01,all
0.04,all
0.04,all
0.14,all
-0.15,all
0.01,all
0.04,all
0.03,all
0.09,all
0.04,all
0.05,all
-0.18,all
0.07,all
0.08,all
0.06,all
0.06,all
-0.07,all
0.04,all
0.1,all
-0.27,all
-0.15,all
0.05,all
0.01,all
0.03,all
0.03,all
0.03,all
0.05,all
0.04,all
-0.12,all
0.08,all
-0.02,all
-0.4,all
0.06,all
0.06,all
-0.07,all
-0.03,all
-0.1,all
0.07,all
0.09,all
0.16,all
0.04,all
0.35,all
-0.17,all
0.02,all
0.03,all
1.03,all
0.02,all
0.09,all
0.03,all
0.05,all
0.05,all
0.06,all
0.02,all
0.04,all
0.01,all
-0.03,all
0.03,all
0.08,all
0.01,all
0.02,all
0.06,all
-0.05,all
0.11,all
0.02,all
0.04,all
0.07,all
0.05,all
0.01,all
-0.13,all
-0.14,all
0.12,all
0.08,all
-0.02,all
0.12,all
0.05,all
-0.06,all
0.08,all
0.04,all
0.11,all
-0.06,all
0.07,all
0.1,all
0.03,all
0.03,all
0.03,all
-0.01,all
-0.04,all
0.04,all
0.04,all
-0.07,all
-0.04,all
0.01,all
0.03,all
0.04,all
0.07,all
0.07,all
0.06,all
0.02,all
0.05,all
0.16,all
-0.15,all
0.03,all
-0.16,all
0.06,all
0.1,all
0.02,all
-0.11,all
-0.06,all
-0.05,all
0.09,all
0.05,all
0.02,all
0.05,all
0.04,all
0.1,all
-0.05,all
0.02,all
0.02,all
0.01,all
0.02,all
0.03,all
0.02,all
0.04,all
0.07,all
0.04,all
0.08,all
-0.03,all
0.02,all
0.01,all
0.02,all
0.05,all
0.06,all
0,all
0.23,all
0.03,all
-0.26,all
-0.04,all
0.04,all
0.19,all
0.04,all
-0.01,all
-0.35,all
0.05,all
0.07,all
-0.05,all
0.02,all
-0.13,all
-0.25,all
0.11,all
0.11,all
-0.01,all
0.07,all
0.04,all
0,all
0,all
0.01,all
0,all
0.02,all
0.06,all
0.24,all
0.04,all
-0.04,all
0.08,all
0.03,all
0,all
0.04,all
0.05,all
0.07,all
0.02,all
0.04,all
0.04,all
-0.06,all
0.01,all
0.04,all
0.04,all
-0.03,all
0.05,all
0.03,all
0.25,all
0.04,all
0.1,all
0.13,all
0.04,all
0.06,all
0.06,all
0.03,all
-0.02,all
0.02,all
0.02,all
0.05,all
0.05,all
-0.07,all
0,all
0.03,all
0.07,all
0.1,all
0.04,all
0.05,all
-0.01,all
0.02,all
0,all
0.03,all
0.11,all
-0.03,all
0.07,all
-0.01,all
0.01,all
0.05,all
0.01,all
0,all
0.03,all
0.04,all
0,all
0.02,all
0.38,all
0.01,all
0.08,all
-0.12,all
-0.03,all
0.01,all
0.05,all
0.05,all
0.05,all
0.07,all
0.1,all
0.08,all
0.28,all
-0.06,all
0.08,all
0.06,all
0.01,all
0.05,all
-0.12,all
-0.03,all
0.03,all
0.05,all
0.06,all
0.05,all
0,all
0.01,all
0.11,all
0.04,all
0.09,all
-0.1,all
-0.24,all
0.02,all
-0.05,all
0.04,all
0.14,all
0.06,all
0.08,all
-0.02,all
0.03,all
0,all
-0.03,all
-0.22,all
0.03,all
0,all
0.05,all
0.02,all
0.05,all
0.1,all
-0.15,all
0.05,all
0.07,all
-0.02,all
-0.02,all
0.16,all
0.08,all
0.03,all
0.06,all
-0.05,all
0.05,all
0.06,all
0.14,all
0.01,all
0.05,all
0.04,all
0.21,all
0.03,all
-0.42,all
0.01,all
0.04,all
0.05,all
0.15,all
0.07,all
0.17,all
0.08,all
0.03,all
0.11,all
0.04,all
0.06,all
0.04,all
0.02,all
0.09,all
0.11,all
0.09,all
0.03,all
0.18,all
0.03,all
-0.54,all
0.16,all
0.1,all
0.06,all
0.02,all
0.04,all
0,all
0.08,all
0.02,all
0.04,all
0.15,all
0.02,all
0.09,all
0.07,all
0.25,all
0.15,all
0.7,all
0.08,all
-0.08,all
-0.06,all
0.04,all
0.23,all
0.03,all
0.23,all
0.08,all
0.03,all
0.01,all
0.15,all
0.07,all
0.03,all
-0.07,all
0.02,all
0.04,all
-0.02,all
-0.91,all
0,all
0.66,all
0.03,all
0.04,all
0.09,all
0.11,all
-0.03,all
0.05,all
0.02,all
-0.24,all
0.03,all
-0.08,all
0.06,all
-0.1,all
0.04,all
0.02,all
0.03,all
0.05,all
-0.07,all
-0.02,all
-0.11,all
0.03,all
0,all
0.02,all
-0.03,all
0.02,all
0.05,all
0.06,all
0.04,all
0.01,all
0.01,all
0.01,all
0.3,all
0.01,all
0.06,all
0.05,all
0.11,all
0.19,all
-0.18,all
0.12,all
-0.09,all
0.11,all
0.01,all
0.05,all
0.09,all
0.08,all
0.01,all
-0.01,all
0.08,all
0.04,all
-0.34,all
0.08,all
0.09,all
0,all
0.05,all
-0.04,all
-0.07,all
0.1,all
-0.2,all
0.02,all
0.02,all
0.02,all
-0.01,all
-0.32,all
-0.03,all
0.08,all
0.06,all
-0.03,all
-0.06,all
0.09,all
0.01,all
0.03,all
0.05,all
0.03,all
0.12,all
-0.13,all
0.07,all
0.06,all
0.08,all
0,all
-0.01,all
-0.04,all
-0.01,all
0.01,all
-0.01,all
0.04,all
-0.3,all
0.04,all
0.04,all
0.12,all
0.02,all
0.03,all
-0.09,all
0.03,all
0.11,all
0.02,all
-0.03,all
0.11,all
0.04,all
0.01,all
0.05,all
-0.05,all
0.02,all
0,all
0.1,all
0.1,all
0.06,all
-0.05,all
-0.01,all
0.05,all
-0.07,all
0.36,all
-0.17,all
-0.01,all
0.04,all
0.08,all
2.14,all
0.3,all
0,all
0,all
0,all
0,all
0,all
0,all
0,all
0,all
0,all
0,all
0,all
0,all
0,all
0,all
0,all
0,all
0,all
0,all
0,all
0,all
0,all
0,all
0,all
0,all
0,all
0,all
-0.35,all
-0.46,all
-0.71,all
-3.23,all
-5.84,all
-1.19,all
0,all
-0.04,all
0.12,all
-0.02,all
-0.05,all
0.01,all
0.08,all
-0.01,all
0.08,all
0,all
-0.01,all
0.03,all
-0.46,all
0.02,all
-0.04,all
0.02,all
0.19,all
0.04,all
0,all
-0.15,all
-0.02,all
0,all
0.06,all
0.02,all
-0.06,all
0.05,all
-0.04,all
-0.06,all
0,all
0.11,all
-0.06,all
0.04,all
0.21,all
0.09,all
0.04,all
0.02,all
-0.01,all
0.05,all
0.01,all
0.04,all
0.05,all
0.07,all
0.05,all
0.13,all
0.09,all
0.1,all
-0.04,all
-0.08,all
0.04,all
-0.01,all
0,all
0.04,all
0.01,all
0.03,all
0.04,all
-0.08,all
0.07,all
0.01,all
-0.03,all
0.12,all
0.07,all
-0.05,all
0.08,all
0.02,all
0.06,all
0.02,all
0.04,all
0.03,all
-1.24,all
0.07,all
0.14,all
0.02,all
0.01,all
-0.02,all
0.4,all
0.03,all
-0.15,all
0.02,all
-0.02,all
0.03,all
-0.12,all
0.03,all
0.02,all
0.11,all
0.13,all
-0.09,all
0.02,all
0.05,all
0.05,all
0.08,all
-0.04,all
-0.08,all
0.03,all
0.07,all
-0.01,all
0.83,all
0,all
0.11,all
0.05,all
0.01,all
-0.04,all
0.04,all
-0.04,all
0.02,all
-0.06,all
0.06,all
0.01,all
0.07,all
-0.1,all
-0.2,all
0.02,all
0.06,all
0.03,all
-0.09,all
0.07,all
0.07,all
-0.03,all
0.01,all
-0.06,all
0.01,all
0.02,all
0.17,all
0.35,all
0.01,all
0.05,all
0,all
0.04,all
-0.02,all
-0.02,all
0.02,all
0.05,all
0.01,all
0.07,all
0.07,all
-0.1,all
0.01,all
-0.04,all
-0.07,all
0.01,all
0.1,all
-0.02,all
0.06,all
0.22,all
-0.12,all
-0.05,all
0.19,all
0.12,all
0.03,all
-0.01,all
0.08,all
-0.16,all
-0.03,all
-0.08,all
0.04,all
0.05,all
0.2,all
0.06,all
-0.12,all
0.05,all
0.07,all
-0.11,all
0.1,all
0.02,all
0.05,all
0.04,all
0.03,all
-0.02,all
0,all
-0.15,all
-0.13,all
0.02,all
-0.07,all
-0.04,all
0.09,all
-0.05,all
0.07,all
0.05,all
0,all
-0.01,all
0.01,all
0.15,all
0.06,all
0.03,all
-0.07,all
0.09,all
0.06,all
0.04,all
-0.08,all
0.13,all
-0.07,all
0.25,all
0.08,all
0,all
-0.03,all
0.09,all
0.01,all
0.03,all
0.12,all
-0.04,all
0.27,all
0.03,all
-0.05,all
0.04,all
0.01,all
0.04,all
-0.04,all
0.02,all
-0.11,all
-0.08,all
0.09,all
-0.03,all
-0.03,all
0.12,all
0.11,all
0.05,all
-0.06,all
0.01,all
-0.05,all
0.14,all
0.07,all
-0.1,all
0.05,all
0.1,all
0.27,all
-0.04,all
0.03,all
-0.02,all
0.18,all
-0.02,all
0.05,all
0.07,all
0,all
-0.01,all
-0.27,all
-0.03,all
-0.18,all
-1.13,all
0.08,all
-0.02,all
0.06,all
0.02,all
-0.05,all
-0.09,all
-0.01,all
0.05,all
-0.02,all
0.02,all
-0.06,all
0.01,all
-0.07,all
0.03,all
0.28,all
-0.17,all
0,all
0.04,all
-0.02,all
-0.07,all
0.06,all
0.01,all
-0.07,all
0.07,all
0.23,all
-0.09,all
0.01,all
0.01,all
0.07,all
0.22,all
-0.05,all
0.02,all
0.11,all
-0.02,all
-0.07,all
0.32,all
-0.23,all
0,all
0.13,all
0.05,all
0.04,all
-0.03,all
-0.02,all
0.12,all
0.01,all
-0.02,all
0.28,all
-0.06,all
0.04,all
-0.04,all
-0.01,all
0.03,all
-0.03,all
0.09,all
0.11,all
-0.09,all
0.26,all
0.02,all
-0.04,all
-0.19,all
0.03,all
-0.08,all
0,all
-0.21,all
-0.64,all
-0.07,all
-0.06,all
-0.01,all
-0.38,all
0.17,all
-0.78,all
-0.18,all
-0.03,all
0.06,all
0.1,all
-0.04,all
-0.01,all
0.04,all
-0.06,all
-0.13,all
0.05,all
0.02,all
0.09,all
0,all
-0.01,all
0.43,all
0,all
-0.03,all
0.02,all
0.03,all
-0.05,all
0.05,all
-0.05,all
-0.14,all
-0.08,all
-0.01,all
0.06,all
-0.06,all
-0.02,all
-0.04,all
0.52,all
0.03,all
0.13,all
-0.04,all
-0.03,all
-0.02,all
0.08,all
-0.05,all
-0.1,all
-0.06,all
0.01,all
0.02,all
-0.39,all
0.48,all
-0.79,all
0.14,all
0,all
0.06,all
0.15,all
0.13,all
0.01,all
0.14,all
0.14,all
-0.19,all
0.12,all
-0.03,all
0,all
-0.01,all
0,all
0.04,all
0.13,all
0,all
-0.24,all
0.06,all
0,all
-0.01,all
0.04,all
-0.02,all
0.06,all
0,all
-0.01,all
0,all
0.06,all
0.09,all
-0.19,all
-0.01,all
0.95,all
-0.09,all
0.19,all
-0.09,all
0.04,all
0.05,all
-0.31,all
0.17,all
-0.07,all
-0.07,all
0.04,all
0.06,all
0.07,all
-0.23,all
-0.09,all
-0.02,all
0.03,all
-0.11,all
0.23,all
0.25,all
0.01,all
0.01,all
0.07,all
0.02,all
-0.47,all
-0.05,all
-0.26,all
0.13,all
-0.1,all
-0.18,all
0.06,all
0.03,all
0.05,all
0.01,all
0.05,all
0.09,all
-0.03,all
-0.19,all
0.18,all
-0.02,all
0.06,all
-0.02,all
-0.02,all
0.03,all
0.11,all
-0.16,all
-0.15,all
0.1,all
0.12,all
0.03,all
0.07,all
-0.01,all
-0.07,all
-0.22,all
0.24,all
0.12,all
0,all
0.03,all
-0.03,all
0.04,all
-0.03,all
-0.17,all
0.01,all
-0.41,all
0.11,all
-0.01,all
-0.05,all
0.01,all
0.12,all
0,all
-2.01,all
-0.36,all
-0.08,all
-0.06,all
-0.08,all
-0.1,all
-0.16,all
0.05,all
0.02,all
0.32,all
0.07,all
-0.13,all
-0.23,all
-0.19,all
-0.04,all
-0.04,all
0.06,all
-0.11,all
-0.07,all
0.07,all
-0.1,all
-0.1,all
-0.31,all
0.16,all
0.07,all
-0.09,all
-0.13,all
-0.04,all
-0.09,all
-0.06,all
0.37,all
-0.12,all
-0.05,all
-0.04,all
0.01,all
0.06,all
0.05,all
-0.1,all
-0.32,all
-0.23,all
-0.03,all
-0.02,all
0.08,all
0.07,all
-0.34,all
0.31,all
-0.37,all
-0.05,all
-0.09,all
0.36,all
0.08,all
-0.12,all
0.02,all
0.02,all
-0.07,all
0.1,all
-0.23,all
0.14,all
0.02,all
0.2,all
0.06,all
-0.03,all
-0.01,all
-0.03,all
-0.02,all
0.12,all
-0.1,all
-0.02,all
0.04,all
-0.96,all
-0.44,all
0.06,all
-0.15,all
0.18,all
-0.16,all
-0.03,all
0.01,all
-0.07,all
-0.19,all
-0.21,all
-0.17,all
0.43,all
0.03,all
0.06,all
0,all
0,all
0.02,all
0.09,all
0.01,all
-0.09,all
0.11,all
0.01,all
-0.04,all
0.12,all
-0.09,all
-0.15,all
-0.04,all
0.07,all
-0.05,all
-0.07,all
-0.19,all
-0.09,all
0.01,all
0.06,all
0.04,all
0.77,all
0.24,all
-0.18,all
0.46,all
0.01,all
-0.06,all
-0.16,all
-0.21,all
-0.19,all
0.04,all
-0.24,all
-0.14,all
-0.27,all
0.07,all
-0.25,all
0.22,all
-0.13,all
-0.09,all
0.14,all
-0.29,all
-0.19,all
-0.23,all
0.01,all
-0.24,all
-0.17,all
0.48,all
-1.27,all
1.24,all
-0.05,all
0.03,all
-0.05,all
0.91,all
0.26,all
0.04,all
0.09,all
-0.19,all
-0.02,all
0.02,all
-0.2,all
-0.34,all
0.08,all
-0.09,all
-0.04,all
0,all
-0.02,all
0,all
-0.15,all
0.09,all
-0.18,all
-0.11,all
-0.03,all
-0.19,all
-0.24,all
-0.07,all
-0.01,all
-0.38,all
-0.07,all
-0.42,all
-0.04,all
-0.21,all
-0.2,all
-0.03,all
-0.08,all
-0.06,all
-0.01,all
-0.18,all
0.02,all
-0.04,all
-0.01,all
0.19,all
0.03,all
-0.04,all
0.06,all
-0.18,all
-0.16,all
0.04,all
-0.07,all
-0.13,all
0.18,all
0.18,all
-0.17,all
0.02,all
0.01,all
-1.06,all
-0.4,all
0.05,all
-0.08,all
0.27,all
0,all
-0.08,all
-0.18,all
-0.15,all
-0.16,all
-0.02,all
-0.31,all
-0.17,all
-0.17,all
-0.04,all
0.05,all
-0.07,all
0.43,all
0.15,all
0.07,all
0.11,all
-0.12,all
-0.41,all
0.21,all
0.15,all
-0.01,all
0.16,all
0.09,all
-0.06,all
0.33,all
-0.1,all
-0.09,all
-0.48,all
0.05,all
-0.1,all
0.63,all
-0.17,all
-0.14,all
0.21,all
-0.03,all
-0.14,all
-0.17,all
-0.29,all
0.23,all
0.01,all
-0.02,all
-0.26,all
0.18,all
-0.26,all
-0.13,all
-0.01,all
-0.11,all
-0.29,all
-0.23,all
0,all
0.13,all
0.01,all
0.38,all
-0.12,all
-0.54,all
-0.19,all
-0.09,all
-0.26,all
-0.85,all
0.03,all
-0.16,all
-0.27,all
0.23,all
0.04,all
0.01,all
0.01,all
-0.12,all
0.18,all
0.05,all
0.15,all
-0.16,all
1.15,all
-0.2,all
-0.07,all
-0.19,all
-0.17,all
0.09,all
-0.19,all
-0.25,all
-0.48,all
0.38,all
-0.1,all
-0.1,all
-0.39,all
-0.25,all
-0.38,all
-0.12,all
-0.08,all
0,all
0.06,all
-0.07,all
-0.23,all
-0.6,all
0.12,all
0.05,all
0.19,all
0.19,all
-0.32,all
0.2,all
-0.09,all
0.02,all
0.27,all
0.02,all
0.04,all
0.32,all
-0.1,all
0.05,all
-0.24,all
0.1,all
-0.64,all
-0.24,all
0.14,all
-0.14,all
-0.42,all
-0.87,all
-0.08,all
0.02,all
-0.43,all
-0.06,all
0.17,all
0.06,all
-0.07,all
-0.1,all
-0.08,all
0.01,all
-0.29,all
-0.03,all
-0.07,all
-0.32,all
-0.23,all
-0.14,all
0,all
-0.29,all
0.44,all
0.14,all
-0.79,all
-0.29,all
0.13,all
-0.29,all
0.09,all
-0.36,all
-0.06,all
0.07,all
-0.28,all
0.11,all
0.15,all
-0.3,all
-0.55,all
-0.36,all
0.03,all
-0.07,all
0.05,all
-0.34,all
-0.16,all
-0.04,all
-0.02,all
-0.15,all
0.21,all
0.11,all
-0.59,all
-0.51,all
-0.18,all
-0.16,all
0.33,all
-0.02,all
-0.11,all
-0.1,all
-0.25,all
-0.06,all
-0.37,all
-1,all
-0.05,all
-0.51,all
-0.24,all
-0.26,all
0.04,all
-0.33,all
0.12,all
-0.19,all
-0.35,all
-0.04,all
0.09,all
-0.24,all
-0.72,all
-0.1,all
-0.18,all
0.54,all
0.02,all
0.24,all
-0.02,all
-0.26,all
-0.16,all
0.06,all
0.34,all
0.03,all
-0.41,all
-0.3,all
-0.17,all
-0.09,all
-0.49,all
-0.3,all
-0.33,all
-0.35,all
0.35,all
0.17,all
0.15,all
-0.44,all
-0.54,all
-0.21,all
0.08,all
-0.11,all
-0.15,all
-0.76,all
0.23,all
-0.42,all
0.08,all
-0.4,all
0.06,all
-0.65,all
-0.06,all
-0.31,all
-0.53,all
-0.28,all
-0.03,all
0.09,all
-0.38,all
-0.61,all
-0.42,all
-0.1,all
0.29,all
0.43,all
-0.84,all
0.06,all
-0.21,all
-0.08,all
-0.54,all
-0.5,all
-0.43,all
-0.6,all
-0.07,all
0.02,all
-0.39,all
0.01,all
-0.18,all
-0.32,all
-0.25,all
-0.15,all
-0.23,all
-0.08,all
0.09,all
-0.27,all
-0.15,all
-0.35,all
-0.11,all
-0.25,all
0.18,all
0.02,all
-0.43,all
-0.81,all
0.4,all
-0.08,all
-1.82,all
-0.39,all
-0.42,all
-0.28,all
0.28,all
-0.28,all
-0.02,all
-0.02,all
-0.15,all
-0.16,all
-0.31,all
-0.58,all
-0.3,all
0.21,all
-0.54,all
-0.28,all
-0.05,all
0,all
-0.43,all
-0.03,all
-0.26,all
-0.65,all
-0.79,all
0.34,all
-0.05,all
-0.51,all
-0.14,all
-0.35,all
-0.63,all
-0.03,all
0.19,all
0.01,all
-0.67,all
-0.15,all
-0.01,all
-0.47,all
0.08,all
0.66,all
-0.13,all
-0.41,all
0.77,all
-0.08,all
-0.75,all
-0.01,all
-0.11,all
-0.36,all
-0.41,all
-0.69,all
-0.69,all
-0.96,all
-0.21,all
-0.64,all
-0.14,all
-0.87,all
-0.32,all
-0.28,all
-0.29,all
0.44,all
-0.06,all
0.37,all
-0.26,all
0.16,all
0.24,all
-0.21,all
-1.9,all
-0.5,all
0.02,all
-0.42,all
1.39,all
-0.43,all
-0.03,all
0.08,all
0.83,all
-0.14,all
0.13,all
0.01,all
0.96,all
-0.65,all
-0.27,all
-0.02,all
0.24,all
-0.06,all
-0.19,all
-0.34,all
-0.3,all
-0.42,all
1.52,all
-0.16,all
-0.49,all
-0.14,all
0.07,all
-0.63,all
-0.16,all
-1.38,all
1.13,all
-0.21,all
-0.19,all
-0.69,all
-0.29,all
0.23,all
-0.68,all
0.25,all
-1.04,all
0.69,all
0.01,all
-0.52,all
0.37,all
0.07,all
0.49,all
0.27,all
-0.26,all
-0.03,all
-0.44,all
-0.72,all
-0.11,all
0.72,all
-0.1,all
-0.28,all
-0.35,all
-0.6,all
-1.3,all
-0.19,all
2.54,all
-1.07,all
-0.32,all
-0.33,all
-0.6,all
1.19,all
-0.76,all
-0.61,all
-0.45,all
0.44,all
-0.74,all
-0.19,all
-0.98,all
-0.65,all
0.09,all
-1.24,all
-0.27,all
0.35,all
0.82,all
-0.21,all
0.29,all
-0.1,all
1.07,all
-1.34,all
-0.44,all
0,all
-0.01,all
0.44,all
-0.52,all
0.29,all
0.66,all
-2.03,all
0.74,all
-0.64,all
-0.04,all
0.41,all
-1.05,all
0.48,all
-1.54,all
-0.34,all
-0.25,all
-0.99,all
0.87,all
0.13,all
0,all
-1,all
1.54,all
-1.51,all
-1.73,all
-0.75,all
-0.52,all
0.01,all
6.47,all
0,all
-2.37,all
-1.57,all
0,all
-1.11,all
0.5,all
-1.09,all
0,all
0.48,all
0.4,all
0.11,all
0,all
-0.32,all
-1.57,all
3.26,all
5.19,all
3.44,all
5.34,all
4.94,all
4.31,all
4.45,all
2.13,all
1.76,all
1.82,all
2.09,all
-0.08,all
2.05,all
3.68,all
2.72,all
1.49,all
2.29,all
2.03,all
1.13,all
-5.88,all
0.91,all
1.88,all
0.88,all
-0.12,all
0.88,all
2.25,all
0.87,all
1.61,all
1,all
1.65,all
2.36,all
1.3,all
0.37,all
1.55,all
1.64,all
0.67,all
1.68,all
1.51,all
1.42,all
-1.08,all
-0.57,all
1.75,all
1.63,all
1.17,all
1.41,all
0.29,all
1.04,all
0.73,all
0.52,all
1.13,all
1.03,all
0.82,all
0.26,all
0.82,all
1.78,all
0.32,all
0.9,all
1.64,all
0.21,all
0.36,all
1.8,all
2,all
0.02,all
1.11,all
0.68,all
-0.12,all
0.61,all
0.93,all
-6.02,all
0.88,all
1.49,all
0.49,all
1.24,all
1.11,all
1.28,all
2.34,all
1.63,all
1.13,all
0,all
1.36,all
-0.28,all
0.23,all
0.39,all
1.08,all
1.19,all
0.52,all
0.67,all
0.31,all
0.41,all
1.29,all
0.65,all
-0.02,all
0.32,all
0.6,all
0.52,all
0.35,all
0.18,all
0.69,all
0.33,all
0.24,all
0.66,all
0.25,all
0.59,all
-0.07,all
1,all
2.98,all
0.95,all
0.41,all
1.39,all
1.99,all
0.53,all
0.33,all
0.52,all
0.15,all
0.98,all
1.06,all
0.48,all
-0.04,all
0.4,all
-0.13,all
0.43,all
0.3,all
0.71,all
0.34,all
0.1,all
0.48,all
0.89,all
0.78,all
0.47,all
0.08,all
0.51,all
0.51,all
1.55,all
1.12,all
0.67,all
-0.16,all
0.55,all
0.1,all
0.66,all
0.36,all
1.08,all
0.4,all
0.56,all
0.41,all
0.31,all
0.24,all
0.38,all
0.29,all
0.65,all
0.23,all
-0.19,all
0.13,all
0.44,all
0.48,all
0.49,all
0.48,all
0.51,all
0.49,all
0.51,all
0.53,all
0.29,all
0.28,all
0.46,all
0.55,all
0.34,all
0.19,all
0.24,all
0.22,all
0.17,all
0.36,all
0.61,all
1.15,all
0.53,all
0.26,all
0.93,all
-0.21,all
0.42,all
0.06,all
0.91,all
0.18,all
0.37,all
0.52,all
0.46,all
0.38,all
-0.25,all
0.11,all
-0.13,all
-0.01,all
0.14,all
0.79,all
0.28,all
0.61,all
0.05,all
0.23,all
0.33,all
0.26,all
0.28,all
0.4,all
0.21,all
0.07,all
0.39,all
0.76,all
0.56,all
0.78,all
0.42,all
0.16,all
1.09,all
0.12,all
0.22,all
0.55,all
0.05,all
0.64,all
0.59,all
0.66,all
0.51,all
0.38,all
0.13,all
0.72,all
0.46,all
0.32,all
0.57,all
0.38,all
0.04,all
0.2,all
0.26,all
0.5,all
0.17,all
0.2,all
0.37,all
0.13,all
0.23,all
0.91,all
2.65,all
0.1,all
0.56,all
0.59,all
0.86,all
0.17,all
0.19,all
0.29,all
0.3,all
0.41,all
0.16,all
0.74,all
0.23,all
0.23,all
0.15,all
0.24,all
-0.22,all
0.27,all
0.16,all
0.26,all
0.3,all
-0.12,all
0.42,all
0.47,all
0.31,all
0.18,all
0.06,all
0.15,all
2.83,all
-0.16,all
0.32,all
-0.06,all
0.62,all
0.12,all
0.36,all
0.24,all
0.22,all
1.62,all
0.08,all
0.37,all
0.16,all
0.22,all
-0.44,all
0.31,all
0.31,all
0.17,all
-0.07,all
0.29,all
-0.02,all
-0.17,all
-0.02,all
0.21,all
0.1,all
0.25,all
0.15,all
0.51,all
0.25,all
0.21,all
1.28,all
0.41,all
0.11,all
0.23,all
0.09,all
0.34,all
0.19,all
-0.01,all
0.12,all
0.49,all
-0.11,all
0.22,all
0.13,all
0.32,all
-0.05,all
0.25,all
0.12,all
0.19,all
0.41,all
0.07,all
-0.01,all
0.08,all
-0.27,all
0.17,all
0.22,all
-0.07,all
0.06,all
0.07,all
0.38,all
0.04,all
0.01,all
0.08,all
0.07,all
0.33,all
0.52,all
0.06,all
0.36,all
0.23,all
0.21,all
0.16,all
0.08,all
0.19,all
0.05,all
0.31,all
0.23,all
0.27,all
0.08,all
-0.01,all
0.25,all
0.34,all
0.12,all
0.06,all
-0.06,all
0.1,all
0.3,all
0.5,all
0.25,all
0.08,all
0.23,all
0.06,all
0.23,all
0.16,all
1.08,all
0.14,all
0.41,all
0.13,all
0.27,all
1,all
0.06,all
-0.03,all
0.11,all
0.23,all
-0.01,all
0.2,all
0.16,all
0.31,all
0.27,all
0.17,all
0.18,all
0.29,all
0.13,all
0.14,all
0.12,all
0.8,all
0.18,all
0.28,all
0.09,all
0.28,all
0.4,all
0.08,all
0.25,all
0.02,all
0.12,all
0.23,all
0.06,all
0.09,all
0.13,all
0.47,all
0.08,all
0.01,all
0.31,all
0.1,all
-0.16,all
0.16,all
0.14,all
0.19,all
0.16,all
0.19,all
0.03,all
-0.17,all
0.18,all
-0.05,all
0.2,all
0.05,all
0.44,all
0.22,all
0.14,all
0.06,all
0.09,all
0.09,all
0.04,all
0.19,all
0.19,all
0.3,all
0.33,all
0.03,all
0.43,all
0.29,all
0.19,all
0.18,all
0.16,all
-0.06,all
0.08,all
0.12,all
0.26,all
0.03,all
0.46,all
0.2,all
0.21,all
-0.11,all
0.21,all
0.23,all
0.41,all
0.01,all
0.29,all
0.12,all
0.34,all
0.05,all
0.31,all
0.16,all
0.28,all
0.07,all
0.03,all
0.1,all
0.46,all
0.14,all
0.45,all
0.06,all
-0.06,all
0.21,all
0.1,all
0.09,all
0.04,all
2.19,all
0.35,all
0.09,all
0.32,all
0.29,all
0.26,all
-0.01,all
0.09,all
0.21,all
0.03,all
0.18,all
-0.24,all
0.17,all
0.01,all
0.08,all
0.46,all
0.07,all
0.12,all
0.07,all
0.26,all
0.19,all
0.1,all
0.07,all
0.15,all
0.28,all
0.16,all
0.63,all
0.01,all
0.38,all
-0.02,all
0.3,all
0.45,all
0.08,all
0.31,all
0.1,all
0.35,all
0.11,all
0.39,all
0.18,all
0.01,all
0.14,all
-0.1,all
0.27,all
0.4,all
-0.01,all
0.23,all
0.12,all
0.06,all
0.43,all
0.17,all
-0.78,all
0.31,all
0.16,all
0.35,all
0.12,all
0.04,all
-0.04,all
0.08,all
0.09,all
0.16,all
0.33,all
0.13,all
0.16,all
0.32,all
0.12,all
0.09,all
1.08,all
0.16,all
0.27,all
0.09,all
0.85,all
0,all
0.09,all
0.05,all
0.01,all
0.12,all
0.05,all
0.36,all
0.23,all
0.09,all
0.08,all
0.05,all
0.17,all
0.02,all
0.01,all
0.15,all
0.13,all
0.04,all
0.23,all
0.1,all
0.08,all
0.23,all
0.06,all
0.32,all
0.18,all
0.12,all
0.11,all
0.15,all
0.09,all
0.51,all
0.24,all
0.06,all
0.16,all
0.21,all
-0.04,all
0.09,all
0.06,all
0.19,all
0.05,all
0.02,all
0.11,all
0.23,all
0.12,all
0.02,all
-0.04,all
0.27,all
0.16,all
0.13,all
0.45,all
0.15,all
-0.05,all
0.09,all
-0.56,all
0.17,all
0.17,all
0.12,all
0.05,all
0.24,all
0.06,all
0.14,all
0.23,all
0.08,all
-0.02,all
0.19,all
0.14,all
0.3,all
0.26,all
0.14,all
1.22,all
0.17,all
0,all
0.33,all
-0.29,all
0.11,all
-0.07,all
0.12,all
0.07,all
0.11,all
-0.02,all
-0.3,all
0.02,all
0.07,all
0.08,all
-0.01,all
0.16,all
0.05,all
0.13,all
0.05,all
0.15,all
0.01,all
0.12,all
0.14,all
0.19,all
0.09,all
0.07,all
-0.05,all
0.07,all
0.05,all
0.23,all
-0.34,all
0.08,all
0.19,all
0.14,all
0.08,all
0.31,all
0.1,all
0.11,all
0.32,all
0.12,all
0.17,all
0.08,all
-0.11,all
0.13,all
0.05,all
0.1,all
0.05,all
0.04,all
0.02,all
-0.02,all
0.17,all
0.14,all
0.26,all
0.09,all
0.07,all
0.08,all
0.09,all
0.25,all
0.11,all
-0.04,all
0.09,all
0.04,all
0.02,all
-0.04,all
0.09,all
0.11,all
0.04,all
0.04,all
0.15,all
0.12,all
0.15,all
0.22,all
0.01,all
0.17,all
0.19,all
0.06,all
0,all
-0.02,all
0.08,all
0.09,all
0.06,all
-0.05,all
0.07,all
0.07,all
0.14,all
-0.01,all
0.01,all
-0.02,all
0.28,all
0.05,all
0,all
0.08,all
0.16,all
0.01,all
0.07,all
0.11,all
-0.01,all
0.08,all
0.16,all
0.19,all
0.04,all
0.12,all
0.1,all
0.11,all
0.1,all
0.06,all
0.05,all
0.05,all
0.02,all
-0.04,all
0.05,all
0.08,all
0.06,all
0.16,all
0.08,all
-0.05,all
0.02,all
0.35,all
0.08,all
0.05,all
0.14,all
0.26,all
0.12,all
0.11,all
0.05,all
-0.02,all
0.17,all
-0.12,all
0.03,all
0.11,all
0.02,all
0.2,all
0.03,all
0.27,all
0.1,all
0.03,all
0.13,all
0.33,all
0.05,all
-0.35,all
0.1,all
0.08,all
0.05,all
-0.2,all
0.11,all
-0.18,all
0.05,all
0.17,all
0,all
0.04,all
0.05,all
0.05,all
0.03,all
0.03,all
0.1,all
0.07,all
-0.04,all
0.06,all
0.12,all
0.11,all
-0.03,all
0.09,all
0.09,all
0.03,all
0.07,all
0.18,all
0.18,all
0.48,all
0.09,all
0.05,all
0.06,all
0.2,all
0.25,all
0.16,all
0.01,all
0.07,all
0.07,all
0.07,all
0.11,all
0.01,all
-0.03,all
0.08,all
0.05,all
0.15,all
0.14,all
0.11,all
0.04,all
-0.04,all
0.09,all
0.06,all
0.16,all
0.52,all
0.11,all
0.09,all
0.06,all
0.07,all
0.03,all
-0.01,all
-0.03,all
0.09,all
0.1,all
0.06,all
0.47,all
0.14,all
0.31,all
0.08,all
0.12,all
0.07,all
0.27,all
0.02,all
0.09,all
0.01,all
0.01,all
0.14,all
0.02,all
0.07,all
0.1,all
0.38,all
0.07,all
0.05,all
0.22,all
0.11,all
0,all
0.15,all
-0.08,all
0.12,all
0.05,all
0.19,all
0.83,all
0.14,all
0.1,all
0.01,all
0.02,all
0.05,all
0.1,all
0.15,all
-0.01,all
0.08,all
0.26,all
0.48,all
0.13,all
0.01,all
-0.07,all
0.39,all
-0.01,all
0.11,all
0.09,all
0.07,all
0.13,all
-0.05,all
0.19,all
0.09,all
0.17,all
0.08,all
0.07,all
0.06,all
-0.05,all
0.11,all
0.09,all
0.05,all
0.07,all
0.07,all
-0.29,all
0.05,all
0.01,all
0.17,all
0.1,all
0.06,all
0.05,all
0.21,all
0.03,all
0.15,all
0.31,all
0.19,all
0.06,all
0.07,all
0.08,all
0.05,all
0.11,all
0.06,all
0.08,all
0.05,all
-0.2,all
-0.13,all
0.26,all
0.02,all
-0.07,all
0.03,all
-0.02,all
0.12,all
0.05,all
0.14,all
0.07,all
0.28,all
0.09,all
0.07,all
0.25,all
-0.26,all
-0.1,all
0.06,all
0.07,all
0.04,all
0.05,all
-0.02,all
0.05,all
0.1,all
0.08,all
-0.04,all
-0.21,all
0.05,all
-0.07,all
0.16,all
0.14,all
0.1,all
0.07,all
0.04,all
0.03,all
0.03,all
0.17,all
0.02,all
0.1,all
-0.23,all
0.04,all
-0.01,all
0.09,all
0.05,all
0.12,all
0.03,all
0.01,all
-0.01,all
-1.19,all
-0.04,all
0.11,all
0.09,all
0.05,all
0.06,all
0,all
-0.01,all
0.02,all
0.1,all
0.09,all
0,all
0.01,all
0.06,all
0.05,all
0.03,all
0.09,all
0.05,all
0.04,all
0.06,all
0.08,all
0.09,all
0.02,all
0.09,all
0.14,all
-0.11,all
0,all
0.06,all
0.07,all
0.2,all
0.12,all
-0.02,all
-0.01,all
0.08,all
-0.01,all
0.07,all
0.05,all
0.09,all
0.01,all
0.08,all
0.2,all
0.06,all
0.1,all
0.11,all
0.07,all
0.05,all
-0.13,all
0.12,all
0.09,all
0.16,all
-0.01,all
0.03,all
0.07,all
0.05,all
0.08,all
0.09,all
0.05,all
0.08,all
2.15,all
-0.36,all
0.03,all
0.01,all
0.05,all
0.02,all
0.03,all
-0.04,all
0.08,all
0.07,all
-0.18,all
-0.05,all
0.46,all
-0.02,all
0.08,all
0.14,all
0.08,all
-0.04,all
0.18,all
0.06,all
0.09,all
0.11,all
0.03,all
0.05,all
0.04,all
0.04,all
-0.23,all
0.07,all
0.07,all
0.05,all
0.06,all
0.16,all
0,all
-0.03,all
-0.07,all
-0.14,all
-0.02,all
0.08,all
0.04,all
0.05,all
0.01,all
0.42,all
0.04,all
0.64,all
0.02,all
-0.01,all
0.05,all
0.04,all
0.23,all
0,all
0.06,all
0.14,all
0.07,all
0.04,all
0.37,all
0.06,all
-0.32,all
0.06,all
0.03,all
0.07,all
-0.05,all
0.07,all
0.01,all
0.08,all
0.05,all
0.08,all
0.07,all
0.02,all
0.07,all
0.03,all
0.09,all
0.27,all
0.05,all
0.06,all
0.05,all
0.04,all
0.02,all
0.05,all
-0.1,all
0.08,all
-0.01,all
0.04,all
0.05,all
0.04,all
0.04,all
0.01,all
0.12,all
0.13,all
0.03,all
-0.28,all
0.06,all
0.01,all
0.04,all
0.2,all
0.09,all
0.33,all
-0.06,all
0.02,all
-0.06,all
0.04,all
0.06,all
0.08,all
0.1,all
0.16,all
0.01,all
0.13,all
0.1,all
0.09,all
0.06,all
0.24,all
0.04,all
0.02,all
-0.01,all
0.04,all
0.07,all
0.07,all
0.06,all
0.07,all
0.28,all
0.05,all
0.04,all
0.1,all
0.41,all
0.05,all
0.07,all
0.07,all
0.05,all
0.02,all
0.19,all
0.07,all
0.11,all
0.05,all
0.05,all
0.07,all
0.1,all
0.08,all
0.16,all
0.03,all
0.06,all
0.13,all
0.04,all
0.11,all
0.02,all
0.1,all
0.05,all
-0.04,all
0.06,all
0.04,all
-0.01,all
0.05,all
0.06,all
0.06,all
0.04,all
0.06,all
0.06,all
0.05,all
0.03,all
0.04,all
0.05,all
0.06,all
0.15,all
0.05,all
0.09,all
0.06,all
0.12,all
0.11,all
0.1,all
0.08,all
0.1,all
-0.13,all
-0.01,all
0.05,all
0.04,all
0.03,all
0.01,all
-0.07,all
0.03,all
0.04,all
0.02,all
0.01,all
0.2,all
0.01,all
0.05,all
-0.01,all
0.09,all
0.04,all
0.09,all
0.24,all
0.05,all
0.04,all
-0.09,all
0.07,all
0.05,all
0,all
0.06,all
-0.01,all
0.06,all
0.04,all
0.37,all
0.12,all
-0.01,all
0.04,all
0.1,all
0.82,all
0.04,all
0.02,all
0,all
0.03,all
-0.06,all
0.04,all
0.03,all
0.16,all
0.02,all
0.04,all
0.06,all
0.07,all
0.05,all
0.02,all
0.05,all
0.04,all
0.03,all
0.06,all
0.07,all
0.34,all
0.03,all
0.13,all
0.11,all
0.02,all
0.07,all
0.05,all
0.05,all
0.08,all
0.18,all
-0.22,all
0.03,all
0.08,all
0.03,all
0.06,all
0.08,all
0.09,all
0.06,all
0.1,all
-0.01,all
-0.04,all
0.16,all
0.03,all
0.22,all
0.04,all
-0.12,all
-0.1,all
0.12,all
0.07,all
0.03,all
0.02,all
0.05,all
-0.08,all
0.02,all
0.03,all
0.03,all
0.02,all
0.08,all
0.04,all
0.02,all
-0.01,all
0.04,all
0.06,all
0.05,all
-0.09,all
0.04,all
-0.08,all
-0.1,all
0.03,all
0.05,all
0.08,all
0.09,all
0.11,all
0.04,all
0.04,all
0.04,all
0.18,all
0.08,all
0.04,all
0.11,all
0.07,all
0.06,all
0.07,all
0.06,all
0.05,all
-0.03,all
0.05,all
0.08,all
-0.33,all
0.03,all
0.03,all
-0.13,all
-0.09,all
0.12,all
0,all
0.07,all
0.08,all
0.2,all
0.04,all
0.03,all
0.09,all
0.03,all
0.04,all
0.06,all
0.07,all
0.12,all
-0.07,all
0.06,all
0.04,all
0.03,all
0.36,all
0.04,all
0.04,all
0.07,all
0.05,all
0.12,all
0.08,all
0.13,all
0.05,all
0.07,all
0.21,all
0.03,all
0.08,all
-0.04,all
0.08,all
0.05,all
0.05,all
0.06,all
0.04,all
0.04,all
-0.38,all
0.04,all
0,all
0.03,all
0.03,all
0.03,all
0.06,all
0.52,all
0.12,all
0.18,all
0.14,all
0.05,all
0.04,all
0.04,all
0.02,all
-0.01,all
0,all
0.02,all
0.08,all
0.05,all
0.04,all
0.06,all
0.03,all
0.04,all
0.02,all
0.04,all
0.02,all
0.05,all
0.05,all
0.02,all
0.02,all
-0.09,all
0.15,all
0.52,all
-0.25,all
0.01,all
0.03,all
0.03,all
0.07,all
0.07,all
-0.1,all
-0.06,all
-0.01,all
-0.11,all
0.05,all
0.04,all
0.14,all
0.05,all
0.04,all
0.07,all
0.03,all
0.04,all
0.04,all
0.11,all
0.04,all
0.05,all
0.05,all
0,all
0.04,all
0.1,all
-0.02,all
0.04,all
0.05,all
0.05,all
0.03,all
0.04,all
-0.38,all
0,all
0.06,all
0.06,all
0.04,all
0.07,all
0.36,all
0.04,all
0.02,all
0.03,all
0.14,all
0.04,all
0.05,all
-0.07,all
-0.39,all
0.06,all
0,all
0.03,all
0.03,all
0.04,all
0.04,all
-0.07,all
0.04,all
0.05,all
0.08,all
0.06,all
0.03,all
0.01,all
0.02,all
0.03,all
0.02,all
0.04,all
0.03,all
0.03,all
-0.02,all
0.03,all
-0.05,all
0.03,all
0.4,all
0.04,all
0.09,all
0.04,all
0.02,all
0.06,all
0,all
0.1,all
0.04,all
0.05,all
0.25,all
0.03,all
0.06,all
0.03,all
0.03,all
0.05,all
0.03,all
0.04,all
0.01,all
0,all
0.01,all
0.07,all
0.13,all
0.03,all
0.18,all
0,all
0.18,all
0.05,all
0.01,all
0.02,all
-0.17,all
0.03,all
0.03,all
0.04,all
0.07,all
0.04,all
-0.01,all
0.06,all
0.03,all
0.02,all
0.04,all
0.09,all
0.23,all
0.02,all
0.09,all
0.02,all
0.01,all
0.04,all
-0.01,all
0.06,all
0.08,all
-0.08,all
0.04,all
0.01,all
0.06,all
-0.13,all
0,all
0.08,all
0.09,all
0,all
0.02,all
0.03,all
-0.01,all
0.02,all
0,all
-0.05,all
0.07,all
0.05,all
0.04,all
-0.04,all
0.07,all
0.04,all
0.05,all
0.03,all
0.07,all
0.03,all
0,all
0.03,all
0.08,all
0.07,all
0.02,all
0.02,all
0.03,all
0.03,all
0.02,all
0.09,all
0.05,all
0.04,all
0.09,all
0.04,all
0.07,all
0.06,all
0.06,all
0.01,all
-0.16,all
0.17,all
1.29,all
0.03,all
0.17,all
0.03,all
0.05,all
0.01,all
0.02,all
0.19,all
-0.06,all
0.05,all
0.03,all
-0.08,all
0.08,all
0.04,all
0.01,all
0.13,all
0.02,all
0.07,all
0.13,all
0.05,all
0.02,all
0.04,all
0.06,all
0.03,all
0.06,all
-0.02,all
0.08,all
0.07,all
0.06,all
0.03,all
0.07,all
0.25,all
-0.01,all
0.03,all
0.02,all
-0.16,all
0.04,all
0.06,all
0.07,all
0.01,all
-0.02,all
0.01,all
0.28,all
0.06,all
-0.09,all
0.05,all
0.03,all
0.05,all
0.01,all
0.02,all
0.03,all
0.02,all
0.05,all
0,all
0.05,all
0.06,all
0.05,all
0.13,all
0,all
0.41,all
-0.01,all
-0.01,all
-0.02,all
0.05,all
-0.01,all
0.06,all
0.03,all
0.02,all
0.02,all
-0.1,all
0.03,all
0.07,all
-0.09,all
-0.13,all
0,all
0.03,all
0.05,all
0.04,all
-0.01,all
0,all
0.03,all
-0.03,all
0.05,all
0.04,all
0.01,all
0.03,all
0.04,all
0.02,all
0.05,all
-0.03,all
-0.13,all
0.01,all
0.04,all
0.13,all
0.04,all
0.04,all
0.26,all
0.04,all
0.03,all
0.03,all
0.86,all
0.06,all
0.13,all
0.04,all
0.02,all
0,all
0,all
0.05,all
0.01,all
0.03,all
0.07,all
0.02,all
0.02,all
-0.04,all
0.01,all
0.05,all
0.05,all
0.11,all
0.03,all
0.01,all
0.04,all
0.07,all
0.05,all
0.02,all
0.04,all
0.09,all
0.04,all
0.04,all
0.07,all
0.02,all
0.04,all
0.1,all
0.02,all
0.03,all
0.08,all
0.08,all
0.03,all
0.03,all
-0.01,all
-0.07,all
0.05,all
-0.04,all
0.2,all
0.05,all
-0.28,all
0,all
0.04,all
0.04,all
0,all
-0.01,all
0.02,all
0.08,all
0.05,all
0.09,all
0.16,all
0.02,all
0.26,all
0.12,all
0.03,all
0.04,all
-0.03,all
-0.02,all
0.06,all
0,all
0.06,all
0.05,all
0.02,all
0.03,all
0.03,all
0.07,all
0.04,all
-0.01,all
0.35,all
0.03,all
0.1,all
-0.1,all
-0.13,all
-0.3,all
0.01,all
0.06,all
0.05,all
0.08,all
0.1,all
0.07,all
-0.02,all
0,all
0.04,all
-0.03,all
0.01,all
0.03,all
0.01,all
0.04,all
-0.01,all
-0.14,all
0.2,all
0.05,all
-0.15,all
0.02,all
0.04,all
0.05,all
-0.02,all
0.04,all
0.01,all
0,all
0.09,all
0.02,all
0,all
0.12,all
0.03,all
0.08,all
0,all
0.05,all
0.03,all
0.03,all
0.04,all
-0.01,all
0.03,all
-0.01,all
0.03,all
0.05,all
0.01,all
0.05,all
0.06,all
0.01,all
0.02,all
0.02,all
0.03,all
-0.01,all
0.04,all
0.01,all
0.01,all
0.02,all
0,all
0.04,all
0.03,all
0.01,all
0,all
0.06,all
0.04,all
0.03,all
0.05,all
-0.04,all
-0.11,all
-0.01,all
0.04,all
0.09,all
0.02,all
0.04,all
0.04,all
0.08,all
0.03,all
-0.27,all
0.04,all
0.04,all
0.01,all
0.04,all
0.04,all
0.02,all
0.01,all
0.05,all
0.04,all
-0.04,all
0.06,all
-0.17,all
0.05,all
0.03,all
-0.01,all
0.02,all
-0.32,all
0.03,all
0.13,all
-0.08,all
0.03,all
0.08,all
0.02,all
0,all
0.05,all
0,all
-0.01,all
-0.04,all
0.03,all
0.01,all
0,all
0.07,all
-0.06,all
0,all
0.03,all
0.07,all
-0.01,all
0.05,all
-0.09,all
0.05,all
-0.04,all
0.02,all
-0.02,all
-0.01,all
0.01,all
0.01,all
0.03,all
0.01,all
0.06,all
-0.01,all
-0.08,all
0.01,all
0,all
0,all
0.01,all
0.05,all
-0.05,all
0.04,all
0.02,all
-0.05,all
0,all
0,all
0.15,all
0.02,all
0.02,all
0.1,all
0.18,all
0.03,all
-0.02,all
0.01,all
0,all
0.09,all
0.03,all
-0.02,all
0.02,all
0,all
-0.24,all
0.12,all
0.27,all
0.08,all
-0.02,all
-0.03,all
0.02,all
0.02,all
0.04,all
-0.05,all
0.03,all
0.01,all
0.02,all
-0.06,all
0.12,all
0.03,all
0.01,all
0,all
-0.13,all
0.09,all
-0.06,all
-0.02,all
-0.26,all
-0.02,all
-0.01,all
0,all
-0.06,all
-0.03,all
0.08,all
-0.04,all
0.12,all
0.03,all
0.06,all
0.05,all
0.01,all
0.07,all
0.05,all
0.26,all
0.17,all
0.12,all
-0.01,all
0.02,all
0.09,all
0,all
-0.01,all
-0.06,all
0.02,all
0,all
0.04,all
-0.02,all
0.07,all
0.01,all
-0.02,all
0,all
0,all
0,all
0.02,all
0.03,all
0.03,all
-0.03,all
-0.14,all
0.02,all
0.04,all
0.03,all
0.03,all
0.04,all
0.03,all
0.07,all
-0.08,all
0.02,all
0,all
0.04,all
0.08,all
0.04,all
-0.14,all
-1.04,all
0.03,all
0,all
0.13,all
0.07,all
0.01,all
0.03,all
0.04,all
0.88,all
0.03,all
-0.03,all
0,all
0.08,all
0.04,all
-0.01,all
0.12,all
0.01,all
-0.03,all
-0.02,all
0,all
0,all
0.02,all
0.04,all
0.01,all
0.03,all
-0.04,all
0,all
-0.53,all
0.04,all
0,all
0.05,all
-0.04,all
-0.19,all
0.21,all
0.03,all
0.02,all
-0.01,all
0.13,all
0.02,all
-0.1,all
0.18,all
0.02,all
-0.09,all
-0.07,all
-0.02,all
0.02,all
-0.02,all
0.05,all
0.06,all
-0.02,all
-0.05,all
-0.05,all
0.04,all
0.07,all
0.18,all
-0.02,all
0.17,all
0.01,all
0.09,all
-0.23,all
-0.05,all
0,all
0.07,all
0.06,all
0.01,all
0.02,all
-0.09,all
0.06,all
0.02,all
-0.07,all
0.04,all
0,all
0.03,all
0.02,all
0.01,all
0.08,all
-0.04,all
-0.01,all
0,all
0.01,all
0.01,all
-0.25,all
0.16,all
0.09,all
0.04,all
0.03,all
-0.02,all
0.01,all
0.03,all
0.04,all
0.07,all
0.05,all
-0.25,all
-0.01,all
-0.01,all
0,all
-0.04,all
-0.01,all
-0.04,all
-0.04,all
0.02,all
-0.1,all
-0.07,all
-0.04,all
0.02,all
0.02,all
0.13,all
0.01,all
0.17,all
0.12,all
0.07,all
0.01,all
0.06,all
-0.02,all
0.06,all
0.03,all
0.03,all
0.06,all
-0.16,all
-0.22,all
-0.08,all
0.14,all
0.03,all
0.02,all
0.02,all
0.05,all
0.02,all
0.22,all
-0.02,all
0.07,all
-0.08,all
-0.08,all
1.36,all
0.14,all
-0.09,all
0,all
0,all
-0.05,all
0.02,all
-0.28,all
0.08,all
0.01,all
0.03,all
-0.02,all
-0.12,all
0.02,all
0.07,all
0.06,all
-0.28,all
0.16,all
0.12,all
-0.08,all
-0.04,all
0.05,all
0.03,all
-0.03,all
0.02,all
0.03,all
-0.03,all
-0.08,all
0.03,all
0,all
0,all
0.03,all
0.12,all
0.03,all
0.01,all
-0.01,all
0,all
0.24,all
0.02,all
0.25,all
0.02,all
0.05,all
-0.17,all
0.26,all
-0.01,all
-0.03,all
0,all
0.1,all
-0.13,all
0.07,all
0.16,all
-0.07,all
-0.03,all
-0.1,all
-0.04,all
-0.02,all
0.02,all
0.05,all
0.02,all
0.02,all
0.03,all
0,all
-0.08,all
0,all
0.11,all
0.37,all
-0.04,all
0.05,all
0.09,all
0.11,all
0.05,all
-0.05,all
-0.05,all
0.11,all
0.01,all
0.04,all
0.07,all
0.06,all
0.02,all
-0.04,all
-0.01,all
0.15,all
-0.01,all
-0.1,all
-0.03,all
0.15,all
-0.06,all
0.1,all
-0.13,all
0.1,all
0.06,all
0.59,all
0.1,all
0.06,all
0.02,all
0.06,all
-0.07,all
-0.1,all
0.14,all
0.1,all
0,all
0.01,all
-0.06,all
0.22,all
0,all
-0.03,all
0.07,all
-0.09,all
0.08,all
0.01,all
0.02,all
-0.04,all
-0.52,all
0.07,all
-0.13,all
0.03,all
0.33,all
0,all
0.07,all
-0.18,all
0.01,all
0.03,all
-0.05,all
-0.01,all
0.07,all
-0.07,all
0.13,all
-0.03,all
-0.07,all
0.03,all
-0.09,all
0.07,all
0.06,all
0.67,all
0.09,all
-0.01,all
-0.19,all
0.14,all
-0.4,all
0.7,all
-0.01,all
0.01,all
0,all
0.01,all
-0.01,all
0.03,all
0.11,all
-0.07,all
0.03,all
0,all
0.01,all
-0.07,all
-0.03,all
-0.11,all
0.04,all
0.01,all
0,all
-0.03,all
0,all
0.01,all
-0.15,all
0.08,all
-0.02,all
-0.08,all
0.05,all
-0.26,all
-0.01,all
0.04,all
0.05,all
0.02,all
0.08,all
0.05,all
-0.03,all
0.15,all
0.01,all
-0.1,all
0.22,all
-0.09,all
-0.04,all
-0.08,all
0,all
0.05,all
0.62,all
0.01,all
-0.05,all
-0.06,all
0.02,all
-0.5,all
0,all
-0.17,all
-0.05,all
-0.42,all
0.05,all
-0.09,all
0.03,all
-0.17,all
0.01,all
-0.04,all
-0.02,all
0.05,all
-0.11,all
0.06,all
0.02,all
0.03,all
-0.03,all
-0.26,all
-0.08,all
0.04,all
0.11,all
-0.39,all
-0.1,all
0,all
0.06,all
-0.04,all
-0.07,all
0.37,all
0.03,all
0.01,all
-0.03,all
-0.09,all
0.04,all
-0.35,all
-0.06,all
-0.11,all
-0.03,all
-0.35,all
0.01,all
-0.14,all
-0.06,all
0.02,all
-0.04,all
-0.03,all
-0.27,all
0.03,all
-0.03,all
0.25,all
-0.13,all
0.04,all
-0.01,all
-0.05,all
-0.03,all
0.05,all
-0.13,all
0.26,all
0.15,all
0.01,all
0,all
-0.31,all
-0.07,all
-0.01,all
-0.06,all
0.33,all
-0.11,all
0.05,all
0,all
1.57,all
-0.21,all
-0.13,all
-0.01,all
0.03,all
0,all
0.05,all
0.04,all
0.03,all
0.08,all
0,all
0.08,all
0.47,all
0.05,all
0.04,all
-0.12,all
-0.05,all
-0.1,all
-0.02,all
0.13,all
-0.13,all
0.04,all
-0.06,all
-0.09,all
0.03,all
-0.02,all
-0.1,all
-0.03,all
0.01,all
-0.06,all
-0.18,all
-0.23,all
-0.27,all
-0.04,all
-0.07,all
-0.07,all
0,all
-0.03,all
-0.03,all
-0.05,all
0.19,all
-0.15,all
0.02,all
0.16,all
-0.12,all
0,all
-0.05,all
-1.22,all
-0.02,all
-0.04,all
0.22,all
0.08,all
-0.16,all
-0.08,all
-0.02,all
-0.13,all
-1.43,all
-0.09,all
-0.19,all
-0.17,all
0.06,all
0.04,all
-0.04,all
-0.04,all
0.01,all
-0.1,all
-0.03,all
0.05,all
-0.05,all
0.05,all
-0.04,all
0.01,all
-0.08,all
0.09,all
0.06,all
0.09,all
0.04,all
-0.02,all
-0.04,all
0.08,all
0.27,all
-0.33,all
-0.04,all
-0.14,all
-0.18,all
0.11,all
0.05,all
0.19,all
-0.06,all
-0.04,all
0.05,all
-0.23,all
-0.01,all
-0.17,all
-0.27,all
-0.02,all
0.01,all
0.03,all
0.05,all
0.07,all
-0.15,all
-0.14,all
-0.16,all
-0.35,all
-0.21,all
0.38,all
0.37,all
-0.05,all
0.12,all
-0.37,all
-0.06,all
0.37,all
0.05,all
-0.02,all
-0.18,all
0.2,all
-0.09,all
-0.2,all
0.17,all
-0.64,all
-0.3,all
0.05,all
0,all
0.08,all
-0.01,all
0,all
0.39,all
0.05,all
-0.3,all
-0.58,all
0.18,all
0.01,all
0.72,all
-0.07,all
0,all
-0.01,all
-0.13,all
0.03,all
-0.21,all
-0.05,all
0,all
0.04,all
-0.12,all
0.1,all
-0.24,all
0.01,all
-0.1,all
0.13,all
-0.04,all
-0.04,all
0.01,all
-0.07,all
-0.08,all
-0.13,all
0.1,all
-0.14,all
0.08,all
-0.19,all
0.39,all
0.05,all
0.01,all
0.05,all
-0.33,all
-0.13,all
0,all
0.01,all
-0.05,all
-0.34,all
0,all
-0.2,all
-0.13,all
0.07,all
0.13,all
-0.67,all
-0.23,all
-0.25,all
0,all
-0.64,all
0.17,all
0.18,all
-0.24,all
-0.42,all
-0.14,all
-0.04,all
0,all
-0.37,all
-0.16,all
0.07,all
0.06,all
-0.1,all
-0.26,all
-0.2,all
0,all
0.03,all
0.04,all
0,all
-0.31,all
0.08,all
0.05,all
-0.22,all
-0.06,all
-0.06,all
0.17,all
0.04,all
0.12,all
0.25,all
-0.06,all
-0.2,all
-0.32,all
-0.04,all
-0.14,all
-0.21,all
-0.03,all
-0.02,all
-0.43,all
-0.18,all
-0.04,all
-0.11,all
-0.12,all
-0.57,all
0.05,all
-0.04,all
-0.07,all
-0.19,all
-0.11,all
-0.21,all
-1.12,all
-0.37,all
0.2,all
-0.07,all
-0.32,all
-0.09,all
0.03,all
-0.21,all
0.03,all
-0.44,all
-0.14,all
-0.22,all
-0.04,all
0.04,all
0.01,all
-0.19,all
-0.16,all
-0.06,all
-0.01,all
0.04,all
0.07,all
-0.39,all
-1.85,all
0.01,all
-0.19,all
-0.66,all
-0.24,all
-0.26,all
-0.37,all
-0.07,all
-0.24,all
-0.06,all
0.46,all
-0.02,all
0.4,all
-0.42,all
0.12,all
0.22,all
-0.15,all
-0.12,all
-0.79,all
-0.02,all
-0.07,all
0.01,all
-0.08,all
-0.28,all
-0.09,all
-0.14,all
-0.19,all
0.06,all
-0.34,all
-0.55,all
-0.16,all
0.01,all
0.16,all
0.75,all
0.12,all
-1.5,all
-0.2,all
-0.04,all
-0.76,all
-0.69,all
-0.32,all
-0.38,all
-0.29,all
-0.17,all
-0.04,all
-0.19,all
0.33,all
0.09,all
-0.15,all
-0.25,all
-0.31,all
0.04,all
-1.51,all
0.41,all
-0.08,all
0.17,all
-0.32,all
0.11,all
-0.03,all
-0.6,all
0,all
-0.25,all
-0.03,all
-0.02,all
-0.27,all
-0.3,all
-0.17,all
0.11,all
-0.18,all
-0.37,all
-0.06,all
-0.58,all
-0.35,all
0.04,all
-0.03,all
-0.12,all
-0.03,all
-0.19,all
-0.01,all
-0.26,all
0.08,all
0.02,all
-0.88,all
0.01,all
0.12,all
-0.41,all
-0.21,all
-0.65,all
-0.43,all
-0.29,all
-0.03,all
-0.39,all
-0.38,all
0.04,all
-0.19,all
-0.37,all
-0.06,all
-0.16,all
-0.24,all
-0.39,all
0.18,all
-1.05,all
0.04,all
-0.17,all
-0.35,all
-0.81,all
0.07,all
0.09,all
0.02,all
1.29,all
-0.32,all
-0.44,all
-1.47,all
0.06,all
0.14,all
-0.25,all
0.45,all
-0.06,all
0.06,all
-0.75,all
0.07,all
-0.11,all
-0.65,all
-0.44,all
-0.33,all
-2.16,all
-0.73,all
-0.19,all
-0.26,all
-0.73,all
0.03,all
0.1,all
0.13,all
0.28,all
-0.73,all
-0.07,all
-0.05,all
-0.91,all
-0.4,all
-0.39,all
-0.67,all
-0.46,all
-0.15,all
-0.58,all
-0.43,all
-0.5,all
-1.09,all
-0.86,all
-0.11,all
0.19,all
-0.8,all
-0.01,all
-0.59,all
-0.32,all
-0.33,all
0.16,all
-0.37,all
-0.64,all
-0.39,all
-0.36,all
-0.24,all
-0.31,all
-0.35,all
-0.47,all
-0.76,all
-0.61,all
-0.65,all
-0.13,all
-0.42,all
-0.45,all
-0.02,all
0.19,all
-0.71,all
0.13,all
-0.65,all
-0.37,all
-0.38,all
-0.09,all
-0.47,all
0.17,all
-0.04,all
-0.52,all
-0.06,all
-0.31,all
-0.03,all
-0.94,all
-0.53,all
-0.28,all
0,all
-0.84,all
-0.65,all
0.04,all
0.95,all
-0.63,all
-0.39,all
-0.53,all
-0.75,all
0.02,all
-0.22,all
-0.02,all
1.05,all
-0.83,all
-1.91,all
-0.61,all
0.05,all
0.57,all
2.3,all
-0.34,all
-0.86,all
-0.17,all
-1.11,all
0.11,all
-0.68,all
-0.19,all
-0.2,all
-1.51,all
-1.81,all
-1.02,all
-1.09,all
-1.84,all
-2.06,all
-0.15,all
-0.96,all
-2.26,all
-1.2,all
-2.58,all
-1.09,all
-4.27,all
-4.59,all
0,all
1.26,all
1.57,all
1.75,all
2.25,all
1.44,all
2.38,all
1.82,all
3.63,all
0.69,all
-0.59,all
-0.74,all
1.38,all
0.84,all
2.44,all
1.17,all
1.37,all
0.53,all
1.27,all
0.26,all
0.23,all
0.54,all
-2.18,all
0.5,all
0.48,all
0.84,all
1.29,all
0.7,all
0.69,all
0.28,all
-0.66,all
0.32,all
0.58,all
0.57,all
0.58,all
0.45,all
0.59,all
0.43,all
0.34,all
0.17,all
0.3,all
-0.61,all
2.01,all
-0.37,all
0.77,all
0.34,all
0.56,all
0.84,all
0.38,all
0.31,all
0.96,all
0.12,all
0.49,all
0.97,all
0.24,all
0.58,all
-1.06,all
1.47,all
0.71,all
0.49,all
0.55,all
-0.56,all
0.16,all
0.6,all
0.76,all
0.47,all
0.24,all
0.97,all
0.24,all
-0.74,all
0.58,all
0.31,all
0.62,all
0.28,all
0.26,all
0.47,all
0.42,all
0.49,all
0.51,all
0.28,all
0.15,all
0.4,all
0.52,all
0.19,all
0.09,all
0.52,all
0.42,all
0.31,all
1.27,all
-1.55,all
0.2,all
-0.13,all
0.56,all
0.22,all
-0.18,all
0.42,all
0.12,all
0.24,all
0.35,all
-0.16,all
0.1,all
-0.08,all
0.33,all
0.67,all
0.16,all
-0.59,all
-0.18,all
0.09,all
0.17,all
-0.6,all
0.1,all
0.16,all
0.74,all
0.06,all
1.33,all
0.58,all
0.06,all
-0.82,all
0.12,all
0.42,all
0.18,all
0.55,all
0.08,all
0.21,all
0.69,all
-0.57,all
0.17,all
-0.12,all
-0.65,all
0.88,all
0.11,all
0.42,all
0.64,all
-0.15,all
0.12,all
0.73,all
-0.08,all
0.09,all
0.28,all
-0.04,all
0.28,all
0.66,all
0.05,all
-0.03,all
0.09,all
-1.77,all
0.15,all
0.32,all
0.06,all
0.6,all
-0.16,all
0.52,all
-0.12,all
-0.28,all
0.08,all
-0.82,all
0.37,all
0.17,all
0.06,all
-1,all
0.25,all
-0.29,all
-0.47,all
0.51,all
-0.7,all
-0.27,all
0.79,all
-0.23,all
-0.15,all
0.37,all
0.31,all
-0.2,all
-0.39,all
-0.9,all
-0.17,all
-0.21,all
-0.16,all
-0.27,all
-0.71,all
0.18,all
1.71,all
-0.97,all
0.15,all
-0.51,all
-0.54,all
-0.34,all
-0.36,all
-0.64,all
-1.16,all
-0.36,all
-0.26,all
0.66,all
-0.53,all
-0.53,all
-0.23,all
-0.4,all
-0.57,all
-0.3,all
-0.5,all
-1.09,all
0.9,all
1.56,all
-0.35,all
0.85,all
-1.09,all
-0.84,all
-0.33,all
0.43,all
-1.03,all
-0.59,all
-0.86,all
-0.36,all
1.91,all
-0.73,all
-0.15,all
-0.79,all
-0.02,all
-0.87,all
3.06,all
-0.83,all
-0.77,all
-3.42,all
-0.62,all
-1.71,all
-1.16,all
0.35,all
-1.61,all
-0.98,all
-0.01,all
0.77,all
-0.68,all
-0.86,all
-1.21,all
-1.03,all
-1.33,all
-1.79,all
-0.81,all
-1,all
-2.75,all
5.78,all
-1.58,all
0,all
0.91,all
-1.53,all
1.31,all
3.64,all
-0.57,all
-7.64,all
1.5,all
3.69,all
5.94,all
4.38,all
1.81,all
2.39,all
0.88,all
-0.06,all
2.18,all
0.94,all
0.59,all
0.16,all
0.11,all
0.39,all
-0.03,all
0.61,all
0.3,all
0.1,all
2.72,all
-0.35,all
-1.22,all
-0.12,all
-0.29,all
0.28,all
-1.36,all
1.13,all
1.24,all
0.93,all
1.96,all
-0.87,all
-0.09,all
-0.07,all
0.06,all
-0.1,all
-0.02,all
0.31,all
0.83,all
0.4,all
0.44,all
0.92,all
0.5,all
1.46,all
-0.14,all
1.16,all
0.49,all
-1.66,all
0.04,all
0.68,all
0.2,all
-0.17,all
-0.42,all
0.39,all
0.37,all
-0.34,all
-0.02,all
1.54,all
0.73,all
-3.85,all
-0.36,all
-0.03,all
0.08,all
-0.12,all
0.05,all
0.15,all
0.85,all
-0.26,all
-0.1,all
0.21,all
0.09,all
0.21,all
-0.38,all
-0.25,all
0.62,all
0.4,all
-0.48,all
0.48,all
1.89,all
0.14,all
0.16,all
0.18,all
0.07,all
-0.36,all
0.08,all
0.18,all
0.03,all
0.38,all
1.54,all
0.22,all
-0.09,all
0.11,all
0.18,all
0.29,all
0,all
0,all
-0.02,all
0,all
-0.05,all
0.28,all
-0.84,all
0.18,all
-0.04,all
-0.05,all
-0.11,all
0.27,all
0.02,all
0.29,all
-0.79,all
0.03,all
0.18,all
0.03,all
0.12,all
-0.22,all
0.25,all
0.11,all
0.15,all
0.47,all
-0.78,all
-0.04,all
0.02,all
0.13,all
-0.06,all
0.14,all
0.19,all
-0.02,all
0.1,all
0.08,all
0.07,all
0.27,all
0.09,all
-0.1,all
0.06,all
0.08,all
0.08,all
0.02,all
0.1,all
0.09,all
0.11,all
0.09,all
0.12,all
-0.01,all
0.06,all
0.04,all
0.01,all
0.1,all
0.04,all
-0.09,all
0.07,all
0.05,all
0.58,all
0.09,all
0.04,all
0.08,all
0.17,all
0.04,all
0.08,all
0.09,all
-0.01,all
0.09,all
-0.2,all
0.03,all
0.05,all
0.01,all
0.1,all
-0.01,all
0.16,all
0.05,all
0.08,all
-0.53,all
0.08,all
0.07,all
0.04,all
0.03,all
0.04,all
0.09,all
0.04,all
0.06,all
0.27,all
0.03,all
0.07,all
0.01,all
0.05,all
0.52,all
0.06,all
-0.13,all
0.1,all
0.05,all
0.04,all
0.1,all
0.07,all
0.07,all
-0.16,all
0.09,all
0.01,all
0.08,all
0.05,all
1.59,all
0.04,all
0.01,all
-0.2,all
0.06,all
0.08,all
0.04,all
0.04,all
0.03,all
-0.02,all
0.04,all
0.04,all
0.06,all
0.07,all
-0.07,all
-0.24,all
0.06,all
0.03,all
-0.06,all
0.08,all
0,all
-0.14,all
0.03,all
0.06,all
0.1,all
0.02,all
0.03,all
0.1,all
0.02,all
0.04,all
-0.04,all
0.12,all
0.06,all
0.03,all
0.06,all
0.05,all
0.1,all
0.04,all
0.01,all
0.14,all
0.05,all
-0.01,all
0.08,all
0.04,all
0.07,all
0.06,all
0.14,all
0,all
-0.01,all
-0.72,all
0.11,all
0.07,all
0.06,all
0.98,all
0.01,all
-0.55,all
0.03,all
-0.11,all
0.03,all
-0.02,all
0.09,all
0.05,all
0.07,all
0.07,all
-0.01,all
0.06,all
0.06,all
0.07,all
0.06,all
-0.01,all
0.54,all
-0.56,all
0,all
0.06,all
0.07,all
0.01,all
0.06,all
-0.01,all
-0.31,all
0.19,all
-0.11,all
-0.39,all
-0.08,all
-0.69,all
0.04,all
-0.5,all
-0.36,all
-0.12,all
-0.24,all
-0.09,all
-0.42,all
0.08,all
-0.17,all
-0.01,all
0.06,all
0.08,all
-0.09,all
-0.76,all
0.87,all
-0.01,all
0.04,all
-0.41,all
0.3,all
-1.69,all
-0.06,all
0.01,all
0.02,all
-0.78,all
-0.16,all
-0.18,all
0.27,all
0.01,all
0.03,all
0.82,all
-0.25,all
-0.63,all
-0.19,all
-0.17,all
-0.16,all
-0.09,all
0.05,all
11.8,all
-0.51,all
0.01,all
0.02,all
-1.32,all
-0.7,all
-1.35,all
0.03,all
-0.85,all
-0.34,all
0.2,all
-0.19,all
-0.21,all
-0.94,all
0.14,all
-0.73,all
0.46,all
-0.41,all
0.13,all
0.27,all
0.06,all
-2.06,all
0.08,all
-1.83,all
-0.44,all
0.39,all
-0.02,all
-0.29,all
-0.02,all
-0.22,all
-0.05,all
-1.22,all
-0.78,all
-2.21,all
-1.99,all
-0.67,all
-0.61,all
0.43,all
-2.16,all
-0.39,all
-1.26,all
-0.55,all
-0.71,all
-0.55,all
-0.62,all
-2.12,all
-2.12,all
-2.3,all
-1.09,all
-0.12,all
-0.54,all
-2.27,all
-2.18,all
-2.22,all
-1.12,all
-1.6,all
-2.25,all
-0.54,all
-0.98,all
-0.1,all
-2.2,all
0.11,all
-0.71,all
-2.05,all
-2.36,all
-0.89,all
-1.87,all
-1.13,all
-1.04,all
-2.25,all
-1.77,all
-0.25,all
0.95,all
-2.09,all
0.19,all
-2.19,all
-2.28,all
-0.79,all
-1.39,all
-2.51,all
0.66,all
-2.12,all
-0.5,all
-2.36,all
-1.2,all
-0.8,all
-1.01,all
-1.41,all
-2.86,all
-1.08,all
-1.43,all
-1.37,all
-1.85,all
-0.73,all
-0.78,all
-1.64,all
-0.95,all
-1.5,all
-1.98,all
0.95,all
-0.8,all
-1.14,all
-2.27,all
-2.32,all
-1.43,all
-4.6,all
-1.69,all
-1.5,all
