Start	Stop	Strand	Number of Genes	Genes
1353	11252	+	7	SMa0002, SMa0005, SMa0007, SMa0009, SMa0011, SMa0013, SMa0015
12754	13700	+	2	SMa0018, SMa0020
17424	18914	-	2	SMa0026, SMa0028
19209	21108	-	2	SMa0031, SMa0034
27295	27713	+	2	SMa0050, SMa0052
29492	32423	-	3	SMa0058, SMa0059, SMa0060
33453	36147	+	3	SMa0063, SMa0064, SMa0065
37353	40717	+	4	SMa0070, SMa0072, SMc00572, SMa0077
42106	46401	+	6	SMa0079, SMa0081, SMa0082, SMa0083, SMa0085, SMa0087
48182	50121	+	2	SMa0093, SMa0095
52944	58612	+	6	SMa0104, SMa0105, SMa0106, SMa0108, SMa0110, SMa5001
59703	62654	+	2	SMa0113, SMa0114
63200	64452	+	2	SMa0116, SMa0117
65491	68191	-	4	SMa0121, SMa0123, SMc00913, SMc00912
69135	70955	+	3	SMa0128, SMa0130, SMa0132
72274	76579	+	2	SMa0136, SMa0137
78965	80289	+	2	SMa0143, SMa0144
82374	87216	-	3	SMa0150, SMa0151, SMa0155
89324	93311	+	5	SMa0163, SMa0164, SMa0166, SMa0168, SMa0169
104028	105189	+	2	SMa0189, SMa0190
105799	106652	-	2	SMa0191, SMa0193
106949	112304	-	5	SMa0196, SMa0197, SMa0198, SMa0199, SMa0203
112578	114544	+	2	SMa0204, SMa0206
116673	120323	-	4	SMa0214, SMa0216, SMa0217, SMa0218
131106	134754	-	3	SMa0235, SMa0237, SMa0241
134949	137119	+	2	SMa0244, SMa0246
137290	141353	+	4	SMa0247, SMa0249, SMa0250, SMa0252
145822	150388	-	4	SMa0259, SMa0260, SMa0263, SMa0265
150483	154720	+	4	SMa0267, SMa0270, SMa0271, SMa0273
159590	161341	-	3	SMa0286, SMa0287, SMa0288
163041	168956	-	5	SMa0298, SMa0299, SMa0300, SMa0301, SMa0302
175343	177469	+	3	SMa0312, SMa0314, SMa0316
179926	180809	+	2	SMa0322, SMa0323
180910	182906	+	3	SMa0325, SMa0326, SMa0329
182962	183395	-	2	SMa5017, SMa0333
183576	186300	-	4	SMc00572, SMa0337, SMa0339, SMa0340
186903	187958	-	2	SMa0343, SMa0346
189202	190730	-	2	SMa0349, SMa0352
193272	194493	-	3	SMa0357, SMa0359, SMa0360
195082	198172	+	3	SMa0364, SMa0367, SMa0369
202120	204389	+	2	SMa5018, SMa0380
204550	206588	+	2	SMa5019, SMa0383
211336	221085	+	9	SMa0391, SMa0392, SMa0394, SMa0396, SMc023072, SMa0400, SMa0402, SMa0403, SMa0404
226536	229255	+	4	SMa0417, SMa5020, SMa0421, SMa5021
229290	231133	-	2	SMa0424, SMa0426
231427	233029	-	2	SMa0429, SMa0431
236016	236794	+	2	SMa5022, SMa5023
236878	238097	-	2	SMa0444, SMa0445
254921	257562	+	2	SMa0469, SMa0470
258225	258823	+	2	SMa0471, SMa0473
259012	260349	+	2	SMa0475, SMa0476
267102	270117	-	4	SMa0489, SMa0492, SMa0493, SMa0495
272734	274933	+	3	SMa0501, SMa0503, SMa0506
274983	277776	+	3	SMa0508, SMa0510, SMa0512
277846	280334	+	4	SMa0513, SMa0514, SMa0516, SMa0518
281664	286218	+	5	SMa0522, SMa0523, SMa0525, SMa0526, SMa0527
286919	287641	-	2	SMa5025, SMa0535
287923	288703	+	2	SMa0537, SMa0538
291198	291877	-	2	SMa0545, SMa0548
293602	294868	+	2	SMa0552, SMa0554
296598	297791	+	2	SMa0558, SMa0559
297935	301050	+	4	SMa0561, SMa0563, SMa0564, SMa5026
310425	313487	-	3	SMa0581, SMa0583, SMa0585
314305	314986	+	2	SMa0590, SMa0591
315280	317459	+	2	SMa0592, SMa0594
322421	325168	+	3	SMa0604, SMa0606, SMa0607
325226	326667	+	2	SMa0609, SMa0610
326972	330449	+	4	SMa0612, SMa0615, SMa0616, SMa0617
330668	334001	+	3	SMa0620, SMa0621, SMa0622
337732	340218	-	3	SMa0629, SMa0630, SMa0631
342592	343235	+	2	SMa0637, SMa0638
345407	345992	+	2	SMa0643, SMa0645
346110	346659	+	2	SMa0647, SMa0649
349400	350021	+	2	SMa0657, SMa0659
355528	357249	+	2	SMa0667, SMa0669
360005	361491	-	2	SMa0674, SMa0675
361696	368673	-	4	SMa0677, SMa0678, SMa0680, SMa0682
372485	374856	-	2	SMa0689, SMa0690
375708	378954	+	3	SMa0693, SMa0695, SMa0697
381959	390974	+	9	SMa0707, SMa0708, SMa0709, SMa0710, SMa0711, SMa0713, SMa0714, SMa0715, SMa0717
391032	393287	+	3	SMa0719, SMa0722, SMa0723
395775	396385	+	2	SMa0734, SMa0736
399043	401052	-	2	SMc00913, SMc00912
402820	404056	-	2	SMa5003, SMa0750
404204	406508	+	2	SMa0751, SMa0752
412790	414084	+	2	SMa0662, SMa0763
414187	417580	+	4	SMa0765, SMa0766, SMa0767, SMa0769
419284	422382	+	2	SMa0773, SMa0774
423440	425086	-	2	SMa0776, SMa0779
425462	428277	+	3	SMa0781, SMa0783, SMa0785
430599	436871	+	7	SMa0791, SMa0792, SMa0793, SMa0794, SMa0796, SMa0797, SMa0799
436964	441271	+	4	SMa0800, SMa0802, SMa0803, SMa0805
443981	445678	-	2	SMc00192N, SMa0814
447740	451339	-	4	SMa0816, SMa0817, SMa0819, SMa0822
453556	456051	+	2	SMa0825, SMa0827
456142	459167	+	2	SMa0829, SMa0830
460706	461632	+	3	SMa0833, SMc00192B, SMa5036
464353	465101	+	2	SMa0841, SMa5004
465166	465620	+	2	SMa5029, SMa0846
469631	471121	+	2	SMa0852, SMa0853
472764	475588	+	2	SMa0855, SMa0857
477142	481544	-	5	SMa0863, SMa0864, SMa0866, SMa0868, SMa0869
483424	485081	+	2	SMa0872, SMa0873
485169	491849	-	4	SMa0874, SMa0875, SMa0876, SMa0878
493801	494702	-	2	SMa0886, SMa5005
495196	500655	+	3	SMa0888, SMa0890, SMc013753
506549	508479	+	2	SMa0909, SMa0911
513088	515514	-	3	SMa0929, SMa0930, SMa0933
523213	525733	+	2	SMa0939, SMa0940
526469	528744	+	2	SMa0943, SMa0945
529782	533744	-	4	SMa0950, SMa0951, SMa0952, SMa0953
534818	539404	+	4	SMa0956, SMa0958, SMc00572, SMa0961
541929	543596	+	2	SMa0972, SMa0974
547525	548690	-	2	SMa0985, SMa0988
553196	554085	+	2	SMa0997, SMa0998
565090	565655	+	2	SMa1017, SMa1018
568081	569612	-	3	SMa1029, SMa1030, SMa1032
569810	575606	+	8	SMa1033, SMa1036, SMa1037, SMa1038, SMa1041, SMa1043, SMa1045, SMc022852
576097	579110	-	5	SMa1050, SMa1052, SMa1053, SMa1056, SMa1057
579986	583207	-	4	SMa1060, SMa1062, SMa1063, SMa1065
584979	587278	+	2	SMa1070, SMa1073
588601	590068	+	4	SMa1077, SMa1078, SMa1079, SMa1081
594396	597297	+	3	SMa1087, SMa1089, SMa1091
598804	599616	+	2	SMa1095, SMa1096
600897	603559	+	3	SMa1100, SMa1101, SMa1103
609267	613754	+	3	SMa1120, SMa1122, SMa1124
618493	619556	+	2	SMa1132, SMa1134
620365	621116	-	2	SMa1138, SMa1139
621245	623595	+	2	SMa1141, SMa1142
623735	627336	+	2	SMa1146, SMa1147
628967	630129	+	2	SMa1153, SMa1154
635179	636429	-	3	SMa1159, SMa1160, SMa1161
640997	642003	+	2	SMa1168, SMa1169
642385	643314	-	3	SMa1171, SMa1172, SMa1174
645676	654535	+	7	SMa1179, SMa1182, SMa1183, SMa1184, SMa1185, SMa1186, SMa1188
656365	658236	-	2	SMa1194, SMa1195
661869	667131	-	5	SMa1207, SMa1208, SMa1209, SMa1210, SMa1211
667360	670762	-	4	SMa1213, SMa1214, SMa1216, SMa1220
671077	674898	-	5	SMa1223, SMa0662, SMa1226, SMa1227, SMa1229
676020	680650	-	6	SMa1232, SMa1233, SMa1236, SMa1239, SMa1240, SMa1241
687399	689589	-	3	SMa1255, SMa1256, SMa1259
693908	698509	-	4	SMa1269, SMa1272, SMa1273, SMa1276
701272	703322	-	2	SMa1285, SMa1288
703500	706359	+	4	SMa1289, SMa1291, SMa1292, SMa1294
709054	710926	+	2	SMa1299, SMa1301
711238	716202	-	6	SMa1302, SMa1303, SMa1306, SMa1308, SMa1310, SMa1311
716432	721339	-	6	SMa1313, SMa1315, SMa1318, SMa1319, SMa1321, SMa1322
722065	723935	-	3	SMa1325, SMa1326, SMa1327
726444	730234	-	4	SMa1329, SMa1331, SMa1332, SMa1334
732787	734653	+	2	SMa1339, SMa1341
734850	737035	+	2	SMa1344, SMa1345
737144	740944	-	4	SMa1347, SMa1349, SMa1351, SMa1353
742432	744546	-	2	SMa1355, SMa1356
746199	748684	-	2	SMa1362, SMa1363
751181	756514	-	6	SMa1367, SMa1368, SMa1370, SMa1371, SMa1374, SMa1373
756593	759522	-	2	SMa1375, SMa1377
761267	763846	-	3	SMa1381, SMa5031, SMa1386
766174	770874	-	5	SMc02377B2, SMa1394, SMa1397, SMc00572, SMa1400
772165	775775	-	3	SMa1406, SMa1408, SMa1409
777621	780712	-	2	SMa1414, SMa1415
780875	786548	-	5	SMa1417, SMa1418, SMa1421, SMa1424, SMa1427
789214	792707	-	3	SMa1434, SMa1435, SMa1437
794368	796098	-	2	SMa1440, SMa1442
799195	801177	-	2	SMa1450, SMa1452
802324	803228	-	2	SMa1455, SMa1456
803336	805461	-	2	SMa1459, SMa1461
805588	809028	-	4	SMa1462, SMa1465, SMa1466, SMa1467
809179	813790	-	4	SMa1471, SMa1473, SMa1476, SMa1478
817619	819255	-	2	SMa5009, SMa1485
819484	822553	-	3	SMa1487, SMa1488, SMa1491
822713	824163	+	2	SMa1493, SMa1494
825906	830166	-	4	SMc000362, SMa1500, SMa1501, SMa1503
832401	835904	+	3	SMa1509, SMa1513, SMa1514
838689	845706	-	7	SMa1523, SMa1525, SMa1526, SMa1529, SMa1531, SMa1532, SMa1533
845922	850600	-	3	SMc019272, SMc019262, SMa1538
850844	853114	-	3	SMa1541, SMa1544, SMc019232
858465	865296	+	5	SMa1552, SMa1554, SMa1556, SMa1558, SMc030102
865351	868849	-	3	SMa1562, SMa1564, SMa1568
869408	872388	-	3	SMa1572, SMa1573, SMa1576
884133	889107	-	3	SMa1591, SMa1592, SMa1593
894831	896896	+	2	SMa1604, SMa1606
897347	897906	-	2	SMa1608, SMa1610
899769	900988	-	2	SMa1614, SMa1615
901120	904243	+	3	SMa1617, SMa1619, SMa1620
911789	913126	+	2	SMa1636, SMa1637
913725	915670	+	3	SMa1639, SMa1641, SMa1643
917367	922799	-	5	SMa1646, SMa1647, SMa1649, SMa1650, SMa1651
923065	924578	+	2	SMa1652, SMa1653
925848	926625	-	2	SMa1657, SMa1658
927892	932189	-	2	SMa1662, SMa1664
935142	937838	+	2	SMa1668, SMa1670
945870	948633	-	2	SMa1682, SMa1683
948970	951985	+	3	SMa1684, SMa1686, SMa1688
965405	970515	-	3	SMa1715, SMa1717, SMa1718
976900	979836	-	3	SMc000942, SMa1732, SMa1734
983996	988983	-	5	SMa1740, SMa1741, SMa1742, SMa1745, SMa1746
994674	997714	-	3	SMa1751, SMa1753, SMa1754
999071	1000567	-	2	SMa1757, SMa1759
1000541	1003107	+	2	SMa1760, SMa1761
1003486	1004250	-	2	SMa1765, SMa1766
1008864	1009762	-	2	SMa1779, SMa1780
1011129	1011938	-	2	SMa1784, SMa1787
1025646	1026898	-	2	SMa1808, SMa1809
1026984	1032334	-	5	SMa1811, SMa1814, SMa1817, SMa1819, SMa1820
1035458	1037514	-	2	SMa1825, SMa1828
1042302	1044804	+	3	SMa1836, SMa1838, SMa1840
1045137	1049142	+	3	SMa1844, SMa1846, SMa1848
1049406	1051368	-	2	SMa1850, SMa1851
1051670	1060102	+	7	SMa1853, SMa1855, SMa1857, SMa1860, SMa1862, SMa1863, SMa1864
1062483	1064452	+	2	SMa1871, SMa1872
1069239	1074193	-	3	SMa1882, SMa1884, SMa1885
1074958	1076770	+	3	SMa1890, SMa1891, SMa1893
1076880	1077830	+	2	SMa1894, SMa1896
1092279	1092790	+	2	SMa1918, SMa1919
1099582	1101455	+	2	SMa1935, SMa1937
1120076	1121684	+	2	SMa1968, SMa1969
1121814	1123199	+	3	SMa1971, SMa1973, SMa1974
1123380	1124902	-	2	SMa1976, SMa1978
1129777	1133897	-	4	SMa1993, SMa1995, SMa1996, SMa1998
1135285	1137080	+	2	SMa2002, SMa2004
1138205	1138977	+	2	SMa2009, SMa2011
1141504	1142407	-	2	SMa2014, SMa2015
1148213	1149382	+	3	SMa2029, SMa2031, SMa2032
1151643	1155489	-	4	SMa2034, SMa2037, SMa5011, SMa2041
1156137	1157086	+	2	SMa2043, SMa2045
1159791	1161133	+	2	SMa2051, SMa2053
1162596	1165492	+	3	SMa2061, SMa2063, SMa2065
1165852	1168002	-	2	SMa2067, SMa2069
1173082	1178065	-	5	SMa2077, SMa2079, SMa2081, SMa2083, SMa2085
1178362	1185799	+	8	SMa2087, SMa2089, SMa2091, SMa2093, SMa2095, SMa2097, SMa2099, SMa2101
1193878	1199327	-	5	SMa2113, SMc000363, SMa2117, SMa2119, SMa2121
1199735	1204310	-	4	SMa2123, SMa2125, SMa2127, SMa2129
1207895	1210071	-	2	SMa2137, SMa2139
1210165	1213287	-	3	SMc041543, SMc01843, SMa2145
1213664	1214588	-	2	SMa5035, SMa2147
1216723	1218461	+	2	SMa2157, SMa2159
1225061	1228184	-	3	SMa2175, SMa2187, SMa2189
1228391	1231826	-	4	SMa2191, SMa2193, SMa2195, SMa2197
1232892	1236101	-	4	SMa2201, SMa2203, SMa2205, SMa2207
1237356	1240557	-	2	SMa2211, SMa2213
1240820	1245344	+	5	SMa2215, SMa2217, SMa2219, SMa2221, SMa2223
1254259	1256321	+	2	SMa2239, SMa2241
1260671	1262337	+	2	SMa2249, SMa2251
1263295	1265167	+	3	SMa2253, SMa2255, SMa2257
1266525	1267101	+	2	SMa2263, SMa2265
1268471	1269077	-	2	SMa2273, SMa2275
1269911	1270722	-	2	SMa2279, SMa2281
1273011	1274517	+	2	SMa2289, SMa2291
1281993	1284649	-	2	SMa2301, SMa2303
1284827	1291146	+	5	SMa2305, SMa2307, SMa2309, SMa2311, SMa2313
1291278	1292054	+	2	SMa2315, SMa2317
1296390	1304123	-	5	SMa2325, SMa2327, SMa2329, SMa2331, SMa2333
1304824	1314558	+	7	SMa2337, SMa2400, SMa2402, SMa2404, SMa2406, SMa2408, SMa2410
1315745	1319097	+	2	SMa2414, SMa2339
1320285	1321999	+	3	SMa2343, SMa5012, SMa5013
1323061	1326858	+	3	SMa2349, SMa2351, SMa2353
1331764	1339000	+	6	SMa2361, SMa2363, SMa2365, SMa2367, SMa2369, SMa2371
1339874	1340820	+	2	SMa2373, SMa2375
1351362	1353535	-	2	SMa2393, SMa2395
