Start	Stop	Strand	Number of Genes	Genes
1347	3380	+	3	maf, aroE, coaE
5792	8562	+	4	SMc02786, SMc02785, SMc02784, SMc02783
16752	19333	+	2	SMc02776, SMc02775
20543	23104	+	2	SMc02773, SMc02772
25859	27138	+	2	SMc02769, SMc02768
27376	30113	+	3	trpF, trpB, trpA
30167	32440	+	2	accD, folC
34091	45978	-	6	trxA, SMc02760, SMc02759, SMc02758, SMc02757, SMc02756
47837	48528	-	2	SMc02754, SMc02753
48809	51039	-	2	SMc02752, chvG
54197	55190	+	2	SMc02563, SMc02564
56529	57844	-	2	coaA, hisE
57909	61216	-	5	hisF, hisA, hisH, SMc02573, hisB
61537	63909	+	3	hslV, SMc02576, hslU
74986	81030	-	4	helO, SMc02587, SMc02588, SMc02589
89374	93146	-	5	SMc02591, SMc02592, SMc02593, SMc02594, metB
96439	102422	-	5	folD1, soxG, soxA1, soxD, soxB
103542	107960	+	4	glxB, glxC, glxD, glnT
108064	109095	-	2	SMc02614, SMc02615
109201	111497	-	4	SMc02616, SMc02617, SMc02618, SMc02619
113903	116536	+	3	SMc04153, SMc04152, SMc04151
116646	119091	+	2	SMc04150, SMc04149
130842	137825	-	7	gst9, SMc04140, SMc04139, SMc04138, SMc04137, SMc04136, SMc04135
138820	147088	+	6	SMc04133, SMc04132, SMc04131, SMc04130, SMc04129, SMc04128
147807	154027	+	6	SMc04127, SMc04126, SMc04125, cdd, deoD, deoA
154871	157062	-	2	add, deoB
157283	158489	-	2	SMc04118, SMc04117
160711	161501	+	2	pilA1, cpaA1
161629	166032	+	4	cpaB1, cpaC1, SMc04110, cpaE1
167622	169623	+	2	SMc02821, SMc02822
173692	174899	+	2	SMc02826, SMc02827
175136	179958	-	4	SMc02828, SMc02829, SMc02830, SMc02831
185048	188355	+	3	SMc02836, dapB, gpmA
195004	196402	+	2	SMc02846, SMc02847
201956	203892	+	2	SMc02851, SMc02852
213276	214800	-	2	SMc02859, SMc02860
214914	216562	-	2	pit, SMc02862
216797	219202	+	3	recF, thiF, SMc02865
219907	224287	-	2	SMc02867, SMc02868
224764	228651	-	4	SMc02869, SMc02870, SMc02871, SMc02872
231331	232976	+	2	SMc02875, SMc02876
233070	235249	+	2	SMc02877, nagA
235533	238536	-	3	SMc02879, SMc02880, SMc02881
238922	239945	+	2	SMc02882, SMc02883
242730	244174	-	3	SMc02887, SMc05001, SMc02888
244292	248726	+	3	SMc02889, SMc02890, SMc02891
255204	256835	+	2	kdsB, pheA
257275	260143	-	4	SMc02901, SMc02902, SMc02903, SMc02904
262113	265055	+	4	SMc02906, SMc02907, recR, SMc02909
267141	270130	+	3	SMc02911, nusA, SMc02913
273065	274420	+	2	rbfA, truB
280795	282826	-	2	fabI2, fabB
284222	285928	-	2	SMc00330, SMc00331
286978	288983	+	2	aroA, cmk
294516	297653	-	2	cyaA, SMc00340
303335	305448	-	2	SMc00348, lepA
306948	308070	+	2	SMc00351, SMc00352
309988	312089	-	2	SMc00355, genX
318504	319148	+	2	rpmI, rplT
319294	322836	+	2	pheS, pheT
323683	324662	-	2	SMc00368, SMc00369
331801	333971	+	2	xseA, SMc00379
335699	337712	-	2	SMc00382, gst3
338537	339364	-	2	SMc00385, SMc00386
339573	342920	-	4	tatA, SMc00388, SMc00389, SMc00390
343024	343929	+	3	SMc00391, SMc00392, SMc00393
345628	346715	-	2	pfs, SMc00396
349932	352609	-	2	SMc00400, SMc00401
357289	359092	-	2	SMc00406, gst4
362070	363980	-	3	pyrF, SMc00413, SMc00414
365580	366867	+	2	SMc00416, SMc00418
376543	378333	-	2	SMc00428, SMc00429
381949	385804	-	2	iolD, iolC
390625	391978	+	2	SMc01160, SMc01159
392806	396064	-	3	SMc01157, aarF, ubiE
396210	397946	+	2	fpg, SMc01153
400977	402619	+	2	SMc01151, SMc01150
402694	404058	+	2	SMc01149, SMc01148
404075	406356	-	3	SMc01147, SMc01146, SMc01145
412984	415070	-	3	SMc01138, SMc01137, SMc01136
417969	420483	+	3	SMc01131, SMc01130, lspA
429607	435602	+	4	glnD, mviN, SMc01122, trpS
437108	438322	+	2	SMc01118, rimI
439370	443547	+	4	SMc01115, SMc01114, SMc01113, SMc01112
448527	449264	-	2	SMc01107, SMc01106
455537	457821	+	3	def, fmt, truA
457959	458886	-	2	TRm19C, TRm19N
459140	460916	-	2	SMc01097, dapE
464417	466492	-	2	mexE1, SMc01093
469818	471097	-	2	SMc01089, dapD
473140	476048	+	3	SMc01729, ada, SMc01727
480482	482820	-	3	SMc01721, rnpA, rpmH
485369	487613	+	2	SMc01718, merA1
491327	493177	+	2	SMc01713, lldD2
496646	501773	+	2	SMc01710, SMc01709
502436	506889	+	2	SMc01708, SMc01707
509457	510897	-	2	SMc01703, SMc01702
518501	521138	-	2	cyaD1, SMc02175
521878	523540	-	2	SMc02173, SMc02172
525199	527680	+	3	SMc02170, SMc02169, frcK
527870	529629	+	2	pyrC, pyrE
536019	539647	+	4	SMc02160, SMc02159, SMc02158, SMc02157
540915	542955	+	2	SMc02187, SMc02202
545715	546495	-	2	SMc02189, SMc02200
547181	548811	+	2	SMc02199, SMc02203
548970	560579	-	6	SMc02155, SMc02154, SMc04429, SMc02153, SMc02152, SMc02151
567841	571472	+	4	SMc02145, pstC, pstA, pstB
580265	582349	+	2	SMc02218, SMc02219
583799	585271	-	2	SMc02222, SMc02223
587900	591343	-	2	fadB, fadA
597695	599759	+	3	SMc02232, SMc02234, SMc02235
603508	604514	+	2	SMc02238, SMc02239
606242	607146	+	2	SMc02242, SMc02243
608536	609968	-	2	pyrD, SMc02246
618694	621169	-	2	qxtB, qxtA
621308	624025	-	3	hipO2, SMc02257, SMc02258
624133	625806	-	2	SMc02259, SMc02260
625996	629434	+	3	SMc02261, SMc02262, ilvB1
635270	638235	-	2	rkpJ, rkpI
638317	648086	-	3	rkpH, rkpG, rkpA
652921	658595	+	7	SMc02279, SMc02280, SMc02281, SMc02282, SMc02283, SMc02284, cyaE
664606	670658	-	3	hsdR, hsdS, hsdM
672431	673512	+	2	TRm1a, TRm1b
673474	676289	-	3	TRm30.4, TRm30.3, TRm30.2
679893	682163	+	3	hisD, SMc02308, SMc02309
682637	683474	+	2	maf, SMc02312
684058	684635	+	2	SMc04431, SMc04432
685807	687976	+	2	SMc02314, SMc02315
689306	690035	-	2	SMc02318, SMc02319
690552	693957	-	2	SMc02321, SMc02322
696263	701465	+	5	SMc02325, SMc03000, SMc03001, SMc03002, SMc03003
702172	710523	+	10	mcpE, SMc03005, cheY1, cheA, cheW1, cheR, cheB, cheY2, cheD, SMc03013
714089	715578	+	2	SMc03015, SMc03016
715587	717112	-	2	SMc03017, flhB
718449	720928	-	3	fliN, fliM, motA
721127	722633	+	2	SMc03023, flgF
722679	724630	+	2	fliI, SMc03026
724938	731014	+	10	flgB, flgC, fliE, flgG, flgA, flgI, SMc03033, flgH, fliL, fliP
737106	742168	+	5	SMc03041, motB, motC, motD, SMc03045
742440	748475	+	8	SMc03046, flgE, flgK, flgL, flaF, flbT, flgD, fliQ
748600	751854	+	3	flhA, fliR, SMc03056
752633	753567	+	2	SMc03072, SMc03057
759384	764331	+	4	aglF, aglG, aglA, aglK
766634	770728	-	3	edd, pgl, zwf
770925	773664	-	2	ordL2, SMc00762
784466	787352	+	3	potG, potH, potI
798230	800247	+	2	SMc00778, SMc00779
803072	805226	+	2	SMc00782, SMc00783
809186	812789	+	4	dppB1, dppC1, dppD1, dppF1
823007	824908	+	2	SMc00804, SMc00805
830836	833298	+	3	SMc00810, ftsJ, SMc00812
843615	844306	+	2	SMc00822, SMc00823
846848	849146	-	2	SMc00826, SMc00827
853444	857523	+	3	glcD, glcE, glcF
862031	862916	-	2	SMc00921, SMc00931
863149	866500	+	3	hisS, hisZ, hisG
866620	867363	+	2	gst11, SMc00915
869135	871144	-	2	groEL, groES
872554	874399	+	2	SMc00910, ribF
877731	878887	+	2	SMc00907, SMc00906
879455	881743	+	2	SMc00904, SMc00902
882944	883584	-	2	SMc00900, SMc00899
888041	890375	+	3	SMc00895, kdtA, SMc00893
891571	892517	-	2	TRm11b, TRm11a
895248	898327	+	2	SMc00888, SMc00887
903810	907031	-	4	SMc00883, SMc00882, dgoK1, SMc00880
911877	914775	+	2	corA2, kup1
917775	919189	+	3	atpE, atpF2, atpF
923950	927242	-	3	moaB, ipk, SMc00861
928629	929655	+	2	SMc00859, SMc00858
940092	943501	-	2	SMc00992, SMc00991
946103	947938	+	2	SMc00989, ubiA
952806	954439	-	2	SMc00984, SMc00983
955077	957418	+	2	SMc00982, SMc00981
960794	963337	+	2	SMc00977, SMc00976
965799	969787	-	3	SMc00974, SMc00973, dxs
971124	972308	-	2	SMc00970, SMc00969
973742	978294	-	5	SMc00966, SMc00965, SMc00964, SMc00963, SMc00962
992038	997367	+	6	ctaC, ctaD, ctaB, SMc00130, ctaG, ctaE
997562	998681	+	2	SMc00014, SMc00085
999940	1001378	+	2	thrB, rnhA
1003924	1007447	-	2	SMc00074, rimJ
1007719	1010436	-	2	SMc00451, thrC1
1018305	1022874	+	3	SMc00023, SMc05003, smc
1034852	1038146	-	3	cysN, cysD, cysH
1038426	1039291	+	2	SMc00030, SMc00031
1041153	1044156	-	2	betB, betC
1049693	1051414	+	2	SMc00035, gst1
1058097	1059880	-	2	phnA, SMc00100
1061915	1063364	-	2	tam, dhe
1077557	1080234	-	3	SMc00112, SMc00454, ptrB
1081641	1082468	+	2	SMc00048, SMc00049
1085034	1090965	+	7	phaA2, phaB2, phaC2, phaD2, phaE2, phaF2, phaG2
1093568	1096076	+	2	SMc00059, SMc00060
1099690	1100815	-	2	SMc00128, SMc00457
1104977	1107023	+	2	feuP, feuQ
1107820	1111957	+	4	cycH, cycJ, cycK, cycL
1113918	1119008	+	3	SMc02366, SMc02367, glnE
1127282	1127651	-	2	SMc02373, SMc02374
1127790	1130012	-	2	SMc02375, SMc02376
1137227	1139726	-	2	SMc02383, SMc02384
1142784	1143144	-	2	SMc02388, SMc02389
1147310	1147928	-	2	SMc02394, SMc02461
1156180	1157543	+	2	dapA, smpB
1166694	1167208	+	2	SMc02658, SMc02657
1167714	1168774	+	2	SMc02655, acpS
1168934	1171331	+	3	lepB, rncS, era
1171344	1174654	-	5	arsH, arsC, SMc02648, SMc02647, SMc02646
1181090	1182519	-	2	lpsL, SMc02639
1182571	1183425	+	2	SMc02638, SMc02637
1187692	1191131	+	2	SMc02633, SMc02632
1193610	1197286	+	3	nadA, nadB, nadC
1198811	1202308	+	3	SMc02661, SMc02571, SMc02660
1202482	1205423	-	4	SMc02565, SMc02561, SMc02559, SMc02558
1205538	1206566	-	2	SMc02557, SMc02556
1206725	1207629	-	2	SMc02555, SMc02554
1210660	1214745	+	5	SMc02550, SMc02549, SMc02548, pip1, leuA2
1220729	1222306	+	2	SMc00551, pssA
1222911	1225153	-	2	SMc00553, purF
1229690	1230759	+	2	SMc00559, SMc00560
1232732	1235861	+	3	SMc00562, SMc00563, SMc00564
1236108	1237672	-	2	rplI, SMc00566
1237866	1238589	-	2	rpsR, rpsF
1240670	1242376	+	2	fabD, fabG
1246291	1248032	+	3	SMc00576, gmk, SMc00578
1248254	1251066	-	3	ksgA, pdxA, SMc00581
1251258	1255854	-	3	SMc00582, SMc00583, SMc00584
1256168	1258130	+	2	pepA, SMc00586
1268601	1269661	-	2	SMc00596, SMc00597
1270758	1272074	-	3	moaE, moaD, pgsA
1272309	1275094	-	2	uvrC, SMc00603
1276341	1279122	-	4	SMc00605, SMc00606, SMc00607, SMc00608
1282231	1286205	+	3	SMc00611, SMc00612, acvB
1286215	1287944	-	2	purN, purM
1289361	1293860	+	3	SMc00617, ppk, SMc00619
1293997	1296517	-	2	SMc00620, cyaB
1296723	1299350	-	2	rnd, SMc01754
1310357	1313830	-	4	SMc01763, SMc01764, SMc01765, hemB
1316903	1320528	+	4	glyA, nrdR, ribD, ribE
1321379	1322458	-	2	SMc01775, SMc01776
1322709	1324882	+	3	ribH, nusB, SMc01779
1329299	1331764	+	3	plsX, fabH, ihfA
1335435	1341288	-	5	SMc01790, SMc01791, SMc01792, SMc01793, SMc01794
1345828	1346768	-	2	SMc01798, SMc01799
1348142	1350124	-	2	argC, speB
1350279	1351213	-	2	rpsI, rplM
1353970	1356066	+	3	SMc01808, SMc01809, SMc01810
1356574	1357718	+	2	TRm20N, TRm20C
1371000	1376240	+	3	SMc01909, SMc01910, SMc01911
1378259	1384131	+	8	nuoA1, nuoB1, nuoC1, nuoD1, SMc01916, nuoE1, nuoF1, SMc01919
1384332	1388033	+	3	nuoG1, nuoH, nuoI
1388185	1396571	+	7	nuoJ, nuoK1, nuoL, nuoM, nuoN, birA, SMc01929
1396630	1397443	+	2	SMc01930, SMc01931
1397530	1398104	-	2	SMc01932, SMc01933
1400248	1402178	+	2	SMc01935, SMc01376
1409718	1411474	+	2	celR1, pleD
1412223	1419699	-	5	SMc01368, SMc01367, SMc01366, rnr, topA
1419891	1423913	-	4	smf, SMc01362, SMc01361, pyrB
1426831	1427318	+	2	SMc01357, SMc01356
1431144	1433194	+	2	gatB, SMc01349
1434423	1437349	-	4	aat, accC, accB, aroQ
1437489	1438459	-	2	SMc01342, SMc01341
1438485	1440681	+	3	SMc01340, TRm11a, TRm11b
1460661	1461408	+	2	secE, nusG
1461625	1462756	+	2	rplK, rplA
1463089	1464046	+	2	rplJ, rplL
1474175	1478450	+	4	rpsL, rpsG, fusA1, tuf
1479024	1483827	+	10	rplC, rplD, rplW, rplB, rpsS, rplV, rpsC, rplP, rpmC, rpsQ
1484006	1486950	+	7	rplN, rplX, rplE, rpsN, rpsH, rplF, rplR
1487084	1488353	+	3	rpsE, rpmD, rplO
1488589	1490504	+	2	secY, adk
1491823	1493304	+	2	rpoA, rplQ
1493771	1495365	-	2	SMc01282, SMc01281
1495755	1498459	+	2	degP3, SMc01279
1499101	1503958	-	7	SMc01277, gph2, rluC, ccrB, SMc01273, SMc01272, SMc01271
1507415	1512265	+	3	SMc01267, SMc01266, SMc01265
1516239	1517738	-	2	SMc01259, SMc01258
1521805	1523652	-	2	SMc01068, SMc00996
1532790	1534584	+	4	SMc01006, SMc01007, SMc01008, SMc01009
1537979	1539165	+	2	SMc01012, SMc01013
1544555	1546793	+	2	SMc01019, SMc01020
1546790	1548018	-	2	SMc01021, SMc01022
1551580	1553312	+	2	SMc01026, kdsA
1555947	1562821	+	7	pdhAa, pdhAb, pdhB, SMc01033, SMc01034, lpdA1, SMc01036
1565388	1567170	-	2	SMc01039, ispDF
1567247	1570871	+	3	SMc01041, ntrB, ntrC
1571105	1577026	+	4	ntrY, ntrX, trkA, SMc01047
1577127	1578773	+	2	hfq, hflX
1581612	1583036	-	2	mazG, SMc01052
1583260	1587252	+	4	cysG, SMc01054, SMc02124, SMc02123
1588831	1591978	-	3	aapP, aapM, aapQ
1594688	1596124	-	2	SMc02116, SMc02115
1599468	1603507	+	4	clpS, clpA, SMc02108, SMc02107
1603761	1606611	-	4	SMc02106, SMc02105, SMc02104, SMc02103
1609884	1612831	+	4	pyrH, frr, uppS, cdsA
1614335	1621099	+	6	omp, lpxD, fabZ, lpxA, SMc02090, lpxB
1626342	1627760	+	2	exbB, exbD
1642521	1647179	+	2	argS, SMc02072
1647300	1651132	+	4	SMc02071, SMc02070, SMc02069, SMc02068
1651507	1652993	+	2	tatB, tatC
1653130	1655861	+	3	serS, surE, pcm
1660365	1664194	+	3	secD1, SMc02056, crtB
1664774	1666428	-	2	SMc02053, SMc02052
1670379	1674761	-	3	gcvP, gcvH, gcvT
1685692	1689506	-	2	SMc01236, uvrA
1696164	1698491	-	3	SMc01228, nerA, SMc01226
1702159	1705040	+	3	lpsC, lpsD, lpsE
1705047	1706662	-	2	lpsB, greA
1719314	1720938	+	3	coaD, ppiA, ppiB
1721115	1723328	+	2	queA, tgt
1735940	1739122	-	3	SMc01194, SMc01193, metG
1739754	1741486	-	2	SMc01190, tmk
1741544	1743795	-	2	dac, rlpA
1745595	1748696	+	2	SMc01185, SMc01184
1752970	1753637	+	2	SMc01179, SMc01178
1753714	1754348	-	2	SMc01177, SMc01176
1755660	1757502	+	2	cysK2, SMc01173
1757700	1759132	+	2	sseA, SMc01171
1763892	1765537	-	2	SMc00935, ilvA
1765694	1767823	+	2	trkH, SMc00938
1769334	1769883	-	2	SMc00941, SMc00942
1774339	1776169	+	2	glnB, glnA
1777786	1780348	+	2	SMc00951, SMc00952
1785948	1787137	+	3	SMc00959, xthA1, SMc00958
1787537	1791360	-	2	mfd, SMc00227
1793597	1796628	-	3	SMc00229, SMc00230, glmS
1800397	1805860	+	5	ppiD, trpD, trpC, moaC, moeA
1808983	1813690	-	4	SMc00242, SMc00244, SMc00243, SMc00245
1813837	1815592	-	2	qor, pcs
1820609	1821076	+	2	SMc00250, SMc00251
1824222	1824748	+	2	SMc04437, SMc00255
1827172	1833254	-	6	SMc00259, SMc00260, SMc00261, SMc00262, SMc00263, SMc00264
1837446	1840192	-	3	SMc00268, SMc00269, SMc00270
1840498	1845254	+	5	SMc00271, SMc00272, SMc00273, SMc00274, SMc00275
1845673	1848034	-	2	SMc00276, SMc00277
1852376	1853481	+	2	SMc00283, SMc00284
1858529	1859598	-	2	SMc00288, cspA5
1864871	1867491	-	2	thrA, SMc00294
1868133	1872374	+	4	phbC, sfsA, map1, radC
1874133	1878324	-	5	SMc00301, SMc00302, SMc00533, SMc00532, SMc00531
1881411	1882454	+	2	SMc00528, SMc05006
1888877	1890188	+	3	bcp, SMc00523, SMc00540
1891837	1893753	+	2	rhlE1, SMc00521
1893772	1899554	-	7	SMc00520, SMc00519, SMc00518, SMc00517, SMc00516, SMc00515, SMc00514
1899714	1903840	+	5	SMc00513, SMc00512, rpe, SMc00510, SMc00509
1908748	1910153	+	2	SMc00503, SMc00502
1910194	1915197	+	5	SMc00501, SMc00500, SMc00499, SMc00498, SMc00497
1915805	1917583	+	3	purC, SMc00494, purQ
1918527	1920627	+	2	SMc00490, SMc00489
1927461	1929223	-	2	SMc00535, SMc00534
1933066	1936782	-	3	murI, SMc00482, SMc00481
1957621	1960196	+	2	SMc00467, SMc00466
1960922	1962670	-	3	folK, folB, folP
1972800	1975581	-	3	fbcC, fbcB, fbcF
1983644	1984917	+	2	hemF, SMc00179
1985652	1989769	-	4	SMc00177, SMc00176, SMc00175, SMc00174
2003324	2005836	-	2	SMc00162, nadE
2008651	2010808	+	2	SMc00159, SMc00158
2025754	2027855	+	3	SMc00197, mobA, mobB
2031583	2033213	+	2	SMc00139, SMc00138
2036481	2038045	+	2	SMc00133, SMc00132
2038090	2039852	-	3	SMc00131, SMc04210, SMc04211
2044306	2045225	+	2	SMc04216, SMc04217
2045245	2046929	-	2	SMc04218, SMc04219
2047573	2048380	-	2	SMc04221, SMc04222
2054191	2055182	+	2	SMc04228, SMc04229
2067157	2069247	-	3	zur, znuB, znuC
2073326	2075691	+	2	SMc04248, SMc04249
2080085	2081996	-	2	SMc04253, SMc04254
2084620	2087554	-	3	SMc04256, SMc04257, SMc04258
2090636	2092437	-	2	SMc04261, gnd
2092873	2095263	+	2	SMc04263, SMc04264
2095396	2096176	+	2	SMc04265, SMc04266
2096413	2098376	-	2	msbB, SMc04270
2098613	2101590	-	3	SMc04273, SMc04275, SMc04277
2102200	2106312	-	4	cobD, cobC, cobB, cobA
2108013	2112414	-	3	SMc04288, SMc04290, SMc04293
2112456	2116030	-	4	SMc04294, SMc04295, SMc04297, SMc04301
2116227	2120709	-	2	cobO, cobN
2120782	2122377	-	2	cobW, cobU
2126366	2128728	-	2	SMc04308, cobQ
2133224	2135161	+	2	SMc04315, SMc04325
2135496	2137315	-	2	SMc04326, SMc04327
2137380	2138910	-	2	SMc04328, SMc04329
2145064	2147034	+	3	SMc04337, SMc04339, SMc04340
2147155	2151246	+	4	SMc04342, SMc04345, SMc04347, SMc04451
2151324	2153150	-	3	SMc04161, SMc04162, SMc04163
2155736	2156970	-	2	SMc04167, SMc04168
2168068	2171064	-	3	SMc04177, SMc04178, SMc04179
2171337	2172089	+	2	SMc04180, SMc04181
2175172	2177069	-	2	SMc04186, SMc04187
2185756	2186369	+	2	SMc04199, SMc04200
2188692	2190225	+	2	fecI, fecR
2193379	2197351	+	3	SMc04206, SMc04207, SMc04208
2199475	2200129	+	2	SMc04441, SMc04269
2201542	2203400	-	2	SMc04272, SMc04274
2206649	2209086	-	2	SMc04283, SMc04287
2217485	2221537	-	3	afuC, afuB, afuA
2223179	2224939	+	2	gst10, mocA
2227062	2229078	-	3	SMc04324, SMc04338, SMc04341
2232766	2235983	+	2	SMc04350, SMc04351
2239651	2241755	-	2	SMc04361, SMc04362
2242227	2244422	-	2	SMc04363, ndh
2253179	2253789	+	2	SMc01410, SMc01489
2253811	2260838	-	5	SMc01490, SMc01411, SMc01412, SMc01413, SMc01491
2266715	2268432	+	4	SMc01418, rpoE1, SMc01420, SMc01421
2268452	2270783	-	4	SMc01422, nthB, nthA, SMc01425
2274156	2276529	-	2	ilvH, ilvI
2279026	2279864	+	2	SMc01433, SMc01434
2280892	2282351	+	2	serB, SMc01437
2284689	2286706	-	2	hflC, hflK
2286901	2288062	-	2	folA, gst6
2289343	2289802	-	2	SMc01446, SMc01447
2291666	2292743	+	3	SMc01450, SMc01451, SMc01452
2300845	2305172	-	2	SMc01457, SMc01458
2305476	2306724	+	2	SMc01459, SMc01460
2309473	2310681	-	2	SMc01462, SMc01463
2315403	2317939	-	2	cheW2, mcpW
2323945	2324973	-	2	SMc01883, SMc01882
2325178	2326877	-	2	panB, panC
2327922	2332750	-	3	ligA, recN, SMc01876
2334394	2339428	-	4	ftsZ1, ftsA, ftsQ, ddl
2342211	2346876	-	4	murB, murC, murG, ftsW
2346934	2349432	-	2	murD, mraY
2349674	2352569	-	2	murF, murE
2352736	2356366	-	4	ftsI, SMc01859, mraW, SMc01857
2359313	2360808	-	2	SMc01854, SMc01853
2366015	2367927	+	2	SMc01848, SMc01847
2371885	2373851	-	2	metF, SMc01842
2376977	2380552	+	3	SMc02818, SMc02817, ilvG
2386299	2388826	-	2	SMc01582, SMc01588
2389024	2392028	-	2	SMc01594, SMc01597
2395401	2398058	+	3	SMc01606, SMc01607, SMc01608
2404360	2419489	-	15	rpiB, tpiA, SMc01615, eryC, SMc01617, SMc01618, SMc01619, eryB, fucA1, SMc01622, eriA, SMc01624, SMc01625, SMc01626, SMc01627
2423387	2425681	+	2	SMc01631, SMc01632
2425834	2428284	+	3	SMc01633, SMc01634, SMc01635
2433628	2436479	+	2	SMc01640, SMc01641
2436820	2441966	+	4	SMc01642, SMc01643, SMc01644, SMc01645
2442914	2446580	+	2	SMc01647, SMc01648
2446721	2448056	-	2	SMc01649, SMc01650
2450528	2454775	+	4	SMc01653, SMc01654, SMc01655, SMc01656
2455078	2459149	+	3	foxA, SMc01658, fhuP
2461617	2466508	-	2	SMc01662, SMc01663
2471163	2472118	-	2	SMc01667, SMc01668
2473047	2474889	-	2	SMc01670, SMc01671
2476599	2479869	-	3	SMc01541, SMc01542, SMc01543
2485222	2486473	+	2	SMc01742, SMc01745
2491027	2493828	+	2	SMc01551, SMc01552
2493890	2496132	+	2	SMc01553, SMc01554
2504356	2506601	-	2	tdh, kbl
2514076	2515723	+	3	SMc01571, SMc01572, SMc01577
2517444	2517915	+	2	SMc01580, SMc01581
2525165	2527286	+	2	SMc01593, SMc01595
2527748	2529068	-	2	proC, SMc02678
2530119	2532076	+	2	lgt, SMc02682
2532239	2534186	+	2	SMc02683, SMc02684
2546152	2547074	+	2	SMc02696, SMc02697
2548041	2550609	-	3	SMc02700, SMc02701, SMc02702
2550908	2557735	+	4	SMc02703, SMc02704, SMc02705, SMc02706
2559717	2560894	+	2	SMc02709, fic
2562689	2564035	+	2	rpoE3, SMc02714
2564158	2564834	-	2	SMc02715, SMc02716
2571104	2573428	-	3	SMc02722, SMc02723, SMc02724
2581332	2583848	-	2	SMc02729, SMc02730
2585890	2590108	-	3	SMc02733, SMc02734, SMc02735
2592256	2595388	+	4	opuB, opuA, SMc04457, SMc05009
2595534	2597485	+	2	SMc01535, SMc01534
2603823	2610174	-	6	dppF2, dppD2, dppC2, dppB2, dppA2, SMc01524
2611440	2612113	+	2	ntrP, ntrR1
2612241	2613013	+	2	SMc01520, SMc01519
2613511	2614104	-	2	SMc01518, SMc01517
2614694	2616095	-	2	SMc01515, SMc01514
2616325	2620447	+	5	SMc01747, hmuS, hmuT, hmuU, hmuV
2620654	2621495	+	2	SMc01509, SMc01508
2623460	2624189	-	2	rpoE2, SMc01505
2627194	2632886	-	6	SMc01502, mtlK, smoS, smoK, smoG, smoF
2635733	2638439	+	2	SMc01814, SMc01815
2647139	2651180	+	5	SMc01823, SMc01824, SMc01825, SMc01826, SMc01827
2651785	2656299	+	2	SMc01828, SMc01829
2656604	2658678	-	4	ureG, ureF, ureE, SMc01833
2659700	2660387	+	2	SMc01995, SMc01836
2660750	2666327	-	8	ureC, SMc01838, SMc02046, ureB, SMc01940, ureA, ureD, SMc01943
2669622	2673893	-	5	SMc01947, livF, livG, livM, livH
2676633	2679061	+	2	SMc01955, SMc01956
2681043	2682241	-	2	TRm1b, TRm1a
2684402	2687863	-	4	SMc01962, SMc01963, SMc01964, SMc01965
2690563	2692830	+	2	SMc01968, SMc01969
2695795	2698472	-	2	ordL1, SMc01973
2699551	2705681	+	6	SMc01975, SMc01976, SMc01977, SMc01978, SMc01979, SMc01980
2706406	2710966	+	5	coxM, coxN, coxO, coxP, SMc01986
2717638	2719070	-	2	SMc01992, SMc01993
2720460	2724125	-	4	SMc02017, SMc02018, SMc02019, SMc02020
2728713	2734530	-	5	SMc02025, SMc02026, SMc02027, SMc02028, SMc02029
2743512	2756511	+	15	SMc02037, gldA, SMc02039, SMc02040, SMc02041, SMc02042, eda1, SMc02044, SMc02045, SMc02332, SMc02460, SMc02333, SMc02334, SMc02335, SMc02336
2756731	2759210	-	2	SMc02452, SMc02337
2762142	2765596	-	2	SMc02341, tkt1
2768364	2772069	-	4	SMc02345, SMc02346, asfB, asfA
2773554	2775759	-	2	SMc02352, SMc02353
2775918	2777373	+	2	SMc02354, SMc02355
2777494	2784079	+	7	SMc02356, SMc02357, SMc02358, SMc02359, SMc02360, SMc02412, SMc02413
2789229	2797474	+	7	SMc02417, SMc02418, SMc02419, SMc02420, SMc02421, SMc02423, SMc02424
2798367	2799750	+	2	SMc02426, hyuE
2818114	2822420	-	3	hemK1, prfA, ptsP
2825690	2826972	-	2	SMc02441, SMc02442
2827069	2828121	-	2	grxC, SMc02444
2830074	2832623	-	3	mutT, SMc02449, argJ
2838183	2840846	+	2	SMc00743, SMc00742
2842713	2843479	+	2	SMc00740, SMc00739
2847909	2850394	+	4	SMc00733, SMc00732, SMc00731, SMc00730
2855842	2857325	+	2	SMc00724, lysA
2863677	2865369	+	2	SMc00717, SMc00716
2868971	2871000	-	2	tyrC, hisC1
2871991	2873203	+	2	gloB, SMc00707
2877890	2881454	-	3	cobT, cobS, SMc00699
2882239	2885915	-	5	SMc00697, aroB, aroK, SMc00694, SMc00693
2886203	2888301	+	3	SMc00692, xerD, accA
2888546	2890227	+	2	SMc00689, SMc00688
2890261	2890892	-	2	SMc00687, SMc00686
2891001	2893242	-	2	SMc00684, SMc00683
2893494	2895144	+	2	hipO1, lrp
2902584	2906288	-	2	SMc00675, hutC
2906417	2908874	+	2	SMc00673, hisX
2909011	2914118	+	5	hisW, hisV, hutH2, SMc00668, SMc00667
2914173	2914669	-	2	SMc00666, SMc00665
2915108	2915619	-	2	SMc00663, SMc00662
2926861	2928076	-	2	SMc00649, SMc00648
2930371	2933994	-	2	SMc00644, purA
2935226	2938081	-	2	serA, serC
2944219	2946629	-	2	SMc02940, SMc02941
2947617	2951277	-	4	tolB, tolA, tolR, tolQ
2954817	2957832	+	3	sqdB, sqdD, sqdC
2957972	2959916	-	2	SMc03964, ruvB
2964504	2968834	-	2	mexF2, mexE2
2972336	2972995	-	2	SMc03976, SMc03977
2975447	2978252	+	3	gap, SMc03980, pgk
2984856	2986332	+	2	SMc03987, SMc03988
2989855	2991992	-	2	SMc03992, SMc03993
2993348	2995156	-	2	SMc03995, thiE2
2995256	2996379	+	2	SMc03997, SMc03998
2996919	2998682	+	3	SMc04000, purE, purK
3000009	3001885	-	2	pykA, SMc04006
3002115	3003234	+	2	SMc04007, SMc04008
3009360	3011140	+	2	pabB, SMc04014
3018005	3019456	+	2	SMc04020, SMc04021
3037139	3042158	+	4	SMc04034, SMc04035, SMc04036, SMc04037
3054434	3055740	-	2	SMc04050, rpoE4
3060269	3063570	+	2	SMc04057, SMc04058
3065247	3069919	+	2	glgP, glgB1
3070033	3074377	+	3	glgC, glgA, pgm
3076748	3078305	+	2	nodN2, SMc03928
3079693	3083571	-	3	soxG2, soxA2, soxD2
3088832	3091802	-	3	pntB, pntAb, pntAa
3095842	3097909	-	2	SMc04462, pckR
3103236	3105051	-	2	SMc02982, SMc02983
3106651	3108323	+	2	SMc02985, SMc02986
3108448	3109130	-	2	SMc02987, SMc02988
3109302	3110209	-	2	SMc02989, SMc03151
3112206	3114604	+	3	SMc03154, SMc03155, SMc03156
3114744	3117290	-	3	SMc03157, SMc03158, SMc03159
3121898	3125804	-	3	xylA, xylB, SMc03165
3127155	3129921	-	2	SMc03167, SMc03168
3133083	3136047	+	2	gltX, lysS
3138173	3140800	+	2	SMc03176, SMc03177
3143729	3149815	+	6	phaA1, phaC1, phaD1, phaE1, phaF, phaG1
3151698	3153736	-	2	cobM, cobL
3154469	3157984	-	4	cobJ, cobI, cobH, cobG
3160885	3162656	+	2	modB, modC
3164896	3169828	+	4	bkdAa, bkdAb, bkdB, lpdA3
3171261	3174384	-	3	maiA, SMc03207, hmgA
3181339	3184832	+	2	SMc03147, SMc03146
3191496	3193401	+	2	SMc03139, SMc03138
3193423	3194126	-	2	SMc03137, SMc03136
3194275	3198185	-	4	SMc03135, SMc03134, SMc03133, ordL3
3199470	3206778	-	7	SMc03130, SMc03129, SMc03128, SMc03127, SMc03126, SMc03125, SMc03124
3216094	3220682	+	5	SMc03121, SMc03120, SMc03119, SMc03118, SMc03117
3222557	3225060	-	3	TRm5C, TRm3, TRm5N
3229305	3230973	-	2	pmi, SMc03110
3238853	3242011	-	2	SMc03103, SMc03102
3261902	3265913	-	3	fdsD, fdsC, fdsA
3266173	3268205	-	2	fdsB, fdsG
3271269	3277115	+	6	glpD, SMc02519, SMc02518, SMc02517, SMc02516, SMc02515
3283929	3287471	+	4	sitA, sitB, sitC, sitD
3291142	3295688	-	4	atpD, atpG, atpA, atpH
3301634	3303396	+	2	SMc02493, SMc02492
3303428	3305497	-	2	SMc02491, SMc02490
3308114	3311450	-	4	lpdA2, SMc02486, SMc02485, SMc02484
3316359	3319460	-	3	sucD, sucC, mdh
3319643	3321391	-	3	SMc02478, SMc02477, SMc02476
3322344	3326612	-	4	SMc02474, SMc02473, SMc02472, SMc02471
3326844	3329863	+	3	SMc02470, SMc02469, SMc02468
3330830	3334260	-	4	sdhB, sdhA, sdhD, sdhC
3335825	3339339	-	5	SMc03226, SMc03227, SMc03228, gpsA, gcp
3339526	3341167	+	2	hemC, hemD
3341387	3345635	+	4	SMc03233, SMc03234, SMc03235, SMc03236
3356403	3358224	-	3	SMc03748, TRm11b, TRm11a
3361899	3363951	-	4	SMc03248, SMc03249, SMc03751, SMc03250
3383404	3389787	+	5	SMc03267, SMc03268, SMc03269, SMc03754, SMc03272
3389944	3390806	+	3	SMc05012, SMc05013, SMc05014
3393736	3395336	+	3	TRm28.1, TRm28.2, ISRm28.3
3395206	3397460	-	2	TRm27.2, TRm27.1
3401368	3405314	-	2	SMc03286, SMc03287
3409120	3409714	-	2	SMc04428, SMc03293
3410622	3411841	+	2	TRm1a, TRm1b
3415306	3416033	-	2	TRm26.2, TRm26.1
3417257	3427669	-	3	SMc05018, SMc03761, SMc03762
3430405	3432764	-	2	SMc03765, SMc03766
3434866	3437727	-	2	SMc03768, SMc03769
3438988	3439662	+	2	rplU, rpmA
3439793	3441009	+	2	SMc03773, SMc03774
3441067	3445280	+	4	obgE, proB1, proA, nadD
3446584	3449278	+	2	SMc03782, ctpA
3449460	3451250	+	2	SMc03784, ialA
3451466	3452228	-	2	bfr, SMc03787
3452510	3458266	-	3	dnaE2, SMc03789, SMc03790
3458955	3460060	-	2	SMc03792, citE
3460581	3461575	+	2	leuD, SMc03796
3467503	3468380	+	2	SMc03802, SMc03803
3471241	3472962	+	2	glnK, amtB
3476946	3479658	-	3	SMc03810, SMc03811, SMc03812
3480151	3483007	-	3	SMc03813, SMc03814, SMc03815
3483136	3485256	+	2	SMc03816, SMc03817
3486266	3487437	-	2	SMc03819, SMc03820
3490678	3492392	+	2	SMc03824, SMc03825
3494660	3496329	-	2	SMc03828, SMc03829
3502572	3505879	+	2	SMc03837, SMc03838
3507564	3508896	-	3	clpP, SMc03842, SMc03843
3513863	3515142	+	2	ccmA, ccmB
3515202	3516750	+	3	ccmC, ccmD, ccmG
3516909	3518131	-	2	SMc03852, SMc03853
3518229	3522081	-	3	ftsY, SMc03855, dapF
3522466	3524768	+	3	ffh, pheAa, rpsP
3524904	3526200	+	2	rimM, trmD
3529672	3532758	-	3	SMc03866, SMc03867, SMc03868
3533027	3536407	+	3	tbpA, thiP, SMc03871
3548949	3550474	-	2	gst8, mtgA
3550625	3552599	+	2	ispA, hisC2
3561068	3562506	+	2	SMc03893, SMc03894
3566370	3568434	-	4	SMc03896, TRm1b, TRm1a, SMc03899
3583247	3588895	+	4	SMc04383, SMc04384, SMc04385, aatB
3591194	3594232	-	2	ttuD1, SMc04390
3594438	3599600	-	5	fabG, SMc04392, SMc04393, SMc04394, SMc04395
3601190	3607133	-	5	SMc04397, SMc04398, SMc04399, SMc04400, SMc04401
3608819	3611609	-	2	dcp, SMc04404
3616239	3616900	-	2	SMc04881, SMc04408
3631752	3634123	-	2	sun, htpX
3640898	3645104	+	3	leuS, SMc02803, holA
3645114	3649367	-	4	parB, parA, gidB, gidA
3652623	3654135	-	2	SMc02795, hemE
