SMc00723
SMc00418
SMc00412
SMc00413
SMc01094
SMc01097
SMc01091
SMc01099
SMc01098
SMc01279
SMc01275
SMc01274
SMc01277
SMc01276
SMc01271
SMc01270
SMc01273
SMc01272
SMc02464
SMc01830
SMc04031
SMc04034
SMc04036
SMc04037
SMc02018
SMc02019
SMc02016
SMc02017
SMc02234
SMc02235
SMc02231
SMc02239
SMc02728
SMc02729
SMc03838
SMc02652
SMc02650
SMc02651
SMc02657
SMc02654
SMc02838
SMc02839
SMc03295
SMc03296
SMc02830
SMc02837
SMc02835
SMc03894
SMc04361
SMc04363
SMc03748
SMc02908
SMc02909
SMc02907
SMc02902
SMc02903
SMc02901
SMc04047
SMc00388
SMc04324
SMc03789
SMc03788
SMc00389
SMc04048
SMc00131
SMc00130
SMc00133
SMc00132
SMc00138
SMc04218
SMc01662
SMc01661
SMc00243
SMc00242
SMc00246
SMc00244
SMc04181
SMc04186
SMc04399
SMc00393
SMc00392
SMc00395
SMc01712
SMc01716
SMc01717
SMc00620
SMc00401
SMc00400
SMc00406
SMc01827
SMc01282
SMc01283
SMc01288
SMc01049
SMc01046
SMc01047
SMc01045
SMc01042
SMc01043
SMc01918
SMc01919
SMc01910
SMc01911
SMc01913
SMc01914
SMc01915
SMc01916
SMc01917
SMc03825
SMc01829
SMc00297
SMc03786
SMc00293
SMc03828
SMc02227
SMc02222
SMc02220
SMc04131
SMc04130
SMc01506
SMc03988
SMc04132
SMc02647
SMc02137
SMc02649
SMc02648
SMc02359
SMc02358
SMc02829
SMc02828
SMc02827
SMc02826
SMc02821
SMc00339
SMc02822
SMc03192
SMc03190
SMc03191
SMc03198
SMc02739
SMc01503
SMc02096
SMc02733
SMc02734
SMc03173
SMc03177
SMc00893
SMc02913
SMc00891
SMc00894
SMc00895
SMc03992
SMc03995
SMc00688
SMc00099
SMc00090
SMc00091
SMc00094
SMc03202
SMc03003
SMc04177
SMc03772
SMc04178
SMc03774
SMc03775
SMc04208
SMc00276
SMc00274
SMc00275
SMc00272
SMc00273
SMc03165
SMc04195
SMc01707
SMc01700
SMc01703
SMc01702
SMc00871
SMc00873
SMc00478
SMc03980
SMc01670
SMc01293
SMc01291
SMc01290
SMc01297
SMc01296
SMc01295
SMc01294
SMc01298
SMc01051
SMc01054
SMc05009
SMc05006
SMc00501
SMc05003
SMc05001
SMc01903
SMc01457
SMc01552
SMc01554
SMc02038
SMc02039
SMc02588
SMc02586
SMc02587
SMc04110
SMc00162
SMc02106
SMc02107
SMc02104
SMc02105
SMc02108
SMc02109
SMc02368
SMc02367
SMc02364
SMc02362
SMc02363
SMc02360
SMc04287
SMc02697
SMc03184
SMc03187
SMc03181
SMc03180
SMc03183
SMc03182
SMc02219
SMc04346
SMc04347
SMc04345
SMc04340
SMc03163
SMc03167
SMc03164
SMc00887
SMc00881
SMc00883
SMc00882
SMc02722
SMc03981
SMc02723
SMc03810
SMc00085
SMc00081
SMc05013
SMc03768
SMc01489
SMc03761
SMc00261
SMc00260
SMc00263
SMc00262
SMc00265
SMc00267
SMc00269
SMc00268
SMc02335
SMc01847
SMc00869
SMc00868
SMc01843
SMc00649
SMc00863
SMc00862
SMc01112
SMc01113
SMc01114
SMc01115
SMc01117
SMc00466
SMc00465
SMc00463
SMc00018
SMc01502
SMc01594
SMc01595
SMc01608
SMc01607
SMc01027
SMc01020
SMc01021
SMc01023
SMc00512
SMc00511
SMc00510
SMc00515
SMc02120
SMc02121
SMc05018
SMc02123
SMc02124
SMc01932
SMc01930
SMc01931
SMc01338
SMc01339
SMc01332
SMc02332
SMc03938
SMc03939
SMc02025
SMc02027
SMc02026
SMc02028
SMc02341
SMc02342
SMc02599
SMc02598
SMc02594
SMc02591
SMc02593
SMc02592
SMc02346
SMc02347
SMc02116
SMc02373
SMc02375
SMc02682
SMc02684
SMc02687
SMc04283
SMc04293
SMc04282
SMc04281
SMc02759
SMc02758
SMc02757
SMc02754
SMc02752
SMc02203
SMc02202
SMc04294
SMc03158
SMc03156
SMc03157
SMc03155
SMc03976
SMc03979
SMc04295
SMc00644
SMc03088
SMc03089
SMc03086
SMc00074
SMc00988
SMc00984
SMc00981
SMc03885
SMc01501
SMc03882
SMc03792
SMc01986
SMc03796
SMc04351
SMc03203
SMc04221
SMc04229
SMc00186
SMc00188
SMc00189
SMc01859
SMc01858
SMc02336
SMc01854
SMc00672
SMc00670
SMc02333
SMc00858
SMc00850
SMc01100
SMc01107
SMc00321
SMc00450
SMc00457
SMc00326
SMc00327
SMc00690
SMc00691
SMc00694
SMc00695
SMc00696
SMc00697
SMc01582
SMc01581
SMc01619
SMc01618
SMc01616
SMc01615
SMc01614
SMc01613
SMc01036
SMc01035
SMc01034
SMc01033
SMc01032
SMc01031
SMc00523
SMc01039
SMc01984
SMc03842
SMc01921
SMc01922
SMc01925
SMc01924
SMc01927
SMc01926
SMc01929
SMc01928
SMc01322
SMc01320
SMc01326
SMc00348
SMc02561
SMc02564
SMc02565
SMc02567
SMc02568
SMc02569
SMc01443
SMc02169
SMc02164
SMc02165
SMc02167
SMc03119
SMc02300
SMc02301
SMc01437
SMc02308
SMc02309
SMc01434
SMc05011
SMc01872
SMc03116
SMc00519
SMc03117
SMc02763
SMc02760
SMc02761
SMc02766
SMc02764
SMc02765
SMc05015
SMc02768
SMc05014
SMc02418
SMc02419
SMc03146
SMc02412
SMc02413
SMc02416
SMc03964
SMc02783
SMc02784
SMc02785
SMc00517
SMc00516
SMc00148
SMc04462
SMc01184
SMc00061
SMc00060
SMc04035
SMc04039
SMc00995
SMc00992
SMc03896
SMc03898
SMc03783
SMc03780
SMc04328
SMc03785
SMc01188
SMc04325
SMc04326
SMc04327
SMc04322
SMc04254
SMc04255
SMc04256
SMc04257
SMc04253
SMc02982
SMc01874
SMc02706
SMc01824
SMc01825
SMc01826
SMc00667
SMc00666
SMc00663
SMc00669
SMc00668
SMc01137
SMc01130
SMc00330
SMc00334
SMc00681
SMc00687
SMc00684
SMc01622
SMc01623
SMc01620
SMc01621
SMc01626
SMc01624
SMc01625
SMc04266
SMc01008
SMc01009
SMc01007
SMc00531
SMc00533
SMc00532
SMc00535
SMc04162
SMc01956
SMc04161
SMc01950
SMc01959
SMc04167
SMc04001
SMc01318
SMc01312
SMc01313
SMc01311
SMc04002
SMc04005
SMc00497
SMc00494
SMc01452
SMc04269
SMc04210
SMc00230
SMc02573
SMc02572
SMc02571
SMc02570
SMc02577
SMc02576
SMc00498
SMc00499
SMc02176
SMc02173
SMc03859
SMc02315
SMc02312
SMc02319
SMc02318
SMc03137
SMc03133
SMc03312
SMc03313
SMc02775
SMc02771
SMc02772
SMc03134
SMc03135
SMc03130
SMc03132
SMc03138
SMc02405
SMc03956
SMc03957
SMc02799
SMc00235
SMc02791
SMc02790
SMc04455
SMc03226
SMc03227
SMc03228
SMc03229
SMc00056
SMc00057
SMc00054
SMc00055
SMc00052
SMc00053
SMc03042
SMc03043
SMc03044
SMc03045
SMc01860
SMc01862
SMc02795
SMc04339
SMc04338
SMc04268
SMc04243
SMc01865
SMc04249
SMc04264
SMc00788
SMc00622
SMc01838
SMc04261
SMc01866
SMc01832
SMc01831
SMc00833
SMc01867
SMc00302
SMc00301
SMc04272
SMc01939
SMc01868
SMc01442
SMc00948
SMc00238
SMc01632
SMc00941
SMc01013
SMc00540
SMc01499
SMc01498
SMc01490
SMc01129
SMc01942
SMc01941
SMc01940
SMc01121
SMc01120
SMc01123
SMc01122
SMc03048
SMc03049
SMc04021
SMc01301
SMc01300
SMc01303
SMc01302
SMc01305
SMc01304
SMc01307
SMc01306
SMc01308
SMc03298
SMc00493
SMc04403
SMc03047
SMc04275
SMc01964
SMc02546
SMc02547
SMc02090
SMc02092
SMc02093
SMc02098
SMc02548
SMc02549
SMc01962
SMc02142
SMc02143
SMc02141
SMc02144
SMc01658
SMc03300
SMc03126
SMc03125
SMc02436
SMc02435
SMc01836
SMc03232
SMc02329
SMc02899
SMc03235
SMc02321
SMc04013
SMc03053
SMc03052
SMc03051
SMc03050
SMc03057
SMc03056
SMc03055
SMc04302
SMc04300
SMc04304
SMc04308
SMc04214
SMc04215
SMc04242
SMc01803
SMc01801
SMc01809
SMc02500
SMc00049
SMc00823
SMc01798
SMc01792
SMc01793
SMc01790
SMc01791
SMc04217
SMc02508
SMc00958
SMc00229
SMc00225
SMc00952
SMc00956
SMc01577
SMc01572
SMc01573
SMc00553
SMc00552
SMc04297
SMc00559
SMc01978
SMc01979
SMc01972
SMc01976
SMc01977
SMc01159
SMc01156
SMc01157
SMc01150
SMc01153
SMc01376
SMc01370
SMc01440
SMc01446
SMc01445
SMc00284
SMc01208
SMc01206
SMc03118
SMc02084
SMc02089
SMc02345
SMc04145
SMc02155
SMc02154
SMc02157
SMc02153
SMc02152
SMc02159
SMc02158
SMc04141
SMc01430
SMc02559
SMc02550
SMc02555
SMc02557
SMc02421
SMc02420
SMc02423
SMc02424
SMc02427
SMc03930
SMc03931
SMc03206
SMc03207
SMc03204
SMc02338
SMc02887
SMc02885
SMc02883
SMc02880
SMc03068
SMc03069
SMc03064
SMc03065
SMc03063
SMc03841
SMc03848
SMc03849
SMc04316
SMc03110
SMc03111
SMc03114
SMc03115
SMc00141
SMc00142
SMc00143
SMc04463
SMc04461
SMc01815
SMc01811
SMc01810
SMc00812
SMc00811
SMc00816
SMc04008
SMc00034
SMc00036
SMc00031
SMc00364
SMc00366
SMc01785
SMc01786
SMc00368
SMc01635
SMc01634
SMc00783
SMc00966
SMc00964
SMc00965
SMc00963
SMc01564
SMc01566
SMc00563
SMc00560
SMc00567
SMc00564
SMc00565
SMc00761
SMc01969
SMc00236
SMc01963
SMc00237
SMc01149
SMc01148
SMc01147
SMc01146
SMc01367
SMc01366
SMc01365
SMc01363
SMc01362
SMc01361
SMc01369
SMc01368
SMc01542
SMc01541
SMc01219
SMc04432
SMc02501
SMc02631
SMc02632
SMc02189
SMc02506
SMc02525
SMc02507
SMc02986
SMc00789
SMc02452
SMc03928
SMc03925
SMc03924
SMc03922
SMc02989
SMc01947
SMc02637
SMc03071
SMc03971
SMc02859
SMc03851
SMc03850
SMc03855
SMc03854
SMc02852
SMc02854
SMc01949
SMc03107
SMc01948
SMc03103
SMc04109
SMc00158
SMc04450
SMc04451
SMc00805
SMc00807
SMc01667
SMc00024
SMc01772
SMc01775
SMc01778
SMc01779
SMc00379
SMc03798
SMc00970
SMc00973
SMc00974
SMc00976
SMc01515
SMc00579
SMc00578
SMc01512
SMc01513
SMc00577
SMc00572
SMc00779
SMc01873
SMc00773
SMc00772
SMc01992
SMc01993
SMc01994
SMc01173
SMc01171
SMc01177
SMc01178
SMc02640
SMc01352
SMc01356
SMc01190
SMc01193
SMc01194
SMc02987
SMc01228
SMc01227
SMc01220
SMc01221
SMc04216
SMc02352
SMc02357
SMc02355
SMc03852
SMc00179
SMc00178
SMc02446
SMc02443
SMc02442
SMc02441
SMc00675
SMc02449
SMc02448
SMc03765
SMc03268
SMc03269
SMc00177
SMc00176
SMc03005
SMc03006
SMc03007
SMc03000
SMc03001
SMc03002
SMc03008
SMc03009
SMc03866
SMc03867
SMc03861
SMc02841
SMc02847
SMc04113
SMc04111
SMc00451
SMc04118
SMc00325
SMc03948
SMc00454
SMc00012
SMc00013
SMc00010
SMc00016
SMc01763
SMc01765
SMc01764
SMc00719
SMc00906
SMc00900
SMc00902
SMc04288
SMc00909
SMc00580
SMc00582
SMc00583
SMc00586
SMc01500
SMc01508
SMc00742
SMc01983
SMc01980
SMc01985
SMc03998
SMc01877
SMc01166
SMc00340
SMc01349
SMc01345
SMc01344
SMc01346
SMc01342
SMc01189
SMc02097
SMc02091
SMc01230
SMc01236
SMc00716
SMc00711
SMc00641
SMc00458
SMc01138
SMc04050
SMc04881
SMc02616
SMc02617
SMc02614
SMc02612
SMc02613
SMc02610
SMc02611
SMc02618
SMc02292
SMc02291
SMc02295
SMc02298
SMc02053
SMc02054
SMc02055
SMc02056
SMc02270
SMc02271
SMc02272
SMc03279
SMc04459
SMc03272
SMc00520
SMc04457
SMc00521
SMc03017
SMc03016
SMc03013
SMc03012
SMc03011
SMc03010
SMc03871
SMc03870
SMc03019
SMc02878
SMc02879
SMc02876
SMc02873
SMc02870
SMc02871
SMc02478
SMc02472
SMc02473
SMc02477
SMc02474
SMc04126
SMc04124
SMc04125
SMc04122
SMc04123
SMc04120
SMc04128
SMc04129
SMc02710
SMc02715
SMc02714
SMc04058
SMc00008
SMc01758
SMc00917
SMc00915
SMc00914
SMc00913
SMc00175
SMc00918
SMc00596
SMc00599
SMc03778
SMc00355
SMc00352
SMc03776
SMc03777
SMc01534
SMc01771
SMc01773
SMc00700
SMc04200
SMc04207
SMc00701
SMc00518
SMc04204
SMc03127
SMc02285
SMc02284
SMc02281
SMc02280
SMc02283
SMc02282
SMc03120
SMc02289
SMc02043
SMc02042
SMc02041
SMc02040
SMc02046
SMc02045
SMc02044
SMc04290
SMc02049
SMc02048
SMc02519
SMc02269
SMc02263
SMc02262
SMc02265
SMc03129
SMc03128
SMc03236
SMc03249
SMc02605
SMc02604
SMc02607
SMc02606
SMc03807
SMc03801
SMc03803
SMc02861
SMc02865
SMc02864
SMc02867
SMc02866
SMc02869
SMc02469
SMc02468
SMc02465
SMc02466
SMc02460
SMc00790
SMc04429
SMc04428
SMc01617
SMc01878
SMc01709
SMc03028
SMc03029
SMc03020
SMc03021
SMc03026
SMc03024
SMc00612
SMc00613
SMc00614
SMc00617
SMc00618
SMc00619
SMc01510
SMc01511
SMc00298
SMc00299
SMc00921
SMc00926
SMc04139
SMc04138
SMc04137
SMc04136
SMc01518
SMc03234
SMc01519
SMc02890
SMc02891
SMc03858
SMc01745
SMc01411
SMc01413
SMc01412
SMc01419
SMc04014
SMc03085
SMc00431
SMc04398
SMc01529
SMc01528
SMc01525
SMc01527
SMc01526
SMc01521
SMc01523
SMc01259
SMc00489
SMc00483
SMc00482
SMc02072
SMc02073
SMc02070
SMc02700
SMc02701
SMc02704
SMc02705
SMc02259
SMc02256
SMc02257
SMc02254
SMc02388
SMc02387
SMc02383
SMc01420
SMc01421
SMc02677
SMc01422
SMc01423
SMc03819
SMc03817
SMc01424
SMc03814
SMc03813
SMc03811
SMc02817
SMc00508
SMc00509
SMc02491
SMc02492
SMc02499
SMc04389
SMc04386
SMc04384
SMc04385
SMc00500
SMc00502
SMc02515
SMc02514
SMc02517
SMc02516
SMc03035
SMc03034
SMc03036
SMc03031
SMc03030
SMc03033
SMc03032
SMc00602
SMc00600
SMc00607
SMc00606
SMc00605
SMc04090
SMc00938
SMc00288
SMc00935
SMc00934
SMc00930
SMc00933
SMc04149
SMc04140
SMc00112
SMc01641
SMc01643
SMc01644
SMc01645
SMc01648
SMc01649
SMc02334
SMc00732
SMc00731
SMc00730
SMc00739
SMc01883
SMc01881
SMc01460
SMc01462
SMc01468
SMc00428
SMc02912
SMc01451
SMc01089
SMc01260
SMc01266
SMc01265
SMc01068
SMc02337
SMc00826
SMc04400
SMc03248
SMc01656
SMc02069
SMc02068
SMc02063
SMc02062
SMc02065
SMc02067
SMc01659
SMc02243
SMc02245
SMc02244
SMc02518
SMc00707
SMc02399
SMc02398
SMc02394
SMc02660
SMc03286
SMc03280
SMc03281
SMc02803
SMc02802
SMc02801
SMc02800
SMc02481
SMc02480
SMc02487
SMc02486
SMc02485
SMc02940
SMc03754
SMc01864
SMc03751
SMc04394
SMc04397
SMc04391
SMc04393
SMc04392
SMc02937
SMc03963
SMc04081
SMc01837
SMc04279
SMc00128
SMc00129
SMc04152
SMc04151
SMc00259
SMc01655
SMc01654
SMc00251
SMc00255
SMc04273
SMc00387
SMc00385
SMc00382
SMc01728
SMc01727
SMc01721
SMc01720
