520,72220,SMa0136,72274,74286,54,pos
520,72220,SMa5002,72026,71712,194,neg
522,291985,SMa0551,292217,293509,232,pos
522,291985,SMa0548,291877,291638,108,neg
525,831173,SMa1516,836495,837481,5322,pos
525,831173,SMa1503,830166,829300,1007,neg
14,464044,SMa0841,464353,464802,309,pos
14,464044,SMa0840,463692,462751,352,neg
17,13788,SMa0022,15716,15807,1928,pos
17,13788,SMa5000,12546,12259,1242,neg
18,348041,SMa0657,349400,349597,1359,pos
18,348041,SMa5027,347851,347249,190,neg
534,21205,SMa0036,21429,23051,224,pos
534,21205,SMa0034,21108,19453,97,neg
23,510538,SMa5006,510778,511137,240,pos
23,510538,SMa0907,506214,504976,4324,neg
26,775837,SMa1410,775888,776721,51,pos
26,775837,SMa1409,775775,774204,62,neg
541,567425,SMa1033,569810,570190,2385,pos
541,567425,SMa1024,567319,566897,106,neg
33,380010,SMa0702,380049,380483,39,pos
33,380010,SMa0690,374856,373456,5154,neg
35,14145,SMa0022,15716,15807,1571,pos
35,14145,SMa5000,12546,12259,1599,neg
37,525780,SMa0941,525854,526237,74,pos
37,525780,SMa0937,522920,520761,2860,neg
42,978374,SMa1735,980276,981340,1902,pos
42,978374,SMa1729,976706,975705,1668,neg
43,59382,SMa0113,59703,62264,321,pos
43,59382,SMa0112,59234,58803,148,neg
44,223202,SMa0414,224805,226475,1603,pos
44,223202,SMa0387,210132,209020,13070,neg
561,348125,SMa0657,349400,349597,1275,pos
561,348125,SMa5027,347851,347249,274,neg
53,315152,SMa0592,315280,316452,128,pos
53,315152,SMa0585,313487,312195,1665,neg
54,414095,SMa0765,414187,415806,92,pos
54,414095,SMa0750,404056,403178,10039,neg
567,483277,SMa0872,483424,483756,147,pos
567,483277,SMa0869,481544,480954,1733,neg
568,884080,SMa1594,889137,889790,5057,pos
568,884080,SMa1589,883638,883252,442,neg
58,745365,SMa1387,764198,765112,18833,pos
58,745365,SMa1356,744546,743344,819,neg
607,1126104,SMa1987,1127616,1128455,1512,pos
607,1126104,SMa1978,1124902,1124198,1202,neg
60,1185866,SMa2105,1187704,1188924,1838,pos
60,1185866,SMa2085,1178065,1177079,7801,neg
573,629655,SMa1163,637388,639787,7733,pos
573,629655,SMa1151,628821,628366,834,neg
608,171715,SMa0308,173063,174022,1348,pos
608,171715,SMa0306,171675,170035,40,neg
580,1221001,SMa2167,1221480,1221947,479,pos
580,1221001,SMa2147,1214588,1213698,6413,neg
581,1260438,SMa2249,1260671,1261777,233,pos
581,1260438,SMa2245,1259881,1257344,557,neg
584,698645,SMa1283,700220,700906,1575,pos
584,698645,SMa1276,698509,698057,136,neg
585,879751,SMa1587,880620,882017,869,pos
585,879751,SMa1585,878961,878659,790,neg
74,540837,SMa0969,540997,541746,160,pos
74,540837,SMa0967,540751,539831,86,neg
75,436952,SMa0806,441631,442086,4679,pos
75,436952,SMa0787,429057,428239,7895,neg
594,565697,SMa1033,569810,570190,4113,pos
594,565697,SMa1016,564947,563673,750,neg
596,815039,SMa1483,815138,817558,99,pos
596,815039,SMa1478,813790,812255,1249,neg
598,869081,SMa1579,873203,874498,4122,pos
598,869081,SMa1570,869063,868893,18,neg
89,1068349,SMa1881,1068558,1069151,209,pos
89,1068349,SMa1878,1068031,1067876,318,neg
90,553119,SMa0997,553196,553492,77,pos
90,553119,SMa0995,552481,551249,638,neg
93,472643,SMa0855,472764,473663,121,pos
93,472643,SMa0851,468942,468199,3701,neg
95,819421,SMa1493,822713,823636,3292,pos
95,819421,SMa1485,819255,817966,166,neg
96,1339030,SMa2377,1341022,1342191,1992,pos
96,1339030,SMa2359,1331458,1330682,7572,neg
612,96874,SMa0180,99435,100307,2561,pos
612,96874,SMa0175,96871,95789,3,neg
101,1231845,SMa2215,1240820,1241587,8975,pos
101,1231845,SMa2189,1228184,1226955,3661,neg
102,451811,SMa0824,452858,453325,1047,pos
102,451811,SMa0822,451339,450461,472,neg
618,443487,SMa0824,452858,453325,9371,pos
618,443487,SMa0787,429057,428239,14430,neg
112,317748,SMa0604,322421,323233,4673,pos
112,317748,SMa0585,313487,312195,4261,neg
118,1060900,SMa1869,1060923,1062248,23,pos
118,1060900,SMa1867,1060687,1060211,213,neg
631,1223,SMa0002,1353,4457,130,pos
631,1223,,,,100000000000,neg
640,1004320,SMa1767,1005037,1005204,717,pos
640,1004320,SMa1766,1004250,1003999,70,neg
131,916619,SMa5010,916665,917003,46,pos
131,916619,SMa1635,910639,910181,5980,neg
136,547407,SMa0990,549348,549827,1941,pos
136,547407,SMa0983,547404,547033,3,neg
139,263173,SMa0496,270311,270979,7138,pos
139,263173,SMa0478,261969,260764,1204,neg
158,909767,SMa1636,911789,912589,2022,pos
158,909767,SMa1630,907912,907592,1855,neg
624,1079599,SMa1900,1079608,1080165,9,pos
624,1079599,SMa1885,1074193,1073045,5406,neg
169,1339059,SMa2377,1341022,1342191,1963,pos
169,1339059,SMa2359,1331458,1330682,7601,neg
171,430486,SMa0791,430599,431201,113,pos
171,430486,SMa0787,429057,428239,1429,neg
173,726006,SMa5030,730316,730981,4310,pos
173,726006,SMa1328,725855,724533,151,neg
180,942606,SMa1684,948970,950853,6364,pos
180,942606,SMa1677,942590,941157,16,neg
182,1191404,SMa2111,1191763,1193313,359,pos
182,1191404,SMa2107,1189958,1189053,1446,neg
186,393501,SMa0726,393877,394269,376,pos
186,393501,SMa0705,381907,380966,11594,neg
200,508729,SMa0914,508807,509748,78,pos
200,508729,SMa0907,506214,504976,2515,neg
210,1274574,SMa2294,1275788,1277974,1214,pos
210,1274574,SMa2287,1272870,1271938,1704,neg
213,603630,SMa1111,604938,605630,1308,pos
213,603630,SMa1097,600044,599529,3586,neg
218,910128,SMa1636,911789,912589,1661,pos
218,910128,SMa1630,907912,907592,2216,neg
220,465106,SMa5029,465166,465342,60,pos
220,465106,SMa0840,463692,462751,1414,neg
249,1111214,SMa1957,1112318,1113208,1104,pos
249,1111214,SMa1953,1109757,1108753,1457,neg
252,1193638,SMa2151,1215301,1215624,21663,pos
252,1193638,SMa2107,1189958,1189053,3680,neg
260,711049,SMa1323,721436,721804,10387,pos
260,711049,SMa1297,708802,708125,2247,neg
261,78938,SMa0143,78965,79507,27,pos
261,78938,SMa0142,78822,77422,116,neg
262,429156,SMa0789,429441,430136,285,pos
262,429156,SMa0787,429057,428239,99,neg
263,584861,SMa1070,584979,586571,118,pos
263,584861,SMa1065,583207,582419,1654,neg
269,1169069,SMa2087,1178362,1179402,9293,pos
269,1169069,SMa2071,1168746,1168555,323,neg
279,358250,SMa0673,358810,360012,560,pos
279,358250,SMa0665,355030,353876,3220,neg
288,244266,SMa0461,245116,246318,850,pos
288,244266,SMa0448,240435,240025,3831,neg
290,1191020,SMa2111,1191763,1193313,743,pos
290,1191020,SMa2107,1189958,1189053,1062,neg
299,436886,SMa0806,441631,442086,4745,pos
299,436886,SMa0787,429057,428239,7829,neg
300,548953,SMa0990,549348,549827,395,pos
300,548953,SMa0988,548690,548397,263,neg
304,1008430,SMa1782,1009854,1010747,1424,pos
304,1008430,SMa1770,1006100,1005927,2330,neg
308,908972,SMa1636,911789,912589,2817,pos
308,908972,SMa1630,907912,907592,1060,neg
317,1087238,SMa1910,1087264,1087539,26,pos
317,1087238,SMa1907,1086190,1085810,1048,neg
318,1344642,SMa2381,1344905,1345471,263,pos
318,1344642,SMa2379,1344465,1342282,177,neg
326,515595,SMa0934,515693,520312,98,pos
326,515595,SMa0933,515514,515227,81,neg
327,1116460,SMa1963,1116746,1117555,286,pos
327,1116460,SMa1961,1116459,1115365,1,neg
329,410327,SMa0758,411107,411682,780,pos
329,410327,SMa0750,404056,403178,6271,neg
331,1082056,SMa1905,1082806,1085151,750,pos
331,1082056,SMa1885,1074193,1073045,7863,neg
338,1158340,SMa2049,1158529,1159611,189,pos
338,1158340,SMa2041,1155489,1154629,2851,neg
570,1080804,SMa1905,1082806,1085151,2002,pos
570,1080804,SMa1885,1074193,1073045,6611,neg
360,1215260,SMa2151,1215301,1215624,41,pos
360,1215260,SMa2147,1214588,1213698,672,neg
572,1062263,SMa1871,1062483,1063475,220,pos
572,1062263,SMa1867,1060687,1060211,1576,neg
366,336490,SMa0627,336766,337464,276,pos
366,336490,SMa0601,321799,319553,14691,neg
377,822651,SMa1493,822713,823636,62,pos
377,822651,SMa1491,822553,822089,98,neg
394,343616,SMa0639,343640,344044,24,pos
394,343616,SMa0633,340783,340397,2833,neg
396,879790,SMa1587,880620,882017,830,pos
396,879790,SMa1585,878961,878659,829,neg
399,15506,SMa0022,15716,15807,210,pos
399,15506,SMa0021,15094,14450,412,neg
401,1172718,SMa2087,1178362,1179402,5644,pos
401,1172718,SMa2075,1172395,1170764,323,neg
402,15624,SMa0022,15716,15807,92,pos
402,15624,SMa0021,15094,14450,530,neg
422,1254193,SMa2239,1254259,1255038,66,pos
422,1254193,SMa2237,1254114,1253110,79,neg
434,724507,SMa5030,730316,730981,5809,pos
434,724507,SMa1327,723935,723087,572,neg
435,882729,SMa1594,889137,889790,6408,pos
435,882729,SMa1586,880314,879859,2415,neg
444,307420,SMa0579,307530,309989,110,pos
444,307420,SMa0574,305841,305128,1579,neg
448,97701,SMa0180,99435,100307,1734,pos
448,97701,SMa0175,96871,95789,830,neg
454,1006119,SMa1776,1006786,1008156,667,pos
454,1006119,SMa1770,1006100,1005927,19,neg
462,126264,SMa0228,126420,127766,156,pos
462,126264,SMa0223,123637,122852,2627,neg
464,938205,SMa1672,938402,938896,197,pos
464,938205,SMa1666,933005,932526,5200,neg
477,789105,SMa1445,796350,797222,7245,pos
477,789105,SMa1431,789041,788523,64,neg
479,445846,SMa0824,452858,453325,7012,pos
479,445846,SMa0814,445678,444206,168,neg
485,183521,SMa0341,186524,186718,3003,pos
485,183521,SMa0333,183395,183183,126,neg
491,471362,SMa0854,471615,472352,253,pos
491,471362,SMa0851,468942,468199,2420,neg
500,173062,SMa0308,173063,174022,1,pos
500,173062,SMa0307,173002,172016,60,neg
