1	369446
2	1448066
3	784887
4	375383
5	1484263
6	630334
7	1322887
8	1165390
9	643945
10	971825
11	112397
12	1250401
13	741322
14	392963
15	427385
16	58371
17	277247
18	1037397
19	917643
20	235008
21	1044052
22	119659
23	492591
24	1023216
25	1049005
26	1458033
27	82247
28	634131
29	797480
30	1024998
31	640134
32	780395
33	736776
34	717390
35	228338
36	1605758
37	321562
38	1446344
39	1418370
40	323958
41	1306343
42	424996
43	226050
44	1289187
45	510964
46	1567529
47	828618
48	662369
49	1657671
50	1248752
51	1433476
52	1001592
53	1069294
54	1619746
55	1571734
56	1271736
57	1410513
58	1562510
59	1551003
60	605366
61	1129686
62	630367
63	777301
64	1286915
65	808107
66	456135
67	72359
68	488736
69	699694
70	1110620
71	871282