SMa0985
SMa1170
SMa0396
SMa0394
SMa0392
SMa0398
SMa0622
SMa0621
SMa0785
SMa1864
SMa1862
SMa0783
SMa0629
SMa0719
SMa0144
SMa1882
SMa0767
SMa0766
SMa0763
SMa0762
SMa0760
SMa0404
SMa0402
SMa0403
SMa0400
SMa1556
SMa1608
SMa1742
SMa2410
SMa0853
SMa0857
SMa1147
SMa0911
SMa0369
SMa2363
SMa0714
SMa0715
SMa0493
SMa0492
SMa0249
SMa1041
SMa1197
SMa1043
SMa1045
SMa2217
SMa0506
SMa1362
SMa1363
SMa1367
SMa1194
SMa5023
SMa1198
SMa2327
SMa2073
SMa1435
SMa0564
SMa1437
SMa0563
SMa2101
SMa2369
SMa1564
SMa1562
SMa1347
SMa1214
SMa1216
SMa1210
SMa1213
SMa1345
SMa2093
SMa1050
SMa2091
SMa1715
SMa2095
SMa1285
SMa1717
SMa0198
SMa0199
SMa0190
SMa0191
SMa0196
SMa0197
SMa1820
SMa2063
SMa1825
SMa0299
SMa0298
SMa2141
SMa2143
SMa0669
SMa0106
SMa0105
SMa0104
SMa0662
SMa0108
SMa1890
SMa5017
SMa0064
SMa0065
SMa0067
SMa0680
SMa0723
SMa0722
SMa0689
SMa1670
SMa0817
SMa0816
SMa0811
SMa0819
SMa1745
SMa1398
SMa1740
SMa1741
SMa1620
SMa1466
SMa1838
SMa2099
SMa1465
SMa0617
SMa0616
SMa0615
SMa0206
SMa0610
SMa1038
SMa5012
SMa5013
SMa5011
SMa2077
SMa2053
SMa0961
SMa1488
SMa1896
SMa1521
SMa1526
SMa1525
SMa1529
SMa1519
SMa1487
SMa0335
SMa0337
SMa2159
SMa0444
SMa2273
SMa0339
SMa1259
SMa1313
SMa1315
SMa0538
SMa1523
SMa1318
SMa1252
SMa2367
SMa1255
SMa1256
SMa2339
SMa0769
SMa1965
SMa2201
SMa1969
SMa1172
SMa2255
SMa2373
SMa1554
SMa1418
SMa1417
SMa1414
SMa1558
SMa2329
SMa5035
SMa2241
SMa0020
SMa0026
SMa1138
SMa1919
SMa1662
SMa0992
SMa1799
SMa0998
SMa1142
SMa2117
SMa2211
SMa1184
SMa2291
SMa0799
SMa0792
SMa0793
SMa0659
SMa0796
SMa0797
SMa0794
SMa1134
SMa0095
SMa0155
SMa0150
SMa0151
SMa0774
SMa0776
SMa0473
SMa1682
SMa0470
SMa0476
SMa2371
SMa0929
SMa0485
SMa0483
SMa0713
SMa0846
SMa1171
SMa0246
SMa0489
SMa0271
SMa0270
SMa0273
SMa0711
SMa0717
SMa5026
SMa5025
SMa0503
SMa5021
SMa5020
SMa1056
SMa2139
SMa1052
SMa1053
SMa2197
SMa2137
SMa1450
SMa1455
SMa0367
SMa2279
SMa1459
SMa2195
SMa0576
SMa1513
SMa2243
SMa1514
SMa1223
SMa1225
SMa1227
SMa1226
SMa1644
SMa2205
SMa2365
SMa1650
SMa1046
SMa1355
SMa1351
SMa1294
SMa2119
SMa1292
SMa2135
SMa1421
SMa1893
SMa0890
SMa0892
SMa0286
SMa0287
SMa1753
SMa0110
SMa0114
SMa0117
SMa1291
SMa0059
SMa0058
SMa1757
SMa2004
SMa0052
SMa5003
SMa0736
SMa2065
SMa0802
SMa0803
SMa0800
SMa0805
SMa0235
SMa1732
SMa0237
SMa1637
SMa5009
SMa0609
SMa2353
SMa2081
SMa0606
SMa0607
SMa1688
SMa0424
SMa0421
SMa0429
SMa0545
SMa1497
SMa1494
SMa1037
SMa1440
SMa1126
SMa0876
SMa0875
SMa0874
SMa0873
SMa0974
SMa2011
SMa0301
SMa0300
SMa1643
SMa1641
SMa1063
SMa1062
SMa1308
SMa1060
SMa1306
SMa2014
SMa1302
SMa1303
SMa2113
SMa1301
SMa1998
SMa2193
SMa1996
SMa1995
SMa1993
SMa0829
SMa0082
SMa2406
SMa0083
SMa1029
SMa1509
SMa1544
SMa1391
SMa1462
SMa1018
SMa1394
SMa1397
SMa1860
SMa1568
SMa1531
SMa1561
SMa1902
SMa1903
SMa0015
SMa1532
SMa0011
SMa0013
SMa2265
SMa2045
SMa0166
SMa1269
SMa1840
SMa2393
SMa2257
SMa0640
SMa1848
SMa0645
SMa0649
SMa1186
SMa1846
SMa0169
SMa0168
SMa0081
SMa0087
SMa0085
SMa0164
SMa0469
SMa0744
SMa0930
SMa2203
SMa0343
SMa1592
SMa0830
SMa0349
SMa1591
SMa0834
SMa0263
SMa0260
SMa2331
SMa0514
SMa1185
SMa0516
SMa0510
SMa5031
SMa0512
SMa0710
SMa0518
SMa0945
SMa2317
SMa0940
SMa1817
SMa0130
SMa2309
SMa1500
SMa1501
SMa0583
SMa0581
SMa1507
SMa1183
SMa2191
SMa1332
SMa1331
SMa1239
SMa1236
SMa0250
SMa1232
SMa1606
SMa2223
SMa2375
SMa0709
SMa1434
SMa1341
SMa1233
SMa1349
SMa1438
SMa1160
SMa0888
SMa1783
SMa0886
SMa1891
SMa2127
SMa1809
SMa1808
SMa1976
SMa1368
SMa0124
SMa0121
SMa0123
SMa1872
SMa1091
SMa2067
SMa5018
SMa1884
SMa1154
SMa2187
SMa1731
SMa2125
SMa1765
SMa1182
SMa1096
SMa0380
SMa0383
SMa1761
SMa0638
SMa2115
SMa0630
SMa0559
SMa0417
SMa1169
SMa0552
SMa2123
SMa0554
SMa5036
SMa2325
SMa2034
SMa1784
SMa0864
SMa0866
SMa1155
SMa0863
SMa1159
SMa0868
SMa0905
SMa0252
SMa0316
SMa1779
SMa0314
SMa1657
SMa0708
SMa0259
SMa1653
SMa1073
SMa1188
SMa1371
SMa1370
SMa1078
SMa1079
SMa1375
SMa1374
SMa2221
SMa1541
SMa2219
SMa2083
SMa1424
SMa1381
SMa1573
SMa1572
SMa2351
SMa1576
SMa1471
SMa1473
SMa1476
SMa1207
SMa1209
SMa1208
SMa0009
SMa1937
SMa0007
SMa2097
SMa0005
SMa1272
SMa1273
SMa1857
SMa1855
SMa1850
SMa2079
SMa0678
SMa0674
SMa0677
SMa1819
SMa0077
SMa0074
SMa0072
SMa0697
SMa0695
SMa2055
SMa0752
SMa1319
SMa1612
SMa1614
SMa0357
SMa2032
SMa2089
SMa1619
SMa0359
SMa0827
SMa2175
SMa2307
SMa1751
SMa0217
SMa0216
SMa0214
SMa5001
SMa0523
SMa0525
SMa5004
SMa0527
SMa0526
SMa1030
SMa1124
SMa1036
SMa1089
SMa1535
SMa1536
SMa0950
SMa0951
SMa0952
SMa0958
SMa0959
SMa2251
SMa0326
SMa0323
SMa0594
SMa2311
SMa2313
SMa0591
SMa0329
SMa1103
SMa1325
SMa1326
SMa1321
SMa1081
SMa1240
SMa1247
SMa1329
SMa1974
SMa1973
SMa1082
SMa1754
SMa1101
SMa2404
SMa1310
SMa2301
SMa2400
SMa2402
SMa1406
SMa1408
SMa2408
SMa1676
SMa1649
SMa5034
SMa1647
SMa1646
SMa2037
SMa1811
SMa2031
SMa1122
SMa1814
SMa1686
SMa0031
SMa0132
SMa0849
SMa0137
SMa0134
SMa1863
