SMb20098
SMb21227
SMb20233
SMb20232
SMb20235
SMb20234
SMb20589
SMb20239
SMb20238
SMb20582
SMb20125
SMb20124
SMb20127
SMb20057
SMb20050
SMb21297
SMb20059
SMb20058
SMb21293
SMb20837
SMb20835
SMb20833
SMb20832
SMb21471
SMb21472
SMb21473
SMb21474
SMb21476
SMb20909
SMb20907
SMb20904
SMb21059
SMb21056
SMb21505
SMb21501
SMb20102
SMb20101
SMb20100
SMb20107
SMb20768
SMb20679
SMb20776
SMb20671
SMb20670
SMb21278
SMb20675
SMb20677
SMb20676
SMb20221
SMb20228
SMb20229
SMb20137
SMb20134
SMb20135
SMb20132
SMb20133
SMb20130
SMb20131
SMb20045
SMb20821
SMb21664
SMb21667
SMb21666
SMb21663
SMb21405
SMb21404
SMb21407
SMb21401
SMb20919
SMb20911
SMb20607
SMb21062
SMb21061
SMb21060
SMb21066
SMb21065
SMb21064
SMb21311
SMb21310
SMb21312
SMb21315
SMb21081
SMb21082
SMb21085
SMb21084
SMb21557
SMb21556
SMb20078
SMb21174
SMb20077
SMb20215
SMb20213
SMb20218
SMb20690
SMb20695
SMb20699
SMb20698
SMb20451
SMb20450
SMb20452
SMb20459
SMb20109
SMb21273
SMb21270
SMb21271
SMb21274
SMb21275
SMb20855
SMb20854
SMb20851
SMb20852
SMb21673
SMb21671
SMb21417
SMb21414
SMb21412
SMb21413
SMb21418
SMb20588
SMb20075
SMb21308
SMb21309
SMb21303
SMb21300
SMb21301
SMb21307
SMb21304
SMb21092
SMb21090
SMb21096
SMb21097
SMb21095
SMb20975
SMb20632
SMb20027
SMb20532
SMb20240
SMb20241
SMb20534
SMb20535
SMb20685
SMb20687
SMb20680
SMb20688
SMb20689
SMb20442
SMb20443
SMb20446
SMb20444
SMb20445
SMb20118
SMb20119
SMb21247
SMb21246
SMb21241
SMb20661
SMb20842
SMb20840
SMb21248
SMb21643
SMb21645
SMb21644
SMb20208
SMb20209
SMb20200
SMb20201
SMb20205
SMb20206
SMb20207
SMb20063
SMb21339
SMb21338
SMb21333
SMb21429
SMb21423
SMb21422
SMb21421
SMb21420
SMb21426
SMb21425
SMb21424
SMb21182
SMb20908
SMb20147
SMb20146
SMb21189
SMb20143
SMb20142
SMb20590
SMb20141
SMb20140
SMb20594
SMb20477
SMb20474
SMb20472
SMb20471
SMb20479
SMb20478
SMb20305
SMb20307
SMb20658
SMb20657
SMb20651
SMb20650
SMb21504
SMb20769
SMb21654
SMb21655
SMb21650
SMb21653
SMb20785
SMb21500
SMb20786
SMb21053
SMb20279
SMb20278
SMb20277
SMb20271
SMb20270
SMb20599
SMb21258
SMb21259
SMb20097
SMb20096
SMb20099
SMb21252
SMb21253
SMb21320
SMb21321
SMb21322
SMb21323
SMb21324
SMb21325
SMb21326
SMb21327
SMb21328
SMb20891
SMb20893
SMb20897
SMb21434
SMb21435
SMb21436
SMb21437
SMb21431
SMb20313
SMb20008
SMb20316
SMb20863
SMb21538
SMb21636
SMb22024
SMb21637
SMb21638
SMb20269
SMb21639
SMb20468
SMb20460
SMb20461
SMb20462
SMb20463
SMb20864
SMb20866
SMb20861
SMb20649
SMb20318
SMb21691
SMb21520
SMb21687
SMb20268
SMb20266
SMb20267
SMb20264
SMb20265
SMb20260
SMb21131
SMb21130
SMb21132
SMb21137
SMb21136
SMb21139
SMb21138
SMb21682
SMb20031
SMb21529
SMb20081
SMb20087
SMb20084
SMb21225
SMb21224
SMb20089
SMb21357
SMb21356
SMb21351
SMb21350
SMb21353
SMb20888
SMb20883
SMb20881
SMb20887
SMb20884
SMb20875
SMb20602
SMb20603
SMb20669
SMb21228
SMb21635
SMb20874
SMb22015
SMb20727
SMb20595
SMb20720
SMb20619
SMb20419
SMb20418
SMb20414
SMb20411
SMb20410
SMb20412
SMb20327
SMb20321
SMb20320
SMb20328
SMb20664
SMb20254
SMb20529
SMb20528
SMb21123
SMb21120
SMb21121
SMb21126
SMb21127
SMb21125
SMb21128
SMb21122
SMb21238
SMb21239
SMb21237
SMb21232
SMb21233
SMb21230
SMb21347
SMb21344
SMb21342
SMb21343
SMb21340
SMb21341
SMb21348
SMb20610
SMb20114
SMb20110
SMb20111
SMb20112
SMb20616
SMb20113
SMb22002
SMb22004
SMb20848
SMb20849
SMb20662
SMb20666
SMb21503
SMb20408
SMb20409
SMb20407
SMb20404
SMb20403
SMb20400
SMb20672
SMb20627
SMb20624
SMb20620
SMb20621
SMb20628
SMb20629
SMb20244
SMb20247
SMb20536
SMb20242
SMb20243
SMb21116
SMb21114
SMb21112
SMb21111
SMb21110
SMb20752
SMb20750
SMb20751
SMb20756
SMb21593
SMb21592
SMb21591
SMb21590
SMb21596
SMb21595
SMb20339
SMb21200
SMb21207
SMb21206
SMb21205
SMb21204
SMb20330
SMb21209
SMb21208
SMb20336
SMb21579
SMb21541
SMb21573
SMb21572
SMb21575
SMb21011
SMb21545
SMb21018
SMb21373
SMb21371
SMb21370
SMb21375
SMb21374
SMb20433
SMb20432
SMb20431
SMb20430
SMb20435
SMb20434
SMb20183
SMb20182
SMb20181
SMb20180
SMb20185
SMb20184
SMb20507
SMb20506
SMb20503
SMb20502
SMb20501
SMb20500
SMb20981
SMb20987
SMb20986
SMb20985
SMb20767
SMb20989
SMb20763
SMb20762
SMb20761
SMb20760
SMb20593
SMb20299
SMb20298
SMb20297
SMb20296
SMb20295
SMb21584
SMb21585
SMb21586
SMb21582
SMb21583
SMb21589
SMb21216
SMb21217
SMb21213
SMb20345
SMb20346
SMb20340
SMb20342
SMb21569
SMb21560
SMb21561
SMb21566
SMb21565
SMb21108
SMb21109
SMb21100
SMb21101
SMb21104
SMb21105
SMb21106
SMb21107
SMb20969
SMb20968
SMb20961
SMb20960
SMb20967
SMb21368
SMb21369
SMb21364
SMb21367
SMb21360
SMb21361
SMb21363
SMb21261
SMb21263
SMb21262
SMb21265
SMb21264
SMb21267
SMb21266
SMb21269
SMb20765
SMb20764
SMb20826
SMb20422
SMb20428
SMb20198
SMb20199
SMb20194
SMb20195
SMb20196
SMb20197
SMb20510
SMb20511
SMb20513
SMb20516
SMb20996
SMb20280
SMb20281
SMb20282
SMb20283
SMb20284
SMb20287
SMb20358
SMb20356
SMb20357
SMb20354
SMb20352
SMb20353
SMb20351
SMb21002
SMb21005
SMb21004
SMb21007
SMb21006
SMb21551
SMb21550
SMb21489
SMb21488
SMb21480
SMb21483
SMb21482
SMb20618
SMb21179
SMb20349
SMb21176
SMb21170
SMb21173
SMb20613
SMb20979
SMb20973
SMb20970
SMb20971
SMb20976
SMb20974
SMb21219
SMb21399
SMb20606
SMb20161
SMb20163
SMb20164
SMb20166
SMb20569
SMb20707
SMb20700
SMb20363
SMb20362
SMb20361
SMb20360
SMb20369
SMb20019
SMb20018
SMb21542
SMb21016
SMb21017
SMb20013
SMb20012
SMb20015
SMb20014
SMb20016
SMb20388
SMb20381
SMb20380
SMb20385
SMb20384
SMb20386
SMb21498
SMb21499
SMb21496
SMb21492
SMb21166
SMb21164
SMb21165
SMb21162
SMb21163
SMb21160
SMb21161
SMb20634
SMb20631
SMb20630
SMb20945
SMb20944
SMb20943
SMb21380
SMb21381
SMb20252
SMb21218
SMb20250
SMb20172
SMb20171
SMb20176
SMb20174
SMb20175
SMb20179
SMb21124
SMb20578
SMb20576
SMb20577
SMb21697
SMb20571
SMb20714
SMb20719
SMb21711
SMb20374
SMb20376
SMb20377
SMb20370
SMb20371
SMb20372
SMb20373
SMb20378
SMb20379
SMb21534
SMb21023
SMb21022
SMb21532
SMb20002
SMb20003
SMb21539
SMb20399
SMb20393
SMb20391
SMb20396
SMb20394
SMb20395
SMb21153
SMb21152
SMb21151
SMb21150
SMb21155
SMb21159
SMb21158
SMb21448
SMb21441
SMb21442
SMb21445
SMb20952
SMb20953
SMb20955
SMb20956
SMb20957
SMb20958
SMb20959
SMb20497
SMb20496
SMb20490
SMb20499
SMb20498
SMb20148
SMb20541
SMb21707
SMb21527
SMb21522
SMb21523
SMb20037
SMb20035
SMb21528
SMb20030
SMb20815
SMb20816
SMb20819
SMb21046
SMb21517
SMb21040
SMb21145
SMb21146
SMb21147
SMb21140
SMb21634
SMb20721
SMb21149
SMb20725
SMb21458
SMb21459
SMb21454
SMb20921
SMb20920
SMb20929
SMb21038
SMb21039
SMb21030
SMb20873
SMb20575
SMb20784
SMb20486
SMb20487
SMb20482
SMb20480
SMb20488
SMb20489
SMb20554
SMb20553
SMb20158
SMb20159
SMb20151
SMb20152
SMb20153
SMb20156
SMb20157
SMb21288
SMb21283
SMb21287
SMb21286
SMb20804
SMb20805
SMb21530
SMb21604
SMb21602
SMb21465
SMb21462
SMb21461
SMb21460
SMb21199
SMb21198
SMb21197
SMb21191
SMb21190
SMb20937
SMb20934
SMb20938
SMb20939
SMb21048
SMb21512
SMb21511
SMb21510
SMb21041
SMb21515
SMa0985
SMa1170
SMa0396
SMa0394
SMa0392
SMa0398
SMa0622
SMa0621
SMa0785
SMa1864
SMa1862
SMa0783
SMa0629
SMa0719
SMa0144
SMa1882
SMa0767
SMa0766
SMa0763
SMa0762
SMa0760
SMa0404
SMa0402
SMa0403
SMa0400
SMa1556
SMa1608
SMa1742
SMa2410
SMa0853
SMa0857
SMa1147
SMa0911
SMa0369
SMa2363
SMa0714
SMa0715
SMa0493
SMa0492
SMa0249
SMa1041
SMa1197
SMa1043
SMa1045
SMa2217
SMa0506
SMa1362
SMa1363
SMa1367
SMa1194
SMa5023
SMa1198
SMa2327
SMa2073
SMa1435
SMa0564
SMa1437
SMa0563
SMa2101
SMa2369
SMa1564
SMa1562
SMa1347
SMa1214
SMa1216
SMa1210
SMa1213
SMa1345
SMa2093
SMa1050
SMa2091
SMa1715
SMa2095
SMa1285
SMa1717
SMa0198
SMa0199
SMa0190
SMa0191
SMa0196
SMa0197
SMa1820
SMa2063
SMa1825
SMa0299
SMa0298
SMa2141
SMa2143
SMa0669
SMa0106
SMa0105
SMa0104
SMa0662
SMa0108
SMa1890
SMa5017
SMa0064
SMa0065
SMa0067
SMa0680
SMa0723
SMa0722
SMa0689
SMa1670
SMa0817
SMa0816
SMa0811
SMa0819
SMa1745
SMa1398
SMa1740
SMa1741
SMa1620
SMa1466
SMa1838
SMa2099
SMa1465
SMa0617
SMa0616
SMa0615
SMa0206
SMa0610
SMa1038
SMa5012
SMa5013
SMa5011
SMa2077
SMa2053
SMa0961
SMa1488
SMa1896
SMa1521
SMa1526
SMa1525
SMa1529
SMa1519
SMa1487
SMa0335
SMa0337
SMa2159
SMa0444
SMa2273
SMa0339
SMa1259
SMa1313
SMa1315
SMa0538
SMa1523
SMa1318
SMa1252
SMa2367
SMa1255
SMa1256
SMa2339
SMa0769
SMa1965
SMa2201
SMa1969
SMa1172
SMa2255
SMa2373
SMa1554
SMa1418
SMa1417
SMa1414
SMa1558
SMa2329
SMa5035
SMa2241
SMa0020
SMa0026
SMa1138
SMa1919
SMa1662
SMa0992
SMa1799
SMa0998
SMa1142
SMa2117
SMa2211
SMa1184
SMa2291
SMa0799
SMa0792
SMa0793
SMa0659
SMa0796
SMa0797
SMa0794
SMa1134
SMa0095
SMa0155
SMa0150
SMa0151
SMa0774
SMa0776
SMa0473
SMa1682
SMa0470
SMa0476
SMa2371
SMa0929
SMa0485
SMa0483
SMa0713
SMa0846
SMa1171
SMa0246
SMa0489
SMa0271
SMa0270
SMa0273
SMa0711
SMa0717
SMa5026
SMa5025
SMa0503
SMa5021
SMa5020
SMa1056
SMa2139
SMa1052
SMa1053
SMa2197
SMa2137
SMa1450
SMa1455
SMa0367
SMa2279
SMa1459
SMa2195
SMa0576
SMa1513
SMa2243
SMa1514
SMa1223
SMa1225
SMa1227
SMa1226
SMa1644
SMa2205
SMa2365
SMa1650
SMa1046
SMa1355
SMa1351
SMa1294
SMa2119
SMa1292
SMa2135
SMa1421
SMa1893
SMa0890
SMa0892
SMa0286
SMa0287
SMa1753
SMa0110
SMa0114
SMa0117
SMa1291
SMa0059
SMa0058
SMa1757
SMa2004
SMa0052
SMa5003
SMa0736
SMa2065
SMa0802
SMa0803
SMa0800
SMa0805
SMa0235
SMa1732
SMa0237
SMa1637
SMa5009
SMa0609
SMa2353
SMa2081
SMa0606
SMa0607
SMa1688
SMa0424
SMa0421
SMa0429
SMa0545
SMa1497
SMa1494
SMa1037
SMa1440
SMa1126
SMa0876
SMa0875
SMa0874
SMa0873
SMa0974
SMa2011
SMa0301
SMa0300
SMa1643
SMa1641
SMa1063
SMa1062
SMa1308
SMa1060
SMa1306
SMa2014
SMa1302
SMa1303
SMa2113
SMa1301
SMa1998
SMa2193
SMa1996
SMa1995
SMa1993
SMa0829
SMa0082
SMa2406
SMa0083
SMa1029
SMa1509
SMa1544
SMa1391
SMa1462
SMa1018
SMa1394
SMa1397
SMa1860
SMa1568
SMa1531
SMa1561
SMa1902
SMa1903
SMa0015
SMa1532
SMa0011
SMa0013
SMa2265
SMa2045
SMa0166
SMa1269
SMa1840
SMa2393
SMa2257
SMa0640
SMa1848
SMa0645
SMa0649
SMa1186
SMa1846
SMa0169
SMa0168
SMa0081
SMa0087
SMa0085
SMa0164
SMa0469
SMa0744
SMa0930
SMa2203
SMa0343
SMa1592
SMa0830
SMa0349
SMa1591
SMa0834
SMa0263
SMa0260
SMa2331
SMa0514
SMa1185
SMa0516
SMa0510
SMa5031
SMa0512
SMa0710
SMa0518
SMa0945
SMa2317
SMa0940
SMa1817
SMa0130
SMa2309
SMa1500
SMa1501
SMa0583
SMa0581
SMa1507
SMa1183
SMa2191
SMa1332
SMa1331
SMa1239
SMa1236
SMa0250
SMa1232
SMa1606
SMa2223
SMa2375
SMa0709
SMa1434
SMa1341
SMa1233
SMa1349
SMa1438
SMa1160
SMa0888
SMa1783
SMa0886
SMa1891
SMa2127
SMa1809
SMa1808
SMa1976
SMa1368
SMa0124
SMa0121
SMa0123
SMa1872
SMa1091
SMa2067
SMa5018
SMa1884
SMa1154
SMa2187
SMa1731
SMa2125
SMa1765
SMa1182
SMa1096
SMa0380
SMa0383
SMa1761
SMa0638
SMa2115
SMa0630
SMa0559
SMa0417
SMa1169
SMa0552
SMa2123
SMa0554
SMa5036
SMa2325
SMa2034
SMa1784
SMa0864
SMa0866
SMa1155
SMa0863
SMa1159
SMa0868
SMa0905
SMa0252
SMa0316
SMa1779
SMa0314
SMa1657
SMa0708
SMa0259
SMa1653
SMa1073
SMa1188
SMa1371
SMa1370
SMa1078
SMa1079
SMa1375
SMa1374
SMa2221
SMa1541
SMa2219
SMa2083
SMa1424
SMa1381
SMa1573
SMa1572
SMa2351
SMa1576
SMa1471
SMa1473
SMa1476
SMa1207
SMa1209
SMa1208
SMa0009
SMa1937
SMa0007
SMa2097
SMa0005
SMa1272
SMa1273
SMa1857
SMa1855
SMa1850
SMa2079
SMa0678
SMa0674
SMa0677
SMa1819
SMa0077
SMa0074
SMa0072
SMa0697
SMa0695
SMa2055
SMa0752
SMa1319
SMa1612
SMa1614
SMa0357
SMa2032
SMa2089
SMa1619
SMa0359
SMa0827
SMa2175
SMa2307
SMa1751
SMa0217
SMa0216
SMa0214
SMa5001
SMa0523
SMa0525
SMa5004
SMa0527
SMa0526
SMa1030
SMa1124
SMa1036
SMa1089
SMa1535
SMa1536
SMa0950
SMa0951
SMa0952
SMa0958
SMa0959
SMa2251
SMa0326
SMa0323
SMa0594
SMa2311
SMa2313
SMa0591
SMa0329
SMa1103
SMa1325
SMa1326
SMa1321
SMa1081
SMa1240
SMa1247
SMa1329
SMa1974
SMa1973
SMa1082
SMa1754
SMa1101
SMa2404
SMa1310
SMa2301
SMa2400
SMa2402
SMa1406
SMa1408
SMa2408
SMa1676
SMa1649
SMa5034
SMa1647
SMa1646
SMa2037
SMa1811
SMa2031
SMa1122
SMa1814
SMa1686
SMa0031
SMa0132
SMa0849
SMa0137
SMa0134
SMa1863
SMc00723
SMc00418
SMc00412
SMc00413
SMc01094
SMc01097
SMc01091
SMc01099
SMc01098
SMc01279
SMc01275
SMc01274
SMc01277
SMc01276
SMc01271
SMc01270
SMc01273
SMc01272
SMc02464
SMc01830
SMc04031
SMc04034
SMc04036
SMc04037
SMc02018
SMc02019
SMc02016
SMc02017
SMc02234
SMc02235
SMc02231
SMc02239
SMc02728
SMc02729
SMc03838
SMc02652
SMc02650
SMc02651
SMc02657
SMc02654
SMc02838
SMc02839
SMc03295
SMc03296
SMc02830
SMc02837
SMc02835
SMc03894
SMc04361
SMc04363
SMc03748
SMc02908
SMc02909
SMc02907
SMc02902
SMc02903
SMc02901
SMc04047
SMc00388
SMc04324
SMc03789
SMc03788
SMc00389
SMc04048
SMc00131
SMc00130
SMc00133
SMc00132
SMc00138
SMc04218
SMc01662
SMc01661
SMc00243
SMc00242
SMc00246
SMc00244
SMc04181
SMc04186
SMc04399
SMc00393
SMc00392
SMc00395
SMc01712
SMc01716
SMc01717
SMc00620
SMc00401
SMc00400
SMc00406
SMc01827
SMc01282
SMc01283
SMc01288
SMc01049
SMc01046
SMc01047
SMc01045
SMc01042
SMc01043
SMc01918
SMc01919
SMc01910
SMc01911
SMc01913
SMc01914
SMc01915
SMc01916
SMc01917
SMc03825
SMc01829
SMc00297
SMc03786
SMc00293
SMc03828
SMc02227
SMc02222
SMc02220
SMc04131
SMc04130
SMc01506
SMc03988
SMc04132
SMc02647
SMc02137
SMc02649
SMc02648
SMc02359
SMc02358
SMc02829
SMc02828
SMc02827
SMc02826
SMc02821
SMc00339
SMc02822
SMc03192
SMc03190
SMc03191
SMc03198
SMc02739
SMc01503
SMc02096
SMc02733
SMc02734
SMc03173
SMc03177
SMc00893
SMc02913
SMc00891
SMc00894
SMc00895
SMc03992
SMc03995
SMc00688
SMc00099
SMc00090
SMc00091
SMc00094
SMc03202
SMc03003
SMc04177
SMc03772
SMc04178
SMc03774
SMc03775
SMc04208
SMc00276
SMc00274
SMc00275
SMc00272
SMc00273
SMc03165
SMc04195
SMc01707
SMc01700
SMc01703
SMc01702
SMc00871
SMc00873
SMc00478
SMc03980
SMc01670
SMc01293
SMc01291
SMc01290
SMc01297
SMc01296
SMc01295
SMc01294
SMc01298
SMc01051
SMc01054
SMc05009
SMc05006
SMc00501
SMc05003
SMc05001
SMc01903
SMc01457
SMc01552
SMc01554
SMc02038
SMc02039
SMc02588
SMc02586
SMc02587
SMc04110
SMc00162
SMc02106
SMc02107
SMc02104
SMc02105
SMc02108
SMc02109
SMc02368
SMc02367
SMc02364
SMc02362
SMc02363
SMc02360
SMc04287
SMc02697
SMc03184
SMc03187
SMc03181
SMc03180
SMc03183
SMc03182
SMc02219
SMc04346
SMc04347
SMc04345
SMc04340
SMc03163
SMc03167
SMc03164
SMc00887
SMc00881
SMc00883
SMc00882
SMc02722
SMc03981
SMc02723
SMc03810
SMc00085
SMc00081
SMc05013
SMc03768
SMc01489
SMc03761
SMc00261
SMc00260
SMc00263
SMc00262
SMc00265
SMc00267
SMc00269
SMc00268
SMc02335
SMc01847
SMc00869
SMc00868
SMc01843
SMc00649
SMc00863
SMc00862
SMc01112
SMc01113
SMc01114
SMc01115
SMc01117
SMc00466
SMc00465
SMc00463
SMc00018
SMc01502
SMc01594
SMc01595
SMc01608
SMc01607
SMc01027
SMc01020
SMc01021
SMc01023
SMc00512
SMc00511
SMc00510
SMc00515
SMc02120
SMc02121
SMc05018
SMc02123
SMc02124
SMc01932
SMc01930
SMc01931
SMc01338
SMc01339
SMc01332
SMc02332
SMc03938
SMc03939
SMc02025
SMc02027
SMc02026
SMc02028
SMc02341
SMc02342
SMc02599
SMc02598
SMc02594
SMc02591
SMc02593
SMc02592
SMc02346
SMc02347
SMc02116
SMc02373
SMc02375
SMc02682
SMc02684
SMc02687
SMc04283
SMc04293
SMc04282
SMc04281
SMc02759
SMc02758
SMc02757
SMc02754
SMc02752
SMc02203
SMc02202
SMc04294
SMc03158
SMc03156
SMc03157
SMc03155
SMc03976
SMc03979
SMc04295
SMc00644
SMc03088
SMc03089
SMc03086
SMc00074
SMc00988
SMc00984
SMc00981
SMc03885
SMc01501
SMc03882
SMc03792
SMc01986
SMc03796
SMc04351
SMc03203
SMc04221
SMc04229
SMc00186
SMc00188
SMc00189
SMc01859
SMc01858
SMc02336
SMc01854
SMc00672
SMc00670
SMc02333
SMc00858
SMc00850
SMc01100
SMc01107
SMc00321
SMc00450
SMc00457
SMc00326
SMc00327
SMc00690
SMc00691
SMc00694
SMc00695
SMc00696
SMc00697
SMc01582
SMc01581
SMc01619
SMc01618
SMc01616
SMc01615
SMc01614
SMc01613
SMc01036
SMc01035
SMc01034
SMc01033
SMc01032
SMc01031
SMc00523
SMc01039
SMc01984
SMc03842
SMc01921
SMc01922
SMc01925
SMc01924
SMc01927
SMc01926
SMc01929
SMc01928
SMc01322
SMc01320
SMc01326
SMc00348
SMc02561
SMc02564
SMc02565
SMc02567
SMc02568
SMc02569
SMc01443
SMc02169
SMc02164
SMc02165
SMc02167
SMc03119
SMc02300
SMc02301
SMc01437
SMc02308
SMc02309
SMc01434
SMc05011
SMc01872
SMc03116
SMc00519
SMc03117
SMc02763
SMc02760
SMc02761
SMc02766
SMc02764
SMc02765
SMc05015
SMc02768
SMc05014
SMc02418
SMc02419
SMc03146
SMc02412
SMc02413
SMc02416
SMc03964
SMc02783
SMc02784
SMc02785
SMc00517
SMc00516
SMc00148
SMc04462
SMc01184
SMc00061
SMc00060
SMc04035
SMc04039
SMc00995
SMc00992
SMc03896
SMc03898
SMc03783
SMc03780
SMc04328
SMc03785
SMc01188
SMc04325
SMc04326
SMc04327
SMc04322
SMc04254
SMc04255
SMc04256
SMc04257
SMc04253
SMc02982
SMc01874
SMc02706
SMc01824
SMc01825
SMc01826
SMc00667
SMc00666
SMc00663
SMc00669
SMc00668
SMc01137
SMc01130
SMc00330
SMc00334
SMc00681
SMc00687
SMc00684
SMc01622
SMc01623
SMc01620
SMc01621
SMc01626
SMc01624
SMc01625
SMc04266
SMc01008
SMc01009
SMc01007
SMc00531
SMc00533
SMc00532
SMc00535
SMc04162
SMc01956
SMc04161
SMc01950
SMc01959
SMc04167
SMc04001
SMc01318
SMc01312
SMc01313
SMc01311
SMc04002
SMc04005
SMc00497
SMc00494
SMc01452
SMc04269
SMc04210
SMc00230
SMc02573
SMc02572
SMc02571
SMc02570
SMc02577
SMc02576
SMc00498
SMc00499
SMc02176
SMc02173
SMc03859
SMc02315
SMc02312
SMc02319
SMc02318
SMc03137
SMc03133
SMc03312
SMc03313
SMc02775
SMc02771
SMc02772
SMc03134
SMc03135
SMc03130
SMc03132
SMc03138
SMc02405
SMc03956
SMc03957
SMc02799
SMc00235
SMc02791
SMc02790
SMc04455
SMc03226
SMc03227
SMc03228
SMc03229
SMc00056
SMc00057
SMc00054
SMc00055
SMc00052
SMc00053
SMc03042
SMc03043
SMc03044
SMc03045
SMc01860
SMc01862
SMc02795
SMc04339
SMc04338
SMc04268
SMc04243
SMc01865
SMc04249
SMc04264
SMc00788
SMc00622
SMc01838
SMc04261
SMc01866
SMc01832
SMc01831
SMc00833
SMc01867
SMc00302
SMc00301
SMc04272
SMc01939
SMc01868
SMc01442
SMc00948
SMc00238
SMc01632
SMc00941
SMc01013
SMc00540
SMc01499
SMc01498
SMc01490
SMc01129
SMc01942
SMc01941
SMc01940
SMc01121
SMc01120
SMc01123
SMc01122
SMc03048
SMc03049
SMc04021
SMc01301
SMc01300
SMc01303
SMc01302
SMc01305
SMc01304
SMc01307
SMc01306
SMc01308
SMc03298
SMc00493
SMc04403
SMc03047
SMc04275
SMc01964
SMc02546
SMc02547
SMc02090
SMc02092
SMc02093
SMc02098
SMc02548
SMc02549
SMc01962
SMc02142
SMc02143
SMc02141
SMc02144
SMc01658
SMc03300
SMc03126
SMc03125
SMc02436
SMc02435
SMc01836
SMc03232
SMc02329
SMc02899
SMc03235
SMc02321
SMc04013
SMc03053
SMc03052
SMc03051
SMc03050
SMc03057
SMc03056
SMc03055
SMc04302
SMc04300
SMc04304
SMc04308
SMc04214
SMc04215
SMc04242
SMc01803
SMc01801
SMc01809
SMc02500
SMc00049
SMc00823
SMc01798
SMc01792
SMc01793
SMc01790
SMc01791
SMc04217
SMc02508
SMc00958
SMc00229
SMc00225
SMc00952
SMc00956
SMc01577
SMc01572
SMc01573
SMc00553
SMc00552
SMc04297
SMc00559
SMc01978
SMc01979
SMc01972
SMc01976
SMc01977
SMc01159
SMc01156
SMc01157
SMc01150
SMc01153
SMc01376
SMc01370
SMc01440
SMc01446
SMc01445
SMc00284
SMc01208
SMc01206
SMc03118
SMc02084
SMc02089
SMc02345
SMc04145
SMc02155
SMc02154
SMc02157
SMc02153
SMc02152
SMc02159
SMc02158
SMc04141
SMc01430
SMc02559
SMc02550
SMc02555
SMc02557
SMc02421
SMc02420
SMc02423
SMc02424
SMc02427
SMc03930
SMc03931
SMc03206
SMc03207
SMc03204
SMc02338
SMc02887
SMc02885
SMc02883
SMc02880
SMc03068
SMc03069
SMc03064
SMc03065
SMc03063
SMc03841
SMc03848
SMc03849
SMc04316
SMc03110
SMc03111
SMc03114
SMc03115
SMc00141
SMc00142
SMc00143
SMc04463
SMc04461
SMc01815
SMc01811
SMc01810
SMc00812
SMc00811
SMc00816
SMc04008
SMc00034
SMc00036
SMc00031
SMc00364
SMc00366
SMc01785
SMc01786
SMc00368
SMc01635
SMc01634
SMc00783
SMc00966
SMc00964
SMc00965
SMc00963
SMc01564
SMc01566
SMc00563
SMc00560
SMc00567
SMc00564
SMc00565
SMc00761
SMc01969
SMc00236
SMc01963
SMc00237
SMc01149
SMc01148
SMc01147
SMc01146
SMc01367
SMc01366
SMc01365
SMc01363
SMc01362
SMc01361
SMc01369
SMc01368
SMc01542
SMc01541
SMc01219
SMc04432
SMc02501
SMc02631
SMc02632
SMc02189
SMc02506
SMc02525
SMc02507
SMc02986
SMc00789
SMc02452
SMc03928
SMc03925
SMc03924
SMc03922
SMc02989
SMc01947
SMc02637
SMc03071
SMc03971
SMc02859
SMc03851
SMc03850
SMc03855
SMc03854
SMc02852
SMc02854
SMc01949
SMc03107
SMc01948
SMc03103
SMc04109
SMc00158
SMc04450
SMc04451
SMc00805
SMc00807
SMc01667
SMc00024
SMc01772
SMc01775
SMc01778
SMc01779
SMc00379
SMc03798
SMc00970
SMc00973
SMc00974
SMc00976
SMc01515
SMc00579
SMc00578
SMc01512
SMc01513
SMc00577
SMc00572
SMc00779
SMc01873
SMc00773
SMc00772
SMc01992
SMc01993
SMc01994
SMc01173
SMc01171
SMc01177
SMc01178
SMc02640
SMc01352
SMc01356
SMc01190
SMc01193
SMc01194
SMc02987
SMc01228
SMc01227
SMc01220
SMc01221
SMc04216
SMc02352
SMc02357
SMc02355
SMc03852
SMc00179
SMc00178
SMc02446
SMc02443
SMc02442
SMc02441
SMc00675
SMc02449
SMc02448
SMc03765
SMc03268
SMc03269
SMc00177
SMc00176
SMc03005
SMc03006
SMc03007
SMc03000
SMc03001
SMc03002
SMc03008
SMc03009
SMc03866
SMc03867
SMc03861
SMc02841
SMc02847
SMc04113
SMc04111
SMc00451
SMc04118
SMc00325
SMc03948
SMc00454
SMc00012
SMc00013
SMc00010
SMc00016
SMc01763
SMc01765
SMc01764
SMc00719
SMc00906
SMc00900
SMc00902
SMc04288
SMc00909
SMc00580
SMc00582
SMc00583
SMc00586
SMc01500
SMc01508
SMc00742
SMc01983
SMc01980
SMc01985
SMc03998
SMc01877
SMc01166
SMc00340
SMc01349
SMc01345
SMc01344
SMc01346
SMc01342
SMc01189
SMc02097
SMc02091
SMc01230
SMc01236
SMc00716
SMc00711
SMc00641
SMc00458
SMc01138
SMc04050
SMc04881
SMc02616
SMc02617
SMc02614
SMc02612
SMc02613
SMc02610
SMc02611
SMc02618
SMc02292
SMc02291
SMc02295
SMc02298
SMc02053
SMc02054
SMc02055
SMc02056
SMc02270
SMc02271
SMc02272
SMc03279
SMc04459
SMc03272
SMc00520
SMc04457
SMc00521
SMc03017
SMc03016
SMc03013
SMc03012
SMc03011
SMc03010
SMc03871
SMc03870
SMc03019
SMc02878
SMc02879
SMc02876
SMc02873
SMc02870
SMc02871
SMc02478
SMc02472
SMc02473
SMc02477
SMc02474
SMc04126
SMc04124
SMc04125
SMc04122
SMc04123
SMc04120
SMc04128
SMc04129
SMc02710
SMc02715
SMc02714
SMc04058
SMc00008
SMc01758
SMc00917
SMc00915
SMc00914
SMc00913
SMc00175
SMc00918
SMc00596
SMc00599
SMc03778
SMc00355
SMc00352
SMc03776
SMc03777
SMc01534
SMc01771
SMc01773
SMc00700
SMc04200
SMc04207
SMc00701
SMc00518
SMc04204
SMc03127
SMc02285
SMc02284
SMc02281
SMc02280
SMc02283
SMc02282
SMc03120
SMc02289
SMc02043
SMc02042
SMc02041
SMc02040
SMc02046
SMc02045
SMc02044
SMc04290
SMc02049
SMc02048
SMc02519
SMc02269
SMc02263
SMc02262
SMc02265
SMc03129
SMc03128
SMc03236
SMc03249
SMc02605
SMc02604
SMc02607
SMc02606
SMc03807
SMc03801
SMc03803
SMc02861
SMc02865
SMc02864
SMc02867
SMc02866
SMc02869
SMc02469
SMc02468
SMc02465
SMc02466
SMc02460
SMc00790
SMc04429
SMc04428
SMc01617
SMc01878
SMc01709
SMc03028
SMc03029
SMc03020
SMc03021
SMc03026
SMc03024
SMc00612
SMc00613
SMc00614
SMc00617
SMc00618
SMc00619
SMc01510
SMc01511
SMc00298
SMc00299
SMc00921
SMc00926
SMc04139
SMc04138
SMc04137
SMc04136
SMc01518
SMc03234
SMc01519
SMc02890
SMc02891
SMc03858
SMc01745
SMc01411
SMc01413
SMc01412
SMc01419
SMc04014
SMc03085
SMc00431
SMc04398
SMc01529
SMc01528
SMc01525
SMc01527
SMc01526
SMc01521
SMc01523
SMc01259
SMc00489
SMc00483
SMc00482
SMc02072
SMc02073
SMc02070
SMc02700
SMc02701
SMc02704
SMc02705
SMc02259
SMc02256
SMc02257
SMc02254
SMc02388
SMc02387
SMc02383
SMc01420
SMc01421
SMc02677
SMc01422
SMc01423
SMc03819
SMc03817
SMc01424
SMc03814
SMc03813
SMc03811
SMc02817
SMc00508
SMc00509
SMc02491
SMc02492
SMc02499
SMc04389
SMc04386
SMc04384
SMc04385
SMc00500
SMc00502
SMc02515
SMc02514
SMc02517
SMc02516
SMc03035
SMc03034
SMc03036
SMc03031
SMc03030
SMc03033
SMc03032
SMc00602
SMc00600
SMc00607
SMc00606
SMc00605
SMc04090
SMc00938
SMc00288
SMc00935
SMc00934
SMc00930
SMc00933
SMc04149
SMc04140
SMc00112
SMc01641
SMc01643
SMc01644
SMc01645
SMc01648
SMc01649
SMc02334
SMc00732
SMc00731
SMc00730
SMc00739
SMc01883
SMc01881
SMc01460
SMc01462
SMc01468
SMc00428
SMc02912
SMc01451
SMc01089
SMc01260
SMc01266
SMc01265
SMc01068
SMc02337
SMc00826
SMc04400
SMc03248
SMc01656
SMc02069
SMc02068
SMc02063
SMc02062
SMc02065
SMc02067
SMc01659
SMc02243
SMc02245
SMc02244
SMc02518
SMc00707
SMc02399
SMc02398
SMc02394
SMc02660
SMc03286
SMc03280
SMc03281
SMc02803
SMc02802
SMc02801
SMc02800
SMc02481
SMc02480
SMc02487
SMc02486
SMc02485
SMc02940
SMc03754
SMc01864
SMc03751
SMc04394
SMc04397
SMc04391
SMc04393
SMc04392
SMc02937
SMc03963
SMc04081
SMc01837
SMc04279
SMc00128
SMc00129
SMc04152
SMc04151
SMc00259
SMc01655
SMc01654
SMc00251
SMc00255
SMc04273
SMc00387
SMc00385
SMc00382
SMc01728
SMc01727
SMc01721
SMc01720