SMa1587,-0.85
SMa1705,-1.09
SMb20072,-0.96
SMb20329,-0.63
SMb20943,-0.89
SMb20944,-1.33
SMb20945,-1.41
SMb20946,-1.36
SMb20948,-0.79
SMb20949,-1.58
SMb20954,-2
SMb20955,-1.52
SMb20956,-1.07
SMb20957,-1.58
SMb20958,-2.1
SMb20959,-1.77
SMb20960,-2.09
SMb20961,-1.8
SMb21026,-1.26
SMb21188,-1.26
SMb21189,-1.46
SMb21190,-1.23
SMb21191,-2.86
SMb21440,-3.22
SMb21466,-0.7
SMb21467,-1.28
SMb21491,-1.27
SMb21690,-1.71
SMc00062,-1.33
SMc00070,-0.93
SMc00084,-1.34
SMc00096,-1.8
SMc00168,-1.02
SMc00191,-0.88
SMc00404,-2.18
SMc00432,-1.01
SMc00433,-0.95
SMc00604,-0.6
SMc01163,-1.45
SMc01165,-0.63
SMc01166,-0.72
SMc01556,-0.71
SMc01580,-2.76
SMc01581,-2.49
SMc01774,-1.15
SMc01855,-2.41
SMc02242,-0.52
SMc02317,-0.98
SMc02552,-0.67
SMc02854,-0.63
SMc02986,-0.61
SMc03108,-1.32
SMc04236,-2.4
SMc04276,-1.22
SMc04381,-0.69
SMb20902,0.71
SMb21285,0.53
SMc00159,1.04
SMc00622,0.69
