SMa1587,-0.85,-0.0265373
SMa1705,-1.09,-0.728
SMb20072,-0.96,-2.04679
SMb20329,-0.63,-2.29576
SMb20902,0.71,0.646999
SMb20943,-0.89,-2.21103
SMb20944,-1.33,-2.13695
SMb20945,-1.41,-1.85945
SMb20946,-1.36,-2.03927
SMb20948,-0.79,-1.05941
SMb20949,-1.58,-0.563813
SMb20954,-2,-2.94526
SMb20955,-1.52,-2.44525
SMb20956,-1.07,-2.01475
SMb20957,-1.58,-1.80389
SMb20958,-2.1,-1.99845
SMb20959,-1.77,-1.78949
SMb20960,-2.09,-1.52134
SMb20961,-1.8,-1.53483
SMb21026,-1.26,-1.48603
SMb21188,-1.26,-1.87094
SMb21189,-1.46,-1.26562
SMb21190,-1.23,-1.19226
SMb21191,-2.86,-1.14489
SMb21285,0.53,-2.50063
SMb21440,-3.22,-1.80013
SMb21466,-0.7,-0.440878
SMb21467,-1.28,-1.21953
SMb21491,-1.27,-1.08624
SMb21690,-1.71,-1.13306
SMc00062,-1.33,-0.789603
SMc00070,-0.93,-1.60029
SMc00084,-1.34,-1.10358
SMc00096,-1.8,-1.02265
SMc00159,1.04,1.83128
SMc00168,-1.02,1.33385
SMc00191,-0.88,0.359093
SMc00404,-2.18,-0.203495
SMc00432,-1.01,-0.425406
SMc00433,-0.95,-0.340955
SMc00604,-0.6,-0.28257
SMc00622,0.69,0.918348
SMc01163,-1.45,-0.559581
SMc01165,-0.63,-0.902191
SMc01166,-0.72,-0.666678
SMc01556,-0.71,0.562295
SMc01580,-2.76,-2.15523
SMc01581,-2.49,-2.71934
SMc01774,-1.15,-1.32613
SMc01855,-2.41,-1.4327
SMc02242,-0.52,-0.761546
SMc02317,-0.98,-0.661347
SMc02552,-0.67,-0.200289
SMc02854,-0.63,-0.830122
SMc02986,-0.61,0.0393661
SMc03108,-1.32,-2.6627
SMc04236,-2.4,-2.68037
SMc04276,-1.22,-1.42966
SMc04381,-0.69,0.340559
