SM_c22-1
SMa0002
SMa0113
SMa0114
SMa0187
SMa0233
SMa0293
SMa0417
SMa0976
SMa1024
SMa1079
SMa1232
SMa1233
SMa1236
SMa1445
SMa1592
SMa1593
SMa1750
SMa2349
SMa2351
SMa2353
SMa2359
SMb20008
SMb20011
SMb20012
SMb20067
SMb20072
SMb20073
SMb20080
SMb20083
SMb20087
SMb20088
SMb20089
SMb20095
SMb20096
SMb20097
SMb20098
SMb20099
SMb20100
SMb20221
SMb20238
SMb20248
SMb20301
SMb20328
SMb20330
SMb20339
SMb20340
SMb20395
SMb20396
SMb20415
SMb20465
SMb20491
SMb20520
SMb20521
SMb20522
SMb20654
SMb20748
SMb20908
SMb20926
SMb20927
SMb21026
SMb21031
SMb21215
SMb21333
SMb21363
SMb21364
SMb21365
SMb21368
SMb21378
SMb21413
SMb21446
SMb21450
SMb21696
SMb22001
SMc00045
SMc00666
SMc00806
SMc00940
SMc00981
SMc00982
SMc01410
SMc01448
SMc01489
SMc01641
SMc02642
SMc03098
SMc03959
SMc04310
SMc04339
