SMb21365
SMb20228
SMb20082
SMa1024
SMb20340
SMc00664
SMb20087
SMa0785
SMb21366
SMb21413
SMb20084
SMb20933
SMb21445
SMb20093
SM_c22-1
SMa2349
SMa1593
SMb20098
SMb20097
SMb20099
SMb21687
SMb20080
SMa1445
SMc00981
SMb20252
SMa2351
SMc01210
SMc01448
SMb20926
SMb20008
SMb22001
SMa0233
SMb20100
SMa2353
SMb20011
SMb20301
SMb20274
SMb20089
SMc01641
SMb20521
SMb20927
SMa1233
SMb21031
SMb20330
SMa1592
SMc01489
SMb21364
SMa0417
SMa1232
SMb21368
SMb20221
SMc04310
SMb21215
SMa0976
SMc04339
SMb20415
SMa1236
SMc00045
SMb20067
SMc03098
SMb21408
SMb20174
SMb20339
SMb21363
SMb21047
SMc04169
SMc01981
SMb20925
SMb20404
SMb20399
SMa0288
SMc00958
SMb20208
SMa1521
SMb20222
SMa0005
SMb21028
SMb20015
SMc04337
SMa1591
SMc04340
SMb21586
SMc01985
SMb20414
SMc00798
SMb20013
SMb22008
SMa0414
SMb21353
SMc04239
SMc04038
SMc01788
SMa1519
SMc04181
SMc01378
SMa1255
SMa0640
SMb20206
SMb20016
SMa1241
SMb20343
SMa1256
SMb21370
SMa0992
SMb20479
SMc01982
SMb20081
SMa1240
SMa0279
SMc04173
SMc01983
SMc00086
SMc01264
SMb21371
SMa2299
SMa0846
SMa2033
SMa0620
SMb20657
SMc01986
SMa0026
SMa0300
SMa0136
SMa1765
SMc04866
SMa1361
SMa2065
SMc03101
SMc04186
SMb21369
SMb20575
SMa2034
SMc00338
SMb20205
SMc03982
SMb21412
SMc02689
SMc03085
SMb20302
SMc04444
SMc03121
SMb22007
SMb21400
SMc00179
SMb21689
SMb20071
SMb20342
SMc03117
SMa0554
SMc00942
SMb20365
SMc02467
SMa0112
SMc01463
SMb21044
SMb22020
SMc01175
SMc01984
SMb20991
SMc03102
SMb20355
SMa1533
SMb21211
SMb20315
SMa0478
SMa1364
SMc00135
SMb21027
SMb21240
SMc01466
SMa1296
SMc01243
SMb21509
SMb21351
SMb21697
SMc02525
SMa5033
SMc03120
SMa1550
SMa1578
SMb20747
SMa1176
SMb21352
SMb21025
SMa0191
SMb21683
SMc00031
SMb21469
SMc03119
SMb20014
SMb20516
SMa2273
SMa1058
SMa0193
SMa1548
SMb21569
SMa5011
SMb20957
SMb20616
SMa1363
SMc04172
SMa2125
SMb20889
SMc05015
SMc00281
SMc04130
SMa1021
SMa1696
SMa0612
SMb21470
SMa0218
SMc04053
SMb20430
SMc02254
SMc00600
SMa1907
SMa1362
SMc00030
SMb21178
SMa1797
SMb21336
SMc00941
SMa1766
SMa2379
SMb20322
SMa0621
SMa0320
SMb20432
SMb20424
SMc02180
SMc01002
SMc00251
SMb20161
SMa2037
SMc04432
SMa0617
SMb20126
SMc00663
SMb21344
SMb21341
SMc03803
SMc02675
SMa1853
SMa1798
SMb21695
SMb20514
SMa1939
SMa0683
SMa0630
SMa1078
SMb21401
SMb20257
SMa1526
SMb20829
SMb20656
SMb20883
SMc01575
SMb20958
SMb20068
SMa0322
SMc01551
SMb21343
SMa2357
SMb21661
SMa0977
SMb20175
SMb21064
SMa1525
SMa0025
SMb20313
SMb20576
SMb20542
SMa1018
SMc04433
SMb20710
SMb21345
SMb21668
SMb20331
SMa1065
SMc03970
SMc05019
SMb21595
SMa1672
SMa5026
SMb21596
SMa0175
SMa1594
SMb20357
SMc00938
SMc00662
SMa0299
SMa0824
SMa0817
SMb20300
SMc01403
SMc02023
SMb20712
SMa1328
SMc01884
SMb21226
SMb20356
SMa1253
SMb20214
SMb20163
SMc02503
SMa1113
SMb20531
SMb21455
SMb20882
SMa1589
SMc02247
SMc02187
SMa1523
SMb20321
SMc02668
SMa1556
SMa1001
SMc03118
SMb20358
SMb21633
SMb21632
SMb21227
SMb20950
SMc04289
SMb21690
SMb20134
SMb20959
SMb21063
SMa1789
SMb20597
SMc03244
SMa0407
SMc02688
SMb20594
SMc02371
SMc01434
SMb21635
SMb20948
SMb20180
SMb20314
SMb20905
SMa1529
SMc01507
SMc04431
SMb22002
SMc04333
SMb20162
SMa1250
SMa0882
SMa0229
SMa1606
SMb21191
SMa1334
SMb20687
SMb20135
SMb22021
SMb20992
SMb20842
SMb20505
SMa0819
SMb20232
SMb20256
SMb21342
SMc00123
SMb21030
SMa0015
SMa1191
SMa2165
SMb21467
SMb20688
SMc00279
SMa1979
SMb21686
SMa0914
SMc02471
SMa1921
SMb20840
SMa0232
SMa1532
SMc03116
SMb20554
SMc01256
SMa0752
SMc00019
SMa2103
SMb20077
SMc04174
SMc04312
SMa0890
SMb21062
SMb20989
SMb20431
SMc04188
SMb20856
SMa0702
SMb20629
SMa0462
SMa0699
SMb21540
SMb21084
SMa2139
SMa0319
SMa1099
SMc01821
SMb20408
SMc04384
SMc01987
SMb20627
SMc01492
SMc03815
SMc04313
SMc00781
SMa0664
SMc00084
SMb20841
SMb21420
SMa0678
SMb20366
SMa0570
SMa2229
SMa0581
SMb20881
SMb21224
SMa0559
SMc00350
SMb20578
SMb21229
SMb21471
SMb21241
SMb20029
SMb20320
SMa2315
SMb20810
SMb20606
SMb20374
SMb20987
SMb20671
SMa1675
SMb20726
SMb20056
SMa0811
SMb20020
SMb20661
SMb20686
SMa2147
SMc00823
SMb21048
SMb21242
SMa2275
SMa1259
SMc04331
SMb20714
SMc01814
SMa2123
SMc01562
SMb20363
SMc01470
SMb20196
SMb20532
SMa2135
SMa1178
SMc03202
SMb21071
SMb21243
SMc04144
SMa0464
SMb21419
SMb20555
SMa0680
SMc01444
SMa0444
SMb20660
SMb20010
SMc01554
SMc02156
SMb20746
SMc02202
SMa1264
SMb21565
SMc03247
SMc04451
SMc04162
SMb20115
SMb20675
SMc01160
SMc03768
SMb21228
SMc00801
SMc02474
SMa1767
SMb20605
SMb20079
SMb20433
SMc02709
SMc04314
SMb21235
SMa1541
SMa0572
SMb21250
SMb20213
SMb20617
SMb20819
SMb21488
SMb21236
SMc00089
SMc02842
SMb20460
SMa0972
SMb20990
SMc01762
SMa0810
SMa1225
SMb20048
SMb21571
SMa1381
SMb21237
SMc03204
SMa0217
SMc01576
SMb21143
SMa0277
SMb20579
SMb21649
SMb20711
SMb20118
SMa2067
SMa1515
SMc04306
SMc00067
SMa0636
SMa2141
SMa0172
SMa0011
SMb20114
SMc03086
SMa1124
SMb20361
SMc03999
SMc01824
SMa1658
SMa0009
SMb20472
SMb21190
SMb20577
SMb20164
SMb20373
SMa1881
SMb21519
SMb21212
SMa1705
SMb21065
SMc01456
SMb20858
SMc00096
SMc01593
SMb20709
SMc02778
SMb20846
SMa0329
SMa1670
SMa5014
SMc03176
SMb20030
SMc03201
SMb20231
SMc04335
SMb21066
SMb20423
SMa2385
SMc04190
SMb21486
SMa0116
SMa0983
SMa1413
SMb21166
SMa1430
SMb22006
SMa1514
SMb20932
SMc01648
SMc01022
SMa0670
SMa1985
SMa1688
SMa2137
SMa0287
SMc03203
SMc04004
SMb21245
SMc02326
SMc03154
SMc01815
SMb20102
SMb20289
SMb21244
SMc01460
SMb20127
SMb20470
SMc01140
SMb20452
SMb21045
SMc03144
SMb20965
SMa1894
SMa0576
SMb20181
SMa0751
SMa5006
SMc03104
SMa1497
SMb20416
SMc04163
SMb20398
SMb20618
SMa0673
SMc00529
SMc02462
SMc04295
SMc00977
SMb21121
SMa0682
SMa1331
SMb20197
SMb20611
SMa1488
SMc01827
SMb20546
SMb20434
SMc01826
SMc01961
SMc04865
SMb20139
SMc03937
SMb20713
SMa0564
SMb20557
SMc02394
SMa0467
SMb20212
SMa1564
SMc01009
SMc02177
SMb21385
SMb20364
SMa2131
SMc01339
SMa2133
SMc01429
SMa0563
SMa1668
SMa0816
SMa1037
SMb21563
SMa2127
SMa1568
SMa2267
SMa1896
SMb20562
SMa1769
SMb20857
SMb21059
SMb20891
SMa1245
SMc03155
SMa1288
SMc01552
SMc02381
SMc04054
SMc04283
SMc01595
SMc00047
SMb21415
SMb22003
SMc01615
SMb21434
SMa1067
SMb21396
SMb21078
SMa1103
SMc01007
SMb20949
SMc02561
SMc05011
SMc03177
SMa0574
SMb20101
SMb21060
SMb20812
SMa1341
SMb21073
SMa0214
SMb20179
SMa1351
SMa0326
SMa2069
SMb20375
SMb21011
SMa1120
SMc03166
SMc02441
SMb20258
SMb21163
SMb20279
SMb21490
SMb21487
SMb21460
SMa1825
SMc04265
SMa1179
SMb20435
SMa0695
SMc03767
SMb21491
SMc04164
SMa0307
SMb20664
SMa0512
SMc00819
SMa1008
SMb20929
SMc00049
SMa1676
SMb20410
SMb22004
SMb21082
SMc02494
SMc03099
SMa2129
SMa1386
SMb20138
SMc04266
SMb21057
SMc03248
SMb20198
SMb21052
SMb21013
SMa2163
SMa1737
SMa0461
SMb21249
SMb20443
SMb20059
SMc04315
SMc01741
SMb21081
SMb20890
SMa0028
SMb21570
SMc01380
SMa1013
SMa0469
SMa1500
SMb21168
SMa1916
SMa1600
SMc01325
SMb20947
SMb20332
SMa1356
SMc01282
SMb20215
SMa1535
SMa1158
SMb20194
SMa1561
SMc04161
SMc01149
SMa1968
SMc02297
SMc01817
SMc02851
SMc00659
SMc03814
SMc01836
SMa1545
SMb20422
SMa0364
SMc03265
SMa1014
SMa1156
SMa0803
SMa1332
SMc01856
SMa0349
SMb21556
SMa1329
SMc00351
SMb21246
SMa1948
SMc00818
SMc01148
SMb21269
SMa1735
SMa1957
SMa0903
SMb21068
SMa1247
SMb20930
SMa1509
SMb21123
SMa1029
SMa0389
SMc00337
SMc04135
SMa1151
SMc02351
SMa0220
SMc03985
SMb20707
SMb21164
SMb20893
SMc00538
SMc01960
SMc01765
SMa1538
SMa1680
SMa1323
SMc01757
SMa2319
SMc03278
SMa1353
SMb21572
SMb20506
SMa1898
SMc00368
SMa2327
SMb21056
SMc00699
SMb20814
SMa0447
SMb21154
SMb22009
SMc03769
SMa1355
SMa1513
SMa1371
SMa2041
SMc01725
SMb20292
SMa0308
SMb20113
SMc01493
SMb20608
SMc00048
SMb20406
SMb21124
SMb20826
SMb20407
SMc03211
SMb20986
SMa0822
SMb20539
SMa0391
SMb21402
SMc01281
SMb20592
SMa0347
SMc01740
SMb20770
SMc02557
SMc01613
SMc04177
SMc00785
SMa1644
SMa1122
SMa1963
SMc00946
SMb21022
SMc01748
SMc01825
SMc04322
SMc04385
SMb20628
SMb21414
SMc04217
SMa0814
SMc04321
SMb21543
SMc03813
SMb21530
SMb20278
SMb20285
SMc00976
SMc00828
SMa0498
SMc02708
SMc02224
SMb21069
SMb20894
SMc00256
SMb20284
SMc02227
SMb20751
SMb21644
SMa0687
SMb20272
SMa0493
SMa0275
SMb20417
SMb20372
SMa1933
SMa1339
SMc01443
SMc00274
SMc03874
SMb20559
SMb20884
SMa0774
SMa1476
SMa0302
SMc02706
SMc03820
SMc02719
SMa1875
SMb20055
SMb20291
SMc02277
SMc03258
SMc04031
SMb20475
SMc02565
SMb21061
SMa0203
SMa0684
SMc04180
SMb21122
SMb20984
SMc03150
SMc00487
SMa1660
SMc01823
SMc00517
SMc01989
SMa1038
SMa0800
SMb21133
SMc02112
SMc01006
SMa0383
SMc04285
SMa0579
SMa0796
SMc03889
SMa2355
SMa0815
SMb21239
SMc00707
SMb20658
SMa1597
SMa1987
SMb20290
SMb20288
SMb21053
SMa0149
SMc04055
SMb20442
SMc03199
SMc00470
SMb20453
SMc01797
SMb21466
SMc00943
SMb20280
SMc00817
SMa5007
SMa0118
SMb20752
SMc02109
SMc01764
SMa0825
SMc00886
SMc00451
SMc00064
SMc04439
SMa2294
SMc02859
SMb21548
SMa0466
SMb21461
SMc04330
SMa0981
SMa1337
SMc01829
SMb20467
SMa0273
SMc03754
SMb21380
SMb20466
SMb20281
SMa1155
SMa1823
SMc01442
SMa2381
SMb20070
SMa0520
SMb20515
SMb20283
SMa0298
SMc01426
SMa0209
SMb20108
SMb20993
SMa1677
SMa0950
SMa0168
SMb20753
SMc01428
SMb20615
SMc00140
SMc01908
SMb20968
SMa1354
SMa1379
SMc02860
SMc00301
SMc04176
SMc01819
SMc04347
SMc01828
SMb20892
SMc03096
SMc02051
SMb20964
SMc02897
SMc01109
SMc00786
SMc01364
SMc01921
SMc01880
SMc02099
SMc01914
SMc04025
SMc01127
SMc01207
SMc02465
SMc00323
SMc01174
SMc00175
SMc00133
SMc01861
SMa1698
SMc02838
SMc01781
SMc01192
SMc01881
SMc01450
SMc01935
SMa2105
SMc03925
SMc01334
SMb21551
SMc01780
SMc03800
SMc04309
SMa1755
SMc00100
SMc01808
SMc00228
SMb20996
SMc01927
SMc00779
SMc01772
SMb21192
SMb21180
SMc02551
SMc01200
SMc01292
SMb20880
SMc02124
SMc01167
SMc04185
SMa2412
SMa0809
SMc02770
SMc02678
SMc01296
SMc04454
SMb20335
SMc03989
SMc00485
SMb20756
SMc00407
SMb21433
SMc00146
SMc01732
SMc04179
SMc02683
SMc01156
SMc00469
SMc04403
SMc02063
SMc01203
SMc01877
SMc01051
SMc00595
SMc00933
SMc01785
SMc01761
SMc01906
SMc01766
SMc00191
SMc00335
SMc00532
SMa1697
SMc01114
SMb20755
SMc03207
SMc00155
SMc01455
SMc02356
SMc01287
SMb21428
SMa1162
SMc00332
SMc01318
SMc02375
SMc00922
SMa0257
SMc01331
SMc00229
SMc00005
SMc01342
SMc04245
SMc04028
SMc01204
SMc01158
SMc04247
SMc04010
SMc02725
SMc01348
SMc00382
SMc01862
SMc01023
SMc00016
SMc01145
SMc01602
SMb20876
SMc00556
SMc00649
SMc03230
SMc00187
SMc01347
SMc01721
SMc01315
SMc02311
SMc04434
SMc00706
SMc00324
SMc00863
SMc00154
SMa1440
SMc02603
SMc03996
SMc04457
SMc00477
SMc01376
SMc03111
SMc02235
SMc02103
SMc03796
SMb20046
SMc00249
SMc02850
SMc03926
SMc00416
SMc04296
SMc02181
SMc04252
SMc02463
SMc02415
SMc02369
SMc01155
SMc03763
SMc03864
SMc01095
SMc03237
SMb21112
SMc01803
SMc04056
SMc02543
SMc01991
SMc00081
SMb21494
SMc02757
SMc02273
SMa0380
SMc00551
SMc03857
SMc00775
SMc02268
SMc01327
SMc02481
SMc00695
SMc01300
SMc01966
SMc02270
SMb21425
SMc01229
SMc04406
SMc00408
SMc00494
SMb20682
SMc00520
SMc01574
SMc00188
SMc02346
SMc02296
SMc04121
SMc00935
SMc02976
SMc02812
SMc01852
SMc00874
SMc03124
SMc03808
SMc01616
SMc02684
SMc00588
SMc02572
SMc01421
SMc01147
SMa1702
SMc03929
SMc02567
SMc02372
SMc02779
SMc01650
SMc00698
SMc00604
SMc01223
SMb21322
SMc02852
SMc00862
SMc02483
SMc01299
SMc00644
SMc02739
SMc02864
SMc01283
SMc00738
SMc00923
SMc04363
SMc00537
SMb21534
SMc01876
SMa2217
SMc00581
SMc01744
SMc00051
SMc01319
SMc03772
SMc02080
SMc02480
SMc01293
SMc00573
SMc01260
SMc04013
SMa2303
SMc00524
SMa1954
SMb21004
SMc00813
SMc01314
SMc02341
SMc00916
SMc01940
SMc03795
SMc00557
SMc00377
SMc00642
SMc01441
SMc04207
SMb20003
SMc00054
SMc01103
SMb21174
SMc03770
SMc00513
SMb21006
SMc01782
SMc00932
SMc00365
SMc02828
SMc00410
SMc02165
SMc00009
SMc00528
SMc02152
SMc00357
SMc00902
SMc03798
SMc00733
SMc02872
SMc02793
SMc01206
SMc02053
SMc00071
SMb20045
SMc02050
SMb20268
SMc01274
SMc04007
SMc01221
SMc01294
SMc03231
SMc00691
SMc00373
SMc01094
SMc00348
SMc01592
SMc00703
SMb21274
SMc03238
SMc02909
SMb20888
SMc02154
SMc04029
SMc01232
SMa0849
SMc01212
SMc01118
SMc02385
SMb20817
SMc02497
SMc04134
SMc01812
SMa0851
SMc03882
SMc03893
SMc03990
SMc01138
SMc00867
SMc02345
SMc02596
SMc01320
SMc01019
SMc00648
SMc01745
SMb21005
SMb21298
SMc00404
SMb21213
SMc03161
SMc00234
SMc02439
SMc02175
SMc02432
SMc03860
SMc01333
SMc02835
SMc02830
SMc02155
SMc00853
SMc00265
SMa1754
SMa2233
SMc01440
SMa2008
SMc02826
SMc03976
SMc02260
SMc03130
SMc01451
SMc01170
SMc01837
SMc01783
SMc04257
SMc01933
SMc04042
SMc03895
SMc00169
SMc02164
SMc04000
SMc01977
SMc05006
SMc01494
SMc02046
SMc01010
SMc04271
SMc03056
SMc01868
SMc04256
SMc04051
SMc01929
SMc02580
SMa0247
SMc01330
SMc03865
SMc02062
SMb21079
SMc00947
SMc03977
SMb21218
SMc02065
SMc04275
SMb21111
SMc01804
SMc01130
SMc03160
SMc04228
SMc02083
SMc00602
SMc01878
SMc03110
SMc01340
SMc04387
SMc02712
SMc00677
SMc00763
SMc03828
SMc01052
SMc02071
SMc00531
SMc02866
SMc04402
SMc01858
SMc03884
SMc01117
SMc02756
SMb21113
SMb20807
SMc04389
SMc03228
SMc02789
SMb20861
SMc02495
SMc03805
SMc00482
SMb21318
SMc02151
SMc03826
SMc00235
SMa1303
SMc04390
SMc05001
SMc02451
SMc00773
SMc04255
SMc00366
SMc02804
SMc01520
SMc02147
SMc02574
SMc04450
SMc01934
SMa2235
SMc01030
SMc02383
SMc00937
SMc01290
SMc00036
SMc02829
SMb21171
SMc01128
SMc00151
SMc01850
SMc03165
SMb21196
SMc03997
SMc00327
SMc02867
SMc01771
SMc02226
SMc02438
SMc04058
SMc02334
SMc00904
SMc02267
SMc02091
SMc00732
SMc00735
SMc04259
SMa1959
SMc00574
SMc01407
SMc02693
SMa2075
SMc01101
SMc02692
SMc00292
SMc03227
SMc00566
SMc03934
SMc01286
SMc00008
SMc02501
SMc05005
SMc00390
SMc02386
SMc04458
SMc00936
SMc00898
SMc02026
SMc02170
SMc00993
SMc01037
SMc00571
SMc00184
SMc00768
SMc02781
SMc04123
SMc04392
SMc00995
SMc00769
SMb21185
SMc02479
SMc00380
SMc01359
SMc01346
SMc00575
SMc00010
SMc00951
SMc00420
SMc04122
SMc04253
SMc00333
SMc02222
SMc00241
SMa1751
SMa0058
SMc02484
SMc01131
SMa1632
SMc01967
SMb21176
SMc00078
SMc01702
SMc02104
SMa2361
SMc01461
SMc04094
SMc01227
SMb20886
SMc00945
SMa1760
SMc01089
SMc00264
SMb20614
SMc01953
SMc03232
SMc00017
SMc01316
SMc00831
SMc02788
SMc00007
SMb20764
SMc00472
SMb20670
SMc02068
SMc00869
SMc00580
SMc00987
SMc01941
SMc00526
SMc01350
SMc01777
SMc02640
SMc02101
SMc01313
SMc00328
SMc00988
SMc02445
SMc00944
SMc00361
SMc02025
SMc01885
SMc04083
SMc02881
SMc00618
SMc00462
SMc00797
SMc03007
SMc01272
SMc03840
SMc03062
SMc01968
SMc01809
SMc01275
SMc02335
SMb20319
SMc01806
SMc00730
SMc02031
SMb20636
SMc02121
SMc03065
SMc03899
SMc02092
SMc03924
SMc02118
SMc01349
SMc02225
SMc00608
SMc01302
SMc02896
SMc03788
SMb21175
SMc04050
SMc02908
SMc03956
SMc04277
SMc04254
SMc00594
SMc01343
SMc00622
SMc00894
SMc01802
SMc00827
SMc01231
SMc01798
SMb21117
SMc02333
SMc02586
SMc00321
SMc03063
SMc00984
SMc00697
SMc01523
SMb21277
SMc01769
SMc00484
SMc00347
SMc02437
SMc01001
SMc00555
SMc02977
SMb21653
SMc04213
SMc02802
SMc01013
SMc01317
SMc00131
SMc03935
SMc00883
SMc01775
SMc02502
SMb22017
SMc02276
SMc00873
SMc00962
SMc00855
SMc02340
SMc03153
SMb20941
SMc04286
SMc02169
SMc00868
SMc00068
SMc02349
SMc03978
SMc01303
SMc01525
SMc00568
SMc00567
SMc03958
SMc04446
SMc04208
SMc01258
SMc00415
SMc00232
SMc00104
SMc01321
SMc00826
SMc04393
SMc03280
SMc03866
SMc04270
SMa0101
SMc02218
SMc01285
SMa2015
SMc00275
SMb21418
SMa1890
SMc03896
SMc00647
SMc02049
SMc01291
SMc01784
SMc00457
SMc02038
SMc03835
SMc02856
SMc04012
SMc00711
SMc02393
SMc01779
SMc00510
SMc00139
SMa1639
SMc00325
SMc01430
SMc01310
SMc03957
SMa1428
SMc02044
SMa2020
SMc01582
SMa0204
SMc01770
SMc03097
SMb20149
SMc02713
SMc02408
SMc01344
SMc01698
SMc00403
SMc01289
SMc00114
SMa0956
SMc00128
SMb20878
SMb20885
SMc02094
SMc00488
SMc00495
SMc00388
SMc01621
SMb21273
SMc02766
SMc00271
SMc01027
SMc02350
SMb20393
SMc04095
SMc03943
SMc04084
SMc00731
SMc02305
SMc02477
SMb20262
SMb21492
SMc02765
SMc03013
SMb20668
SMc03070
SMc00787
SMc00161
SMc04462
SMb21100
SMc02163
SMc01352
SMc00103
SMc01431
SMc01718
SMc02261
SMc04206
SMb20267
SMc02355
SMc02499
SMc01031
SMc01717
SMc02620
SMc01188
SMc01930
SMb21642
SMc02250
SMc00294
SMc03961
SMc00815
SMa0104
SMc01952
SMb20902
SMc02173
SMc02641
SMb21217
SMc02139
SMc00320
SMc00225
SMc00852
SMc02448
SMc03172
SMc00728
SMc00475
SMc01622
SMb21321
SMb20504
SMc02478
SMc00163
SMc03016
SMc02817
SMc00570
SMc01939
SMc00598
SMc00572
SMc00172
SMc02487
SMc00871
SMc02833
SMc01373
SMc01191
SMc00816
SMc03830
SMb21214
SMc01522
SMa1893
SMa1720
SMc02093
SMc00098
SMc00480
SMc00910
SMc03960
SMc00535
SMb20483
SMc00909
SMc02027
SMc04197
SMc01910
SMc03004
SMc03173
SMc01288
SMc01799
SMc00579
SMc02868
SMc00870
SMc00536
SMc01360
SMc04273
SMc02644
SMc00919
SMc00907
SMc01219
SMc02681
SMb21280
SMc02659
SMc02263
SMc01620
SMc02259
SMc01306
SMc00696
SMc01309
SMc02344
SMc01541
SMc02342
SMc04405
SMa1311
SMc02476
SMc03885
SMb20850
SMc02843
SMc04410
SMc02100
SMc00714
SMc01259
SMc00565
SMc01627
SMc02759
SMc02861
SMc01844
SMc03093
SMb21275
SMa0513
SMc02120
SMc01976
SMc04204
SMc04052
SMc04088
SMc01362
SMc02846
SMb21500
SMc01635
SMc02332
SMc00025
SMc02714
SMc03869
SMc01778
SMb20456
SMc01312
SMa1761
SMc00376
SMc02057
SMc01851
SMc01491
SMb20266
SMc01629
SMc04089
SMc03829
SMc00138
SMc02274
SMc02150
SMb20277
SMc03064
SMc02275
SMc02834
SMc00585
SMc01502
SMc01726
SMc01126
SMc00190
SMc00918
SMc02450
SMc00851
SMc03132
SMc01335
SMc04005
SMc02738
SMa0060
SMc01626
SMc01632
SMc02073
SMc00093
SMc04030
SMc00690
SMc02636
SMc02682
SMc02149
SMc02172
SMa1586
SMa0314
SMc02522
SMc02518
SMc00710
SMc02496
SMc02347
SMc02064
SMc00227
SMc00330
SMc04463
SMb20273
SMc01831
SMc04341
SMc03159
SMa2239
SMc00394
SMc00776
SMc03863
SMa1306
SMc03867
SMc02631
SMc01588
SMc01304
SMc00650
SMc03239
SMc00034
SMc01108
SMc01945
SMc03987
SMc00788
SMc00791
SMc04199
SMc00246
SMc01594
SMc00375
SMc00772
SMc02514
SMc02895
SMc03200
SMc04316
SMc00026
SMb20815
SMc01028
SMc01529
SMc00771
SMc04455
SMc00094
SMb21198
SMc00427
SMc03939
SMc02758
SMa0224
SMc01526
SMb21678
SMc02047
SMc02117
SMc00511
SMc02508
SMc02081
SMc01012
SMa2249
SMc02862
SMc02500
SMc04154
SMc00349
SMb20824
SMc01807
SMc03131
SMc00024
SMc00149
SMc01018
SMc01609
SMc00486
SMc03858
SMc01556
SMc01667
SMc02801
SMc02343
SMc01353
SMc00961
SMc02176
SMc00577
SMc02384
SMc01833
SMc00724
SMc01776
SMc01712
SMc00895
SMc00461
SMc00985
SMc03197
SMa0166
SMb21430
SMc00590
SMc00490
SMc02519
SMc02058
SMc02278
SMc01865
SMc01668
SMc03762
SMc00789
SMc02600
SMa1322
SMc00476
SMc02460
SMc02436
SMc00965
SMa1654
SMc02087
SMc00576
SMb21508
SMc02516
SMc01951
SMc00963
SMc00980
SMc00989
SMc02119
SMb20265
SMc01345
SMc01034
SMb20622
SMc01406
SMc01261
SMc02598
SMc04251
SMc02855
SMc01597
SMc02082
SMa2057
SMc04461
SMc04229
SMc00948
SMa1326
SMc04196
SMb21432
SMc01531
SMc01033
SMa1747
SMc01355
SMc01714
SMc02847
SMc04334
SMc01660
SMc01756
SMa1394
SMc01670
SMc01787
SMc01301
SMc03015
SMc01731
SMc01361
SMc02760
SMc01909
SMc03785
SMc03196
SMc02449
SMc00825
SMc01979
SMc01308
SMc02874
SMc02517
SMa0773
SMc03927
SMc00830
SMc03164
SMc03140
SMc02079
SMc01472
SMc04317
SMc01832
SMc01305
SMc02256
SMc00964
SMc01307
SMc02232
SMc03149
SMc04018
SMc03194
SMb21199
SMc01867
SMb21493
SMc01498
SMc02818
SMc04263
SMc00326
SMc01978
SMc00802
SMc00002
SMc03761
SMc03784
SMb20774
SMc00177
SMc01863
SMb20264
SMb21197
SMc02695
SMc01228
SMc03938
SMc02032
SMc03928
SMc00247
SMc00342
SMc02407
SMc00079
SMb21431
SMb20665
SMc04338
SMc00582
SMc01218
SMc02691
SMc04191
SMc01032
SMc01125
SMc04009
SMc01980
SMc02736
SMc01584
SMa1740
SMb20275
SMc00615
SMc02245
SMc00035
SMc00293
SMc02601
SMc01414
SMc00586
SMc01754
SMc02059
SMc03091
SMc00039
SMc03950
SMc01468
SMc03175
SMb21429
SMc00887
SMc03158
SMc00385
SMc00412
SMc02142
SMc00614
SMc02352
SMa0806
SMc02900
SMa1398
SMc01528
SMc00471
SMc03859
SMb20935
SMc01375
SMa1746
SMb21037
SMc01969
SMc02241
SMc01527
SMc01864
SMc02888
SMc03198
SMc01035
SMc00083
SMc02686
SMc02140
SMc02890
SMc00725
SMc02873
SMc04214
SMa0228
SMa1626
SMc04258
SMc01638
SMc01722
SMc04044
SMc00127
SMc02072
SMc01631
SMa2391
SMc02359
SMc02633
SMc00414
SMc02055
SMc02161
SMc00386
SMc02360
SMc02910
SMc00400
SMc00790
SMc02370
SMc02143
SMc00784
SMc02899
SMc01363
SMc00866
SMc00508
SMa1745
SMc02942
SMc02357
SMc02166
SMc01630
SMc02599
SMc00245
SMc02358
SMc01162
SMc01237
SMc03163
SMc00908
SMc00354
SMc01847
SMc00492
SMc01215
SMb21098
SMa0753
SMc01633
SMc00640
SMc01848
SMa2023
SMa1397
SMc00196
SMc03090
SMc04260
SMc00040
SMc03818
SMc01944
SMc04262
SMc01518
SMc01974
SMc01003
SMc02318
SMc00729
SMc03138
SMc03942
SMc03058
SMc00242
SMc01805
SMc04248
SMa1313
SMc00496
SMb21499
SMc01121
SMc04456
SMc00399
SMb20816
SMc02234
SMc02262
SMb20776
SMc01524
SMa2243
SMa0056
SMc04215
SMb20775
SMc00561
SMc01107
SMc02085
SMc04323
SMc02052
SMc02898
SMc03967
SMb20904
SMc00888
SMc03948
SMc02024
SMc02320
SMa0031
SMc01579
SMb20903
SMc00760
SMc04436
SMc03862
SMa1319
SMa1400
SMb20263
SMa2241
SMc03114
SMc02376
SMc02632
SMb20368
SMa2337
SMc02839
SMc00641
SMc02891
SMc01972
SMc02246
SMc03832
SMc01634
SMc02145
SMc01469
SMc01610
SMc01950
SMc00331
SMc01513
SMc02084
SMc03038
SMc00507
SMb20044
SMc01946
SMc02982
SMc02144
SMc02983
SMc03036
SMa1327
SMc04249
SMc01187
SMc02685
SMc03209
SMb21040
SMb20369
SMc02231
SMc00413
SMc01973
SMc01530
SMc02146
SMc00401
SMc02447
SMa2245
SMa1820
SMc01511
SMc00652
SMc00653
SMc04230
SMc02240
SMc01948
SMb21099
SMc03139
SMc01183
SMc01747
SMc02819
SMc01512
SMc00059
SMa2400
SMc03966
SMa2408
SMc01514
SMb21036
SMa0059
SMc03157
SMc02488
SMa0034
SMc01949
SMc04225
SMa2402
SMc00150
SMb20370
SMc01607
SMc00996
SMc03134
SMc04205
SMc01871
SMc01510
SMc02452
SMa2410
SMc01015
SMc02889
SMc02338
SMc04407
SMa1315
SMa2414
SMb21096
SMa2404
SMc01872
SMc00060
SMa2339
SMc01873
SMc01515
SMc02339
SMc01834
SMc03037
SMc00592
SMc04203
SMc00402
SMc01517
SMc02337
SMb21095
SMb21515
SMc02520
SMb21009
SMb21514
SMb21094
SMb21097
SMc02726
SMb21513
SMc01719
SMb21504
SMc02392
SMc02446
SMc01356
SMc01561
SMb21512
SMc01791
SMc01658
SMc01790
SMc01611
SMc00992
SMc01657
SMc01357
SMc03886
SMa1801
SMc02521
SMc03283
